PWD /user/boulet/Documents/msu_postdoc/notes_msu/projects
INPUT /etc/texmf/web2c/texmf.cnf
INPUT /usr/share/texmf/web2c/texmf.cnf
INPUT /usr/share/texlive/texmf-dist/web2c/texmf.cnf
INPUT /var/lib/texmf/web2c/pdftex/pdflatex.fmt
INPUT /user/boulet/Documents/msu_postdoc/notes_msu/projects/main.tex
OUTPUT /user/boulet/Documents/msu_postdoc/notes_msu/projects/main.log
INPUT /usr/share/texlive/texmf-dist/tex/latex/revtex/revtex4-1.cls
INPUT /usr/share/texlive/texmf-dist/tex/latex/revtex/revtex4-1.cls
INPUT /usr/share/texlive/texmf-dist/tex/latex/revtex/aps4-1.rtx
INPUT /usr/share/texlive/texmf-dist/tex/latex/revtex/aps4-1.rtx
INPUT /usr/share/texlive/texmf-dist/tex/latex/revtex/aps4-1.rtx
INPUT /usr/share/texlive/texmf-dist/tex/latex/revtex/apsrmp4-1.rtx
INPUT /usr/share/texlive/texmf-dist/tex/latex/revtex/apsrmp4-1.rtx
INPUT /usr/share/texlive/texmf-dist/tex/latex/revtex/aps10pt4-1.rtx
INPUT /usr/share/texlive/texmf-dist/tex/latex/revtex/aps10pt4-1.rtx
INPUT /usr/share/texlive/texmf-dist/tex/latex/textcase/textcase.sty
INPUT /usr/share/texlive/texmf-dist/tex/latex/textcase/textcase.sty
INPUT /usr/share/texlive/texmf-dist/tex/latex/amsfonts/amssymb.sty
INPUT /usr/share/texlive/texmf-dist/tex/latex/amsfonts/amssymb.sty
INPUT /usr/share/texlive/texmf-dist/tex/latex/amsfonts/amsfonts.sty
INPUT /usr/share/texlive/texmf-dist/tex/latex/amsfonts/amsfonts.sty
INPUT /usr/share/texlive/texmf-dist/tex/latex/amsmath/amsmath.sty
INPUT /usr/share/texlive/texmf-dist/tex/latex/amsmath/amsmath.sty
INPUT /usr/share/texlive/texmf-dist/tex/latex/amsmath/amstext.sty
INPUT /usr/share/texlive/texmf-dist/tex/latex/amsmath/amstext.sty
INPUT /usr/share/texlive/texmf-dist/tex/latex/amsmath/amsgen.sty
INPUT /usr/share/texlive/texmf-dist/tex/latex/amsmath/amsgen.sty
INPUT /usr/share/texlive/texmf-dist/tex/latex/amsmath/amsbsy.sty
INPUT /usr/share/texlive/texmf-dist/tex/latex/amsmath/amsbsy.sty
INPUT /usr/share/texlive/texmf-dist/tex/latex/amsmath/amsopn.sty
INPUT /usr/share/texlive/texmf-dist/tex/latex/amsmath/amsopn.sty
INPUT /usr/share/texlive/texmf-dist/tex/latex/url/url.sty
INPUT /usr/share/texlive/texmf-dist/tex/latex/url/url.sty
INPUT /usr/share/texlive/texmf-dist/tex/latex/natbib/natbib.sty
INPUT /usr/share/texlive/texmf-dist/tex/latex/natbib/natbib.sty
INPUT /usr/share/texlive/texmf-dist/tex/latex/revtex/revsymb4-1.sty
INPUT /usr/share/texlive/texmf-dist/tex/latex/revtex/revsymb4-1.sty
INPUT /user/boulet/Documents/msu_postdoc/notes_msu/projects/../header_notes.tex
INPUT /user/boulet/Documents/msu_postdoc/notes_msu/projects/../header_notes.tex
INPUT /usr/share/texlive/texmf-dist/tex/latex/base/inputenc.sty
INPUT /usr/share/texlive/texmf-dist/tex/latex/base/inputenc.sty
INPUT /usr/share/texlive/texmf-dist/tex/latex/base/utf8.def
INPUT /usr/share/texlive/texmf-dist/tex/latex/base/utf8.def
INPUT /usr/share/texlive/texmf-dist/tex/latex/base/t1enc.dfu
INPUT /usr/share/texlive/texmf-dist/tex/latex/base/t1enc.dfu
INPUT /usr/share/texlive/texmf-dist/tex/latex/base/ot1enc.dfu
INPUT /usr/share/texlive/texmf-dist/tex/latex/base/ot1enc.dfu
INPUT /usr/share/texlive/texmf-dist/tex/latex/base/omsenc.dfu
INPUT /usr/share/texlive/texmf-dist/tex/latex/base/omsenc.dfu
INPUT /usr/share/texlive/texmf-dist/tex/latex/base/fontenc.sty
INPUT /usr/share/texlive/texmf-dist/tex/latex/base/fontenc.sty
INPUT /usr/share/texlive/texmf-dist/tex/latex/base/t1enc.def
INPUT /usr/share/texlive/texmf-dist/tex/latex/base/t1enc.def
INPUT /usr/share/texlive/texmf-dist/fonts/map/fontname/texfonts.map
INPUT /usr/share/texlive/texmf-dist/fonts/tfm/jknappen/ec/ecrm1000.tfm
INPUT /usr/share/texlive/texmf-dist/tex/latex/graphics/graphicx.sty
INPUT /usr/share/texlive/texmf-dist/tex/latex/graphics/graphicx.sty
INPUT /usr/share/texlive/texmf-dist/tex/latex/graphics/keyval.sty
INPUT /usr/share/texlive/texmf-dist/tex/latex/graphics/keyval.sty
INPUT /usr/share/texlive/texmf-dist/tex/latex/graphics/graphics.sty
INPUT /usr/share/texlive/texmf-dist/tex/latex/graphics/graphics.sty
INPUT /usr/share/texlive/texmf-dist/tex/latex/graphics/trig.sty
INPUT /usr/share/texlive/texmf-dist/tex/latex/graphics/trig.sty
INPUT /usr/share/texlive/texmf-dist/tex/latex/graphics-cfg/graphics.cfg
INPUT /usr/share/texlive/texmf-dist/tex/latex/graphics-cfg/graphics.cfg
INPUT /usr/share/texlive/texmf-dist/tex/latex/graphics-def/pdftex.def
INPUT /usr/share/texlive/texmf-dist/tex/latex/graphics-def/pdftex.def
INPUT /usr/share/texlive/texmf-dist/tex/latex/tools/dcolumn.sty
INPUT /usr/share/texlive/texmf-dist/tex/latex/tools/dcolumn.sty
INPUT /usr/share/texlive/texmf-dist/tex/latex/tools/array.sty
INPUT /usr/share/texlive/texmf-dist/tex/latex/tools/array.sty
INPUT /usr/share/texlive/texmf-dist/tex/latex/tools/bm.sty
INPUT /usr/share/texlive/texmf-dist/tex/latex/tools/bm.sty
INPUT /usr/share/texlive/texmf-dist/tex/latex/marginnote/marginnote.sty
INPUT /usr/share/texlive/texmf-dist/tex/latex/marginnote/marginnote.sty
INPUT /usr/share/texlive/texmf-dist/tex/latex/etoolbox/etoolbox.sty
INPUT /usr/share/texlive/texmf-dist/tex/latex/etoolbox/etoolbox.sty
INPUT /usr/share/texlive/texmf-dist/tex/latex/enumitem/enumitem.sty
INPUT /usr/share/texlive/texmf-dist/tex/latex/enumitem/enumitem.sty
INPUT /usr/share/texlive/texmf-dist/tex/latex/mathtools/mathtools.sty
INPUT /usr/share/texlive/texmf-dist/tex/latex/mathtools/mathtools.sty
INPUT /usr/share/texlive/texmf-dist/tex/latex/tools/calc.sty
INPUT /usr/share/texlive/texmf-dist/tex/latex/tools/calc.sty
INPUT /usr/share/texlive/texmf-dist/tex/latex/mathtools/mhsetup.sty
INPUT /usr/share/texlive/texmf-dist/tex/latex/mathtools/mhsetup.sty
INPUT /usr/share/texlive/texmf-dist/tex/latex/booktabs/booktabs.sty
INPUT /usr/share/texlive/texmf-dist/tex/latex/booktabs/booktabs.sty
INPUT /usr/share/texlive/texmf-dist/tex/latex/tabu/tabu.sty
INPUT /usr/share/texlive/texmf-dist/tex/latex/tabu/tabu.sty
INPUT /usr/share/texlive/texmf-dist/tex/latex/varwidth/varwidth.sty
INPUT /usr/share/texlive/texmf-dist/tex/latex/varwidth/varwidth.sty
INPUT /usr/share/texlive/texmf-dist/tex/latex/tools/tabularx.sty
INPUT /usr/share/texlive/texmf-dist/tex/latex/tools/tabularx.sty
INPUT /usr/share/texlive/texmf-dist/tex/latex/physics/physics.sty
INPUT /usr/share/texlive/texmf-dist/tex/latex/physics/physics.sty
INPUT /usr/share/texlive/texmf-dist/tex/latex/l3packages/xparse/xparse.sty
INPUT /usr/share/texlive/texmf-dist/tex/latex/l3packages/xparse/xparse.sty
INPUT /usr/share/texlive/texmf-dist/tex/latex/l3kernel/expl3.sty
INPUT /usr/share/texlive/texmf-dist/tex/latex/l3kernel/expl3.sty
INPUT /usr/share/texlive/texmf-dist/tex/latex/l3kernel/expl3-code.tex
INPUT /usr/share/texlive/texmf-dist/tex/latex/l3kernel/expl3-code.tex
INPUT /usr/share/texlive/texmf-dist/tex/generic/unicode-data/UnicodeData.txt
INPUT /usr/share/texlive/texmf-dist/tex/generic/unicode-data/CaseFolding.txt
INPUT /usr/share/texlive/texmf-dist/tex/generic/unicode-data/SpecialCasing.txt
INPUT /usr/share/texlive/texmf-dist/fonts/tfm/public/cm/cmr10.tfm
INPUT /usr/share/texlive/texmf-dist/fonts/tfm/public/cm/cmr10.tfm
INPUT /usr/share/texlive/texmf-dist/fonts/tfm/public/cm/cmr10.tfm
INPUT /usr/share/texlive/texmf-dist/fonts/tfm/public/cm/cmr10.tfm
INPUT /usr/share/texlive/texmf-dist/fonts/tfm/public/cm/cmr10.tfm
INPUT /usr/share/texlive/texmf-dist/fonts/tfm/public/cm/cmr10.tfm
INPUT /usr/share/texlive/texmf-dist/fonts/tfm/public/cm/cmr10.tfm
INPUT /usr/share/texlive/texmf-dist/fonts/tfm/public/cm/cmr10.tfm
INPUT /usr/share/texlive/texmf-dist/tex/latex/l3kernel/l3pdfmode.def
INPUT /usr/share/texlive/texmf-dist/tex/latex/l3kernel/l3pdfmode.def
INPUT /usr/share/texlive/texmf-dist/tex/latex/slantsc/slantsc.sty
INPUT /usr/share/texlive/texmf-dist/tex/latex/slantsc/slantsc.sty
INPUT /usr/share/texlive/texmf-dist/tex/latex/base/ifthen.sty
INPUT /usr/share/texlive/texmf-dist/tex/latex/base/ifthen.sty
INPUT /usr/share/texmf/tex/latex/lm/lmodern.sty
INPUT /usr/share/texmf/tex/latex/lm/lmodern.sty
INPUT /usr/share/texlive/texmf-dist/tex/latex/pgf/utilities/pgffor.sty
INPUT /usr/share/texlive/texmf-dist/tex/latex/pgf/utilities/pgffor.sty
INPUT /usr/share/texlive/texmf-dist/tex/latex/pgf/utilities/pgfrcs.sty
INPUT /usr/share/texlive/texmf-dist/tex/latex/pgf/utilities/pgfrcs.sty
INPUT /usr/share/texlive/texmf-dist/tex/generic/pgf/utilities/pgfutil-common.tex
INPUT /usr/share/texlive/texmf-dist/tex/generic/pgf/utilities/pgfutil-common-lists.tex
INPUT /usr/share/texlive/texmf-dist/tex/generic/pgf/utilities/pgfutil-latex.def
INPUT /usr/share/texlive/texmf-dist/tex/latex/ms/everyshi.sty
INPUT /usr/share/texlive/texmf-dist/tex/latex/ms/everyshi.sty
INPUT /usr/share/texlive/texmf-dist/tex/generic/pgf/utilities/pgfrcs.code.tex
INPUT /usr/share/texlive/texmf-dist/tex/generic/pgf/utilities/pgfrcs.code.tex
INPUT /usr/share/texlive/texmf-dist/tex/latex/pgf/utilities/pgfkeys.sty
INPUT /usr/share/texlive/texmf-dist/tex/latex/pgf/utilities/pgfkeys.sty
INPUT /usr/share/texlive/texmf-dist/tex/generic/pgf/utilities/pgfkeys.code.tex
INPUT /usr/share/texlive/texmf-dist/tex/generic/pgf/utilities/pgfkeys.code.tex
INPUT /usr/share/texlive/texmf-dist/tex/generic/pgf/utilities/pgfkeysfiltered.code.tex
INPUT /usr/share/texlive/texmf-dist/tex/latex/pgf/math/pgfmath.sty
INPUT /usr/share/texlive/texmf-dist/tex/latex/pgf/math/pgfmath.sty
INPUT /usr/share/texlive/texmf-dist/tex/generic/pgf/math/pgfmath.code.tex
INPUT /usr/share/texlive/texmf-dist/tex/generic/pgf/math/pgfmath.code.tex
INPUT /usr/share/texlive/texmf-dist/tex/generic/pgf/math/pgfmathcalc.code.tex
INPUT /usr/share/texlive/texmf-dist/tex/generic/pgf/math/pgfmathutil.code.tex
INPUT /usr/share/texlive/texmf-dist/tex/generic/pgf/math/pgfmathparser.code.tex
INPUT /usr/share/texlive/texmf-dist/tex/generic/pgf/math/pgfmathfunctions.code.tex
INPUT /usr/share/texlive/texmf-dist/tex/generic/pgf/math/pgfmathfunctions.basic.code.tex
INPUT /usr/share/texlive/texmf-dist/tex/generic/pgf/math/pgfmathfunctions.trigonometric.code.tex
INPUT /usr/share/texlive/texmf-dist/tex/generic/pgf/math/pgfmathfunctions.random.code.tex
INPUT /usr/share/texlive/texmf-dist/tex/generic/pgf/math/pgfmathfunctions.comparison.code.tex
INPUT /usr/share/texlive/texmf-dist/tex/generic/pgf/math/pgfmathfunctions.base.code.tex
INPUT /usr/share/texlive/texmf-dist/tex/generic/pgf/math/pgfmathfunctions.round.code.tex
INPUT /usr/share/texlive/texmf-dist/tex/generic/pgf/math/pgfmathfunctions.misc.code.tex
INPUT /usr/share/texlive/texmf-dist/tex/generic/pgf/math/pgfmathfunctions.integerarithmetics.code.tex
INPUT /usr/share/texlive/texmf-dist/tex/generic/pgf/math/pgfmathfloat.code.tex
INPUT /usr/share/texlive/texmf-dist/tex/generic/pgf/utilities/pgffor.code.tex
INPUT /usr/share/texlive/texmf-dist/tex/generic/pgf/utilities/pgffor.code.tex
INPUT /usr/share/texlive/texmf-dist/tex/generic/pgf/math/pgfmath.code.tex
INPUT /usr/share/texlive/texmf-dist/tex/latex/tools/xspace.sty
INPUT /usr/share/texlive/texmf-dist/tex/latex/tools/xspace.sty
INPUT /usr/share/texlive/texmf-dist/tex/latex/graphics/color.sty
INPUT /usr/share/texlive/texmf-dist/tex/latex/graphics/color.sty
INPUT /usr/share/texlive/texmf-dist/tex/latex/graphics-cfg/color.cfg
INPUT /usr/share/texlive/texmf-dist/tex/latex/graphics-cfg/color.cfg
INPUT /usr/share/texlive/texmf-dist/tex/latex/xcolor/xcolor.sty
INPUT /usr/share/texlive/texmf-dist/tex/latex/xcolor/xcolor.sty
INPUT /usr/share/texlive/texmf-dist/tex/latex/graphics-cfg/color.cfg
INPUT /usr/share/texlive/texmf-dist/tex/latex/graphics-cfg/color.cfg
INPUT /usr/share/texlive/texmf-dist/tex/latex/graphics/dvipsnam.def
INPUT /usr/share/texlive/texmf-dist/tex/latex/graphics/dvipsnam.def
INPUT /usr/share/texlive/texmf-dist/tex/latex/xcolor/svgnam.def
INPUT /usr/share/texlive/texmf-dist/tex/latex/xcolor/svgnam.def
INPUT /usr/share/texlive/texmf-dist/tex/latex/hyperref/hyperref.sty
INPUT /usr/share/texlive/texmf-dist/tex/latex/hyperref/hyperref.sty
INPUT /usr/share/texlive/texmf-dist/tex/generic/oberdiek/hobsub-hyperref.sty
INPUT /usr/share/texlive/texmf-dist/tex/generic/oberdiek/hobsub-hyperref.sty
INPUT /usr/share/texlive/texmf-dist/tex/generic/oberdiek/hobsub-hyperref.sty
INPUT /usr/share/texlive/texmf-dist/tex/generic/oberdiek/hobsub-generic.sty
INPUT /usr/share/texlive/texmf-dist/tex/generic/oberdiek/hobsub-generic.sty
INPUT /usr/share/texlive/texmf-dist/tex/generic/ifxetex/ifxetex.sty
INPUT /usr/share/texlive/texmf-dist/tex/generic/ifxetex/ifxetex.sty
INPUT /usr/share/texlive/texmf-dist/tex/latex/oberdiek/auxhook.sty
INPUT /usr/share/texlive/texmf-dist/tex/latex/oberdiek/auxhook.sty
INPUT /usr/share/texlive/texmf-dist/tex/latex/oberdiek/kvoptions.sty
INPUT /usr/share/texlive/texmf-dist/tex/latex/oberdiek/kvoptions.sty
INPUT /usr/share/texlive/texmf-dist/tex/latex/hyperref/pd1enc.def
INPUT /usr/share/texlive/texmf-dist/tex/latex/hyperref/pd1enc.def
INPUT /usr/share/texlive/texmf-dist/tex/latex/latexconfig/hyperref.cfg
INPUT /usr/share/texlive/texmf-dist/tex/latex/latexconfig/hyperref.cfg
INPUT /usr/share/texlive/texmf-dist/tex/latex/hyperref/hpdftex.def
INPUT /usr/share/texlive/texmf-dist/tex/latex/hyperref/hpdftex.def
INPUT /usr/share/texlive/texmf-dist/tex/latex/oberdiek/rerunfilecheck.sty
INPUT /usr/share/texlive/texmf-dist/tex/latex/oberdiek/rerunfilecheck.sty
INPUT /usr/share/texlive/texmf-dist/tex/latex/pgf/frontendlayer/tikz.sty
INPUT /usr/share/texlive/texmf-dist/tex/latex/pgf/frontendlayer/tikz.sty
INPUT /usr/share/texlive/texmf-dist/tex/latex/pgf/basiclayer/pgf.sty
INPUT /usr/share/texlive/texmf-dist/tex/latex/pgf/basiclayer/pgf.sty
INPUT /usr/share/texlive/texmf-dist/tex/latex/pgf/basiclayer/pgfcore.sty
INPUT /usr/share/texlive/texmf-dist/tex/latex/pgf/basiclayer/pgfcore.sty
INPUT /usr/share/texlive/texmf-dist/tex/latex/pgf/systemlayer/pgfsys.sty
INPUT /usr/share/texlive/texmf-dist/tex/latex/pgf/systemlayer/pgfsys.sty
INPUT /usr/share/texlive/texmf-dist/tex/generic/pgf/systemlayer/pgfsys.code.tex
INPUT /usr/share/texlive/texmf-dist/tex/generic/pgf/systemlayer/pgfsys.code.tex
INPUT /usr/share/texlive/texmf-dist/tex/generic/pgf/utilities/pgfkeys.code.tex
INPUT /usr/share/texlive/texmf-dist/tex/generic/pgf/systemlayer/pgf.cfg
INPUT /usr/share/texlive/texmf-dist/tex/generic/pgf/systemlayer/pgfsys-pdftex.def
INPUT /usr/share/texlive/texmf-dist/tex/generic/pgf/systemlayer/pgfsys-pdftex.def
INPUT /usr/share/texlive/texmf-dist/tex/generic/pgf/systemlayer/pgfsys-common-pdf.def
INPUT /usr/share/texlive/texmf-dist/tex/generic/pgf/systemlayer/pgfsyssoftpath.code.tex
INPUT /usr/share/texlive/texmf-dist/tex/generic/pgf/systemlayer/pgfsyssoftpath.code.tex
INPUT /usr/share/texlive/texmf-dist/tex/generic/pgf/systemlayer/pgfsysprotocol.code.tex
INPUT /usr/share/texlive/texmf-dist/tex/generic/pgf/systemlayer/pgfsysprotocol.code.tex
INPUT /usr/share/texlive/texmf-dist/tex/generic/pgf/basiclayer/pgfcore.code.tex
INPUT /usr/share/texlive/texmf-dist/tex/generic/pgf/basiclayer/pgfcore.code.tex
INPUT /usr/share/texlive/texmf-dist/tex/generic/pgf/math/pgfmath.code.tex
INPUT /usr/share/texlive/texmf-dist/tex/generic/pgf/basiclayer/pgfcorepoints.code.tex
INPUT /usr/share/texlive/texmf-dist/tex/generic/pgf/basiclayer/pgfcorepathconstruct.code.tex
INPUT /usr/share/texlive/texmf-dist/tex/generic/pgf/basiclayer/pgfcorepathusage.code.tex
INPUT /usr/share/texlive/texmf-dist/tex/generic/pgf/basiclayer/pgfcorescopes.code.tex
INPUT /usr/share/texlive/texmf-dist/tex/generic/pgf/basiclayer/pgfcoregraphicstate.code.tex
INPUT /usr/share/texlive/texmf-dist/tex/generic/pgf/basiclayer/pgfcoretransformations.code.tex
INPUT /usr/share/texlive/texmf-dist/tex/generic/pgf/basiclayer/pgfcorequick.code.tex
INPUT /usr/share/texlive/texmf-dist/tex/generic/pgf/basiclayer/pgfcoreobjects.code.tex
INPUT /usr/share/texlive/texmf-dist/tex/generic/pgf/basiclayer/pgfcorepathprocessing.code.tex
INPUT /usr/share/texlive/texmf-dist/tex/generic/pgf/basiclayer/pgfcorearrows.code.tex
INPUT /usr/share/texlive/texmf-dist/tex/generic/pgf/basiclayer/pgfcoreshade.code.tex
INPUT /usr/share/texlive/texmf-dist/tex/generic/pgf/basiclayer/pgfcoreimage.code.tex
INPUT /usr/share/texlive/texmf-dist/tex/generic/pgf/basiclayer/pgfcoreexternal.code.tex
INPUT /usr/share/texlive/texmf-dist/tex/generic/pgf/basiclayer/pgfcorelayers.code.tex
INPUT /usr/share/texlive/texmf-dist/tex/generic/pgf/basiclayer/pgfcoretransparency.code.tex
INPUT /usr/share/texlive/texmf-dist/tex/generic/pgf/basiclayer/pgfcorepatterns.code.tex
INPUT /usr/share/texlive/texmf-dist/tex/generic/pgf/modules/pgfmoduleshapes.code.tex
INPUT /usr/share/texlive/texmf-dist/tex/generic/pgf/modules/pgfmoduleplot.code.tex
INPUT /usr/share/texlive/texmf-dist/tex/latex/pgf/compatibility/pgfcomp-version-0-65.sty
INPUT /usr/share/texlive/texmf-dist/tex/latex/pgf/compatibility/pgfcomp-version-0-65.sty
INPUT /usr/share/texlive/texmf-dist/tex/latex/pgf/compatibility/pgfcomp-version-1-18.sty
INPUT /usr/share/texlive/texmf-dist/tex/latex/pgf/compatibility/pgfcomp-version-1-18.sty
INPUT /usr/share/texlive/texmf-dist/tex/generic/pgf/frontendlayer/tikz/tikz.code.tex
INPUT /usr/share/texlive/texmf-dist/tex/generic/pgf/frontendlayer/tikz/tikz.code.tex
INPUT /usr/share/texlive/texmf-dist/tex/generic/pgf/libraries/pgflibraryplothandlers.code.tex
INPUT /usr/share/texlive/texmf-dist/tex/generic/pgf/libraries/pgflibraryplothandlers.code.tex
INPUT /usr/share/texlive/texmf-dist/tex/generic/pgf/modules/pgfmodulematrix.code.tex
INPUT /usr/share/texlive/texmf-dist/tex/generic/pgf/frontendlayer/tikz/libraries/tikzlibrarytopaths.code.tex
INPUT /usr/share/texlive/texmf-dist/tex/generic/pgf/frontendlayer/tikz/libraries/tikzlibrarytopaths.code.tex
INPUT /usr/share/texlive/texmf-dist/tex/latex/pgf/frontendlayer/libraries/tikzlibraryexternal.code.tex
INPUT /usr/share/texlive/texmf-dist/tex/latex/pgf/frontendlayer/libraries/tikzlibraryexternal.code.tex
INPUT /usr/share/texlive/texmf-dist/tex/generic/pgf/frontendlayer/tikz/libraries/tikzexternalshared.code.tex
OUTPUT /user/boulet/Documents/msu_postdoc/notes_msu/projects/main.auxlock
INPUT /usr/share/texlive/texmf-dist/tex/generic/pgf/frontendlayer/tikz/libraries/tikzlibrarysvg.path.code.tex
INPUT /usr/share/texlive/texmf-dist/tex/generic/pgf/frontendlayer/tikz/libraries/tikzlibrarysvg.path.code.tex
INPUT /usr/share/texlive/texmf-dist/tex/generic/pgf/libraries/pgflibrarysvg.path.code.tex
INPUT /usr/share/texlive/texmf-dist/tex/generic/pgf/libraries/pgflibrarysvg.path.code.tex
INPUT /usr/share/texlive/texmf-dist/tex/generic/pgf/modules/pgfmoduleparser.code.tex
INPUT /usr/share/texlive/texmf-dist/tex/generic/pgf/frontendlayer/tikz/libraries/tikzlibraryarrows.code.tex
INPUT /usr/share/texlive/texmf-dist/tex/generic/pgf/frontendlayer/tikz/libraries/tikzlibraryarrows.code.tex
INPUT /usr/share/texlive/texmf-dist/tex/generic/pgf/libraries/pgflibraryarrows.code.tex
INPUT /usr/share/texlive/texmf-dist/tex/generic/pgf/libraries/pgflibraryarrows.code.tex
INPUT /usr/share/texlive/texmf-dist/tex/latex/pgfplots/pgfplots.sty
INPUT /usr/share/texlive/texmf-dist/tex/latex/pgfplots/pgfplots.sty
INPUT /usr/share/texlive/texmf-dist/tex/generic/pgfplots/pgfplots.revision.tex
INPUT /usr/share/texlive/texmf-dist/tex/generic/pgfplots/pgfplots.revision.tex
INPUT /usr/share/texlive/texmf-dist/tex/generic/pgf/systemlayer/pgfsys-luatex.def
INPUT /usr/share/texlive/texmf-dist/tex/generic/pgfplots/pgfplots.code.tex
INPUT /usr/share/texlive/texmf-dist/tex/generic/pgfplots/pgfplotscore.code.tex
INPUT /usr/share/texlive/texmf-dist/tex/generic/pgfplots/sys/pgfplotssysgeneric.code.tex
INPUT /usr/share/texlive/texmf-dist/tex/generic/pgfplots/libs/pgfplotslibrary.code.tex
INPUT /usr/share/texlive/texmf-dist/tex/generic/pgfplots/oldpgfcompatib/pgfplotsoldpgfsupp_loader.code.tex
INPUT /usr/share/texlive/texmf-dist/tex/generic/pgf/libraries/pgflibraryfpu.code.tex
INPUT /usr/share/texlive/texmf-dist/tex/generic/pgf/libraries/pgflibraryfpu.code.tex
INPUT /usr/share/texlive/texmf-dist/tex/generic/pgf/libraries/pgflibraryfpu.code.tex
INPUT /usr/share/texlive/texmf-dist/tex/generic/pgfplots/oldpgfcompatib/pgfplotsoldpgfsupp_pgflibraryfpu.code.tex
INPUT /usr/share/texlive/texmf-dist/tex/generic/pgfplots/oldpgfcompatib/pgfplotsoldpgfsupp_pgfmathfloat.code.tex
INPUT /usr/share/texlive/texmf-dist/tex/generic/pgfplots/util/pgfplotsutil.code.tex
INPUT /usr/share/texlive/texmf-dist/tex/generic/pgfplots/liststructure/pgfplotsliststructure.code.tex
INPUT /usr/share/texlive/texmf-dist/tex/generic/pgfplots/liststructure/pgfplotsliststructureext.code.tex
INPUT /usr/share/texlive/texmf-dist/tex/generic/pgfplots/liststructure/pgfplotsarray.code.tex
INPUT /usr/share/texlive/texmf-dist/tex/generic/pgfplots/liststructure/pgfplotsmatrix.code.tex
INPUT /usr/share/texlive/texmf-dist/tex/generic/pgfplots/numtable/pgfplotstableshared.code.tex
INPUT /usr/share/texlive/texmf-dist/tex/generic/pgfplots/liststructure/pgfplotsdeque.code.tex
INPUT /usr/share/texlive/texmf-dist/tex/generic/pgfplots/util/pgfplotsbinary.code.tex
INPUT /usr/share/texlive/texmf-dist/tex/generic/pgfplots/util/pgfplotsbinary.data.code.tex
INPUT /usr/share/texlive/texmf-dist/tex/generic/pgfplots/util/pgfplotsutil.verb.code.tex
INPUT /usr/share/texlive/texmf-dist/tex/generic/pgfplots/libs/pgflibrarypgfplots.surfshading.code.tex
INPUT /usr/share/texlive/texmf-dist/tex/generic/pgfplots/sys/pgflibrarypgfplots.surfshading.pgfsys-pdftex.def
INPUT /usr/share/texlive/texmf-dist/tex/generic/pgfplots/sys/pgflibrarypgfplots.surfshading.pgfsys-pdftex.def
INPUT /usr/share/texlive/texmf-dist/tex/generic/pgfplots/util/pgfplotscolormap.code.tex
INPUT /usr/share/texlive/texmf-dist/tex/generic/pgfplots/util/pgfplotscolor.code.tex
INPUT /usr/share/texlive/texmf-dist/tex/generic/pgfplots/pgfplotsstackedplots.code.tex
INPUT /usr/share/texlive/texmf-dist/tex/generic/pgfplots/pgfplotsplothandlers.code.tex
INPUT /usr/share/texlive/texmf-dist/tex/generic/pgfplots/pgfplotsmeshplothandler.code.tex
INPUT /usr/share/texlive/texmf-dist/tex/generic/pgfplots/pgfplotsmeshplotimage.code.tex
INPUT /usr/share/texlive/texmf-dist/tex/generic/pgfplots/pgfplots.scaling.code.tex
INPUT /usr/share/texlive/texmf-dist/tex/generic/pgfplots/pgfplotscoordprocessing.code.tex
INPUT /usr/share/texlive/texmf-dist/tex/generic/pgfplots/pgfplots.errorbars.code.tex
INPUT /usr/share/texlive/texmf-dist/tex/generic/pgfplots/pgfplots.markers.code.tex
INPUT /usr/share/texlive/texmf-dist/tex/generic/pgfplots/pgfplotsticks.code.tex
INPUT /usr/share/texlive/texmf-dist/tex/generic/pgfplots/pgfplots.paths.code.tex
INPUT /usr/share/texlive/texmf-dist/tex/generic/pgf/frontendlayer/tikz/libraries/tikzlibrarydecorations.code.tex
INPUT /usr/share/texlive/texmf-dist/tex/generic/pgf/frontendlayer/tikz/libraries/tikzlibrarydecorations.code.tex
INPUT /usr/share/texlive/texmf-dist/tex/generic/pgf/modules/pgfmoduledecorations.code.tex
INPUT /usr/share/texlive/texmf-dist/tex/generic/pgf/frontendlayer/tikz/libraries/tikzlibrarydecorations.pathmorphing.code.tex
INPUT /usr/share/texlive/texmf-dist/tex/generic/pgf/frontendlayer/tikz/libraries/tikzlibrarydecorations.pathmorphing.code.tex
INPUT /usr/share/texlive/texmf-dist/tex/generic/pgf/libraries/decorations/pgflibrarydecorations.pathmorphing.code.tex
INPUT /usr/share/texlive/texmf-dist/tex/generic/pgf/libraries/decorations/pgflibrarydecorations.pathmorphing.code.tex
INPUT /usr/share/texlive/texmf-dist/tex/generic/pgf/frontendlayer/tikz/libraries/tikzlibrarydecorations.pathreplacing.code.tex
INPUT /usr/share/texlive/texmf-dist/tex/generic/pgf/frontendlayer/tikz/libraries/tikzlibrarydecorations.pathreplacing.code.tex
INPUT /usr/share/texlive/texmf-dist/tex/generic/pgf/libraries/decorations/pgflibrarydecorations.pathreplacing.code.tex
INPUT /usr/share/texlive/texmf-dist/tex/generic/pgf/libraries/decorations/pgflibrarydecorations.pathreplacing.code.tex
INPUT /usr/share/texlive/texmf-dist/tex/generic/pgf/frontendlayer/tikz/libraries/tikzlibraryplotmarks.code.tex
INPUT /usr/share/texlive/texmf-dist/tex/generic/pgf/frontendlayer/tikz/libraries/tikzlibraryplotmarks.code.tex
INPUT /usr/share/texlive/texmf-dist/tex/generic/pgf/libraries/pgflibraryplotmarks.code.tex
INPUT /usr/share/texlive/texmf-dist/tex/generic/pgf/libraries/pgflibraryplotmarks.code.tex
INPUT /usr/share/texlive/texmf-dist/tex/latex/tikz-feynman/tikz-feynman.sty
INPUT /usr/share/texlive/texmf-dist/tex/latex/tikz-feynman/tikz-feynman.sty
INPUT /usr/share/texlive/texmf-dist/tex/latex/pgfopts/pgfopts.sty
INPUT /usr/share/texlive/texmf-dist/tex/latex/pgfopts/pgfopts.sty
INPUT /usr/share/texlive/texmf-dist/tex/latex/tikz-feynman/tikzlibraryfeynman.code.tex
INPUT /usr/share/texlive/texmf-dist/tex/latex/tikz-feynman/tikzlibraryfeynman.code.tex
INPUT /usr/share/texlive/texmf-dist/tex/generic/pgf/libraries/pgflibraryarrows.meta.code.tex
INPUT /usr/share/texlive/texmf-dist/tex/generic/pgf/libraries/pgflibraryarrows.meta.code.tex
INPUT /usr/share/texlive/texmf-dist/tex/generic/pgf/libraries/pgflibraryarrows.meta.code.tex
INPUT /usr/share/texlive/texmf-dist/tex/generic/pgf/frontendlayer/tikz/libraries/tikzlibrarycalc.code.tex
INPUT /usr/share/texlive/texmf-dist/tex/generic/pgf/frontendlayer/tikz/libraries/tikzlibrarycalc.code.tex
INPUT /usr/share/texlive/texmf-dist/tex/generic/pgf/frontendlayer/tikz/libraries/tikzlibrarydecorations.markings.code.tex
INPUT /usr/share/texlive/texmf-dist/tex/generic/pgf/frontendlayer/tikz/libraries/tikzlibrarydecorations.markings.code.tex
INPUT /usr/share/texlive/texmf-dist/tex/generic/pgf/libraries/decorations/pgflibrarydecorations.markings.code.tex
INPUT /usr/share/texlive/texmf-dist/tex/generic/pgf/libraries/decorations/pgflibrarydecorations.markings.code.tex
INPUT /usr/share/texlive/texmf-dist/tex/generic/pgf/frontendlayer/tikz/libraries/graphs/tikzlibrarygraphs.code.tex
INPUT /usr/share/texlive/texmf-dist/tex/generic/pgf/frontendlayer/tikz/libraries/graphs/tikzlibrarygraphs.code.tex
INPUT /usr/share/texlive/texmf-dist/tex/generic/pgf/frontendlayer/tikz/libraries/tikzlibrarypatterns.code.tex
INPUT /usr/share/texlive/texmf-dist/tex/generic/pgf/frontendlayer/tikz/libraries/tikzlibrarypatterns.code.tex
INPUT /usr/share/texlive/texmf-dist/tex/generic/pgf/libraries/pgflibrarypatterns.code.tex
INPUT /usr/share/texlive/texmf-dist/tex/generic/pgf/libraries/pgflibrarypatterns.code.tex
INPUT /usr/share/texlive/texmf-dist/tex/generic/pgf/frontendlayer/tikz/libraries/tikzlibrarypositioning.code.tex
INPUT /usr/share/texlive/texmf-dist/tex/generic/pgf/frontendlayer/tikz/libraries/tikzlibrarypositioning.code.tex
INPUT /usr/share/texlive/texmf-dist/tex/generic/pgf/frontendlayer/tikz/libraries/tikzlibraryshapes.geometric.code.tex
INPUT /usr/share/texlive/texmf-dist/tex/generic/pgf/frontendlayer/tikz/libraries/tikzlibraryshapes.geometric.code.tex
INPUT /usr/share/texlive/texmf-dist/tex/generic/pgf/libraries/shapes/pgflibraryshapes.geometric.code.tex
INPUT /usr/share/texlive/texmf-dist/tex/generic/pgf/libraries/shapes/pgflibraryshapes.geometric.code.tex
INPUT /usr/share/texlive/texmf-dist/tex/latex/tikz-feynman/tikzfeynman.keys.code.tex
INPUT /usr/share/texlive/texmf-dist/tex/latex/feynmp-auto/feynmp-auto.sty
INPUT /usr/share/texlive/texmf-dist/tex/latex/feynmp-auto/feynmp-auto.sty
INPUT /usr/share/texmf/tex/latex/feynmf/feynmp.sty
INPUT /usr/share/texmf/tex/latex/feynmf/feynmp.sty
INPUT /user/boulet/Documents/msu_postdoc/notes_msu/projects/../bibliography_style.tex
INPUT /user/boulet/Documents/msu_postdoc/notes_msu/projects/../bibliography_style.tex
INPUT /user/boulet/Documents/msu_postdoc/notes_msu/projects/../abreviation.tex
INPUT /user/boulet/Documents/msu_postdoc/notes_msu/projects/../abreviation.tex
INPUT /user/boulet/Documents/msu_postdoc/notes_msu/projects/../math_commands.tex
INPUT /user/boulet/Documents/msu_postdoc/notes_msu/projects/../math_commands.tex
INPUT /user/boulet/Documents/msu_postdoc/notes_msu/projects/main.aux
INPUT /user/boulet/Documents/msu_postdoc/notes_msu/projects/main.aux
OUTPUT /user/boulet/Documents/msu_postdoc/notes_msu/projects/main.aux
INPUT /usr/share/texmf/tex/latex/lm/t1lmr.fd
INPUT /usr/share/texmf/tex/latex/lm/t1lmr.fd
INPUT /usr/share/texmf/fonts/tfm/public/lm/ec-lmr10.tfm
INPUT /usr/share/texlive/texmf-dist/tex/context/base/mkii/supp-pdf.mkii
INPUT /usr/share/texlive/texmf-dist/tex/context/base/mkii/supp-pdf.mkii
INPUT /usr/share/texlive/texmf-dist/tex/latex/oberdiek/epstopdf-base.sty
INPUT /usr/share/texlive/texmf-dist/tex/latex/oberdiek/epstopdf-base.sty
INPUT /usr/share/texlive/texmf-dist/tex/latex/oberdiek/grfext.sty
INPUT /usr/share/texlive/texmf-dist/tex/latex/oberdiek/grfext.sty
INPUT /usr/share/texlive/texmf-dist/tex/latex/latexconfig/epstopdf-sys.cfg
INPUT /usr/share/texlive/texmf-dist/tex/latex/latexconfig/epstopdf-sys.cfg
INPUT /usr/share/texlive/texmf-dist/tex/latex/hyperref/nameref.sty
INPUT /usr/share/texlive/texmf-dist/tex/latex/hyperref/nameref.sty
INPUT /usr/share/texlive/texmf-dist/tex/generic/oberdiek/gettitlestring.sty
INPUT /usr/share/texlive/texmf-dist/tex/generic/oberdiek/gettitlestring.sty
INPUT /user/boulet/Documents/msu_postdoc/notes_msu/projects/main.out
INPUT /user/boulet/Documents/msu_postdoc/notes_msu/projects/main.out
INPUT /user/boulet/Documents/msu_postdoc/notes_msu/projects/main.out
INPUT /user/boulet/Documents/msu_postdoc/notes_msu/projects/main.out
OUTPUT /user/boulet/Documents/msu_postdoc/notes_msu/projects/main.pdf
INPUT /user/boulet/Documents/msu_postdoc/notes_msu/projects/main.out
INPUT /user/boulet/Documents/msu_postdoc/notes_msu/projects/main.out
OUTPUT /user/boulet/Documents/msu_postdoc/notes_msu/projects/main.out
OUTPUT /user/boulet/Documents/msu_postdoc/notes_msu/projects/mainNotes.bib
INPUT /user/boulet/Documents/msu_postdoc/notes_msu/projects/FrontBackMatter.tex
INPUT /user/boulet/Documents/msu_postdoc/notes_msu/projects/FrontBackMatter.tex
INPUT /usr/share/texmf/fonts/tfm/public/lm/ec-lmr8.tfm
INPUT /usr/share/texmf/fonts/tfm/public/lm/ec-lmri8.tfm
INPUT /usr/share/texmf/tex/latex/lm/t1lmtt.fd
INPUT /usr/share/texmf/tex/latex/lm/t1lmtt.fd
INPUT /usr/share/texmf/fonts/tfm/public/lm/ec-lmtt8.tfm
INPUT /usr/share/texmf/tex/latex/lm/ot1lmr.fd
INPUT /usr/share/texmf/tex/latex/lm/ot1lmr.fd
INPUT /usr/share/texmf/fonts/tfm/public/lm/rm-lmr8.tfm
INPUT /usr/share/texmf/fonts/tfm/public/lm/rm-lmr6.tfm
INPUT /usr/share/texmf/fonts/tfm/public/lm/rm-lmr5.tfm
INPUT /usr/share/texmf/tex/latex/lm/omllmm.fd
INPUT /usr/share/texmf/tex/latex/lm/omllmm.fd
INPUT /usr/share/texmf/fonts/tfm/public/lm/lmmi8.tfm
INPUT /usr/share/texmf/fonts/tfm/public/lm/lmmi6.tfm
INPUT /usr/share/texmf/fonts/tfm/public/lm/lmmi5.tfm
INPUT /usr/share/texmf/tex/latex/lm/omslmsy.fd
INPUT /usr/share/texmf/tex/latex/lm/omslmsy.fd
INPUT /usr/share/texmf/fonts/tfm/public/lm/lmsy8.tfm
INPUT /usr/share/texmf/fonts/tfm/public/lm/lmsy6.tfm
INPUT /usr/share/texmf/fonts/tfm/public/lm/lmsy5.tfm
INPUT /usr/share/texmf/tex/latex/lm/omxlmex.fd
INPUT /usr/share/texmf/tex/latex/lm/omxlmex.fd
INPUT /usr/share/texmf/fonts/tfm/public/lm/lmex10.tfm
INPUT /usr/share/texlive/texmf-dist/tex/latex/amsfonts/umsa.fd
INPUT /usr/share/texlive/texmf-dist/tex/latex/amsfonts/umsa.fd
INPUT /usr/share/texlive/texmf-dist/fonts/tfm/public/amsfonts/symbols/msam10.tfm
INPUT /usr/share/texlive/texmf-dist/fonts/tfm/public/amsfonts/symbols/msam7.tfm
INPUT /usr/share/texlive/texmf-dist/fonts/tfm/public/amsfonts/symbols/msam5.tfm
INPUT /usr/share/texlive/texmf-dist/tex/latex/amsfonts/umsb.fd
INPUT /usr/share/texlive/texmf-dist/tex/latex/amsfonts/umsb.fd
INPUT /usr/share/texlive/texmf-dist/fonts/tfm/public/amsfonts/symbols/msbm10.tfm
INPUT /usr/share/texlive/texmf-dist/fonts/tfm/public/amsfonts/symbols/msbm7.tfm
INPUT /usr/share/texlive/texmf-dist/fonts/tfm/public/amsfonts/symbols/msbm5.tfm
INPUT /usr/share/texlive/texmf-dist/fonts/tfm/public/cm/cmbx8.tfm
INPUT /usr/share/texlive/texmf-dist/fonts/tfm/public/cm/cmbx6.tfm
INPUT /usr/share/texlive/texmf-dist/fonts/tfm/public/cm/cmbx5.tfm
INPUT /usr/share/texlive/texmf-dist/fonts/tfm/public/amsfonts/cmextra/cmmib8.tfm
INPUT /usr/share/texlive/texmf-dist/fonts/tfm/public/amsfonts/cmextra/cmmib6.tfm
INPUT /usr/share/texlive/texmf-dist/fonts/tfm/public/amsfonts/cmextra/cmmib5.tfm
INPUT /usr/share/texlive/texmf-dist/fonts/tfm/public/amsfonts/cmextra/cmbsy8.tfm
INPUT /usr/share/texlive/texmf-dist/fonts/tfm/public/amsfonts/cmextra/cmbsy6.tfm
INPUT /usr/share/texlive/texmf-dist/fonts/tfm/public/amsfonts/cmextra/cmbsy5.tfm
INPUT /usr/share/texmf/tex/latex/lm/t1lmss.fd
INPUT /usr/share/texmf/tex/latex/lm/t1lmss.fd
INPUT /usr/share/texmf/fonts/tfm/public/lm/ec-lmss10.tfm
INPUT /usr/share/texmf/fonts/tfm/public/lm/ec-lmss12.tfm
INPUT /usr/share/texmf/fonts/tfm/public/lm/ec-lmssbx10.tfm
INPUT /usr/share/texmf/fonts/tfm/public/lm/rm-lmr10.tfm
INPUT /usr/share/texmf/fonts/tfm/public/lm/rm-lmr7.tfm
INPUT /usr/share/texmf/fonts/tfm/public/lm/lmmi10.tfm
INPUT /usr/share/texmf/fonts/tfm/public/lm/lmmi7.tfm
INPUT /usr/share/texmf/fonts/tfm/public/lm/lmsy10.tfm
INPUT /usr/share/texmf/fonts/tfm/public/lm/lmsy7.tfm
INPUT /usr/share/texlive/texmf-dist/fonts/tfm/public/amsfonts/symbols/msam10.tfm
INPUT /usr/share/texlive/texmf-dist/fonts/tfm/public/amsfonts/symbols/msam7.tfm
INPUT /usr/share/texlive/texmf-dist/fonts/tfm/public/amsfonts/symbols/msbm10.tfm
INPUT /usr/share/texlive/texmf-dist/fonts/tfm/public/amsfonts/symbols/msbm7.tfm
INPUT /usr/share/texlive/texmf-dist/fonts/tfm/public/cm/cmbx10.tfm
INPUT /usr/share/texlive/texmf-dist/fonts/tfm/public/cm/cmbx7.tfm
INPUT /usr/share/texlive/texmf-dist/fonts/tfm/public/cm/cmmib10.tfm
INPUT /usr/share/texlive/texmf-dist/fonts/tfm/public/amsfonts/cmextra/cmmib7.tfm
INPUT /usr/share/texlive/texmf-dist/fonts/tfm/public/cm/cmbsy10.tfm
INPUT /usr/share/texlive/texmf-dist/fonts/tfm/public/amsfonts/cmextra/cmbsy7.tfm
INPUT /usr/share/texmf/fonts/tfm/public/lm/ec-lmr7.tfm
INPUT /usr/share/texmf/fonts/tfm/public/lm/ec-lmss9.tfm
INPUT /usr/share/texmf/fonts/tfm/public/lm/ec-lmsso9.tfm
INPUT /usr/share/texmf/fonts/tfm/public/lm/ec-lmr6.tfm
INPUT /usr/share/texmf/fonts/tfm/public/lm/ec-lmss8.tfm
INPUT /usr/share/texmf/fonts/tfm/public/lm/ec-lmr9.tfm
INPUT /usr/share/texmf/fonts/tfm/public/lm/ec-lmssbx10.tfm
INPUT /user/boulet/Documents/msu_postdoc/notes_msu/projects/main.toc
INPUT /user/boulet/Documents/msu_postdoc/notes_msu/projects/main.toc
OUTPUT /user/boulet/Documents/msu_postdoc/notes_msu/projects/main.toc
INPUT /usr/share/texmf/fonts/tfm/public/lm/ec-lmcsc10.tfm
INPUT /usr/share/texmf/fonts/tfm/public/lm/ec-lmcsc10.tfm
INPUT /usr/share/texmf/fonts/tfm/public/lm/ec-lmri10.tfm
INPUT /usr/share/texmf/tex/latex/lm/omslmr.fd
INPUT /usr/share/texmf/tex/latex/lm/omslmr.fd
INPUT /var/lib/texmf/fonts/map/pdftex/updmap/pdftex.map
INPUT /usr/share/texmf/fonts/tfm/public/lm/ec-lmtt10.tfm
INPUT /usr/share/texmf/fonts/tfm/public/lm/ec-lmcsco10.tfm
INPUT /usr/share/texmf/fonts/tfm/public/lm/rm-lmr9.tfm
INPUT /usr/share/texmf/fonts/tfm/public/lm/lmmi9.tfm
INPUT /usr/share/texmf/fonts/tfm/public/lm/lmsy9.tfm
INPUT /usr/share/texlive/texmf-dist/fonts/tfm/public/amsfonts/symbols/msam10.tfm
INPUT /usr/share/texlive/texmf-dist/fonts/tfm/public/amsfonts/symbols/msbm10.tfm
INPUT /usr/share/texlive/texmf-dist/fonts/tfm/public/cm/cmbx9.tfm
INPUT /usr/share/texlive/texmf-dist/fonts/tfm/public/amsfonts/cmextra/cmmib9.tfm
INPUT /usr/share/texlive/texmf-dist/fonts/tfm/public/amsfonts/cmextra/cmbsy9.tfm
INPUT /usr/share/texmf/fonts/tfm/public/lm/ec-lmssbo10.tfm
INPUT /user/boulet/Documents/msu_postdoc/notes_msu/projects/BackEndMatter.tex
INPUT /user/boulet/Documents/msu_postdoc/notes_msu/projects/BackEndMatter.tex
INPUT /user/boulet/Documents/msu_postdoc/notes_msu/projects/../full_bibliography.tex
INPUT /user/boulet/Documents/msu_postdoc/notes_msu/projects/../full_bibliography.tex
INPUT /usr/share/texmf/fonts/tfm/public/lm/ec-lmbx9.tfm
INPUT /usr/share/texmf/fonts/tfm/public/lm/ec-lmri9.tfm
INPUT /usr/share/texmf/fonts/tfm/public/lm/ec-lmtti10.tfm
INPUT /user/boulet/Documents/msu_postdoc/notes_msu/projects/main.bbl
INPUT /user/boulet/Documents/msu_postdoc/notes_msu/projects/main.bbl
INPUT /user/boulet/Documents/msu_postdoc/notes_msu/projects/main.aux
INPUT /user/boulet/Documents/msu_postdoc/notes_msu/projects/main.out
INPUT /user/boulet/Documents/msu_postdoc/notes_msu/projects/main.out
INPUT /usr/share/texmf/fonts/enc/dvips/lm/lm-ec.enc
INPUT /usr/share/texmf/fonts/enc/dvips/lm/lm-mathit.enc
INPUT /usr/share/texmf/fonts/enc/dvips/lm/lm-rm.enc
INPUT /usr/share/texmf/fonts/enc/dvips/lm/lm-mathsy.enc
INPUT /usr/share/texlive/texmf-dist/fonts/type1/public/amsfonts/cm/cmmib10.pfb
INPUT /usr/share/texmf/fonts/type1/public/lm/lmbx9.pfb
INPUT /usr/share/texmf/fonts/type1/public/lm/lmcsc10.pfb
INPUT /usr/share/texmf/fonts/type1/public/lm/lmcsco10.pfb
INPUT /usr/share/texmf/fonts/type1/public/lm/lmmi10.pfb
INPUT /usr/share/texmf/fonts/type1/public/lm/lmmi7.pfb
INPUT /usr/share/texmf/fonts/type1/public/lm/lmmi8.pfb
INPUT /usr/share/texmf/fonts/type1/public/lm/lmmi9.pfb
INPUT /usr/share/texmf/fonts/type1/public/lm/lmr10.pfb
INPUT /usr/share/texmf/fonts/type1/public/lm/lmr5.pfb
INPUT /usr/share/texmf/fonts/type1/public/lm/lmr6.pfb
INPUT /usr/share/texmf/fonts/type1/public/lm/lmr7.pfb
INPUT /usr/share/texmf/fonts/type1/public/lm/lmr8.pfb
INPUT /usr/share/texmf/fonts/type1/public/lm/lmr9.pfb
INPUT /usr/share/texmf/fonts/type1/public/lm/lmri10.pfb
INPUT /usr/share/texmf/fonts/type1/public/lm/lmri8.pfb
INPUT /usr/share/texmf/fonts/type1/public/lm/lmri9.pfb
INPUT /usr/share/texmf/fonts/type1/public/lm/lmss10.pfb
INPUT /usr/share/texmf/fonts/type1/public/lm/lmss8.pfb
INPUT /usr/share/texmf/fonts/type1/public/lm/lmss9.pfb
INPUT /usr/share/texmf/fonts/type1/public/lm/lmssbo10.pfb
INPUT /usr/share/texmf/fonts/type1/public/lm/lmssbx10.pfb
INPUT /usr/share/texmf/fonts/type1/public/lm/lmsso9.pfb
INPUT /usr/share/texmf/fonts/type1/public/lm/lmsy10.pfb
INPUT /usr/share/texmf/fonts/type1/public/lm/lmsy6.pfb
INPUT /usr/share/texmf/fonts/type1/public/lm/lmsy7.pfb
INPUT /usr/share/texmf/fonts/type1/public/lm/lmtt10.pfb
INPUT /usr/share/texmf/fonts/type1/public/lm/lmtt8.pfb
INPUT /usr/share/texmf/fonts/type1/public/lm/lmtti10.pfb
