\relax 
\providecommand\hyper@newdestlabel[2]{}
\providecommand\HyperFirstAtBeginDocument{\AtBeginDocument}
\HyperFirstAtBeginDocument{\ifx\hyper@anchor\@undefined
\global\let\oldcontentsline\contentsline
\gdef\contentsline#1#2#3#4{\oldcontentsline{#1}{#2}{#3}}
\global\let\oldnewlabel\newlabel
\gdef\newlabel#1#2{\newlabelxx{#1}#2}
\gdef\newlabelxx#1#2#3#4#5#6{\oldnewlabel{#1}{{#2}{#3}}}
\AtEndDocument{\ifx\hyper@anchor\@undefined
\let\contentsline\oldcontentsline
\let\newlabel\oldnewlabel
\fi}
\fi}
\global\let\hyper@last\relax 
\gdef\HyperFirstAtBeginDocument#1{#1}
\providecommand\HyField@AuxAddToFields[1]{}
\providecommand\HyField@AuxAddToCoFields[2]{}
\gdef \tocmax@section{23.8834pt}
\gdef \tocmax@subsection{14.22816pt}
\gdef \tocmax@subsubsection{12.11116pt}
\gdef \tocmax@paragraph{5.0pt}
\gdef \tocmax@appendix{5.0pt}
\gdef \tocmax@pagenum{5.0pt}
\citation{Negele1972a,Negele1975a}
\citation{Carlsson2008a,Raimondi2011a}
\citation{Negele1975b}
\citation{Sprung1975a}
\citation{Gebremariam2010a,Stoitsov2010a,Carlsson2010a,Gebremariam2011a,Bogner2011a,Dyhdalo2017a,Carlsson2008a,Carlsson2010b,Dobaczewski2010a,Erler2010a,Raimondi2011a,Navarro2018a,Navarro2019a,Bogner2009a}
\citation{Negele1972a,Negele1975a,Negele1975b}
\citation{Dobaczewski2010a}
\citation{Bogner2009a,Bogner2011a,Gebremariam2010a,Gebremariam2011a,Dyhdalo2017a,Stoitsov2010a,Navarro2018a,Navarro2019a}
\citation{Gebremariam2010a}
\citation{Navarro2018a,Navarro2019a,Dyhdalo2017a}
\citation{Gebremariam2010a}
\newlabel{FirstPage}{{}{1}{}{section*.1}{}}
\@writefile{toc}{\contentsline {title}{Postdoctoral projects at MSU: research directions and achievements}{1}{section*.2}}
\@writefile{toc}{\contentsline {abstract}{Abstract}{1}{section*.1}}
\@writefile{toc}{\tocdepth@munge}
\@writefile{toc}{\contentsline {section}{\numberline {}Contents}{1}{section*.3}}
\@writefile{toc}{\tocdepth@restore}
\@writefile{toc}{\contentsline {section}{\numberline {I}Density Matrix Expanstion (DME)}{1}{section*.4}}
\citation{Gebremariam2010b,Gebremariam2010c}
\citation{Carlsson2008a,Carlsson2010a,Carlsson2010b,Raimondi2011a}
\citation{Erler2010a}
\citation{Navarro2018a}
\citation{Stoitsov2010a,Gebremariam2011a,Gebremariam2010a,Bogner2011a,Dyhdalo2017a}
\citation{Bogner2009a}
\citation{Davesne2018a}
\citation{Navarro2018a}
\@writefile{toc}{\contentsline {subsection}{\numberline {A}Chiral 3N contributions}{2}{section*.5}}
\@writefile{toc}{\contentsline {subsection}{\numberline {B}DME beyond HF}{2}{section*.6}}
\citation{Stoitsov2010a}
\citation{Navarro2018a}
\citation{Furnstahl2019a}
\@writefile{toc}{\contentsline {subsection}{\numberline {C}Other issues}{3}{section*.7}}
\@writefile{toc}{\contentsline {subsubsection}{\numberline {1}Other constraints}{3}{section*.8}}
\@writefile{toc}{\contentsline {subsubsection}{\numberline {2}Regulators issues}{3}{section*.9}}
\@writefile{toc}{\contentsline {subsubsection}{\numberline {3}Possible speculative extensions}{3}{section*.10}}
\@writefile{toc}{\contentsline {section}{\numberline {II}In-Medium Similarity Renormalization Group (IMSRG)}{3}{section*.11}}
\@writefile{toc}{\contentsline {subsection}{\numberline {A}DFT from effective actions}{3}{section*.12}}
\@writefile{toc}{\contentsline {section}{\numberline {III}DFT for nuclear EDF}{3}{section*.13}}
\@writefile{toc}{\contentsline {section}{\numberline {IV}Resummation}{3}{section*.14}}
\@writefile{toc}{\contentsline {section}{\numberline {V}From cold atoms to nuclear physics}{3}{section*.15}}
\@writefile{toc}{\contentsline {subsection}{\numberline {A}Continuity of the PhD}{3}{section*.16}}
\@writefile{toc}{\contentsline {subsubsection}{\numberline {1}Pairing and resummation}{3}{section*.17}}
\@writefile{toc}{\contentsline {subsubsection}{\numberline {2}$\omega $-dependence of the resummed self-energy}{3}{section*.18}}
\bibcite{Negele1972a}{{1}{}{{}}{{}}}
\bibcite{Negele1975a}{{2}{}{{}}{{}}}
\bibcite{Carlsson2008a}{{3}{}{{}}{{}}}
\bibcite{Raimondi2011a}{{4}{}{{}}{{}}}
\bibcite{Negele1975b}{{5}{}{{}}{{}}}
\bibcite{Sprung1975a}{{6}{}{{}}{{}}}
\bibcite{Gebremariam2010a}{{7}{}{{}}{{}}}
\bibcite{Stoitsov2010a}{{8}{}{{}}{{}}}
\bibcite{Carlsson2010a}{{9}{}{{}}{{}}}
\bibcite{Gebremariam2011a}{{10}{}{{}}{{}}}
\bibcite{Bogner2011a}{{11}{}{{}}{{}}}
\bibcite{Dyhdalo2017a}{{12}{}{{}}{{}}}
\bibcite{Carlsson2010b}{{13}{}{{}}{{}}}
\@writefile{toc}{\contentsline {subsubsection}{\numberline {3}Applications to finite systems (quantum drop) with density-dependent Skyrme-like functional}{4}{section*.19}}
\newlabel{sec:MBPTconstrained}{{V.B}{4}{}{section*.20}{}}
\@writefile{toc}{\contentsline {subsection}{\numberline {B}MBPT extended with constraints }{4}{section*.20}}
\@writefile{toc}{\contentsline {section}{\numberline {VI}Possible collaboration with QMC community}{4}{section*.21}}
\@writefile{toc}{\contentsline {section}{\numberline {VII}\emph  {Ab initio} calculations for semi-infinite matter}{4}{section*.22}}
\@writefile{toc}{\contentsline {section}{\numberline {VIII}Symmetry broken and restored self-consistent Green's function theory}{4}{section*.23}}
\@writefile{toc}{\contentsline {section}{\numberline {}References}{4}{section*.24}}
\bibcite{Dobaczewski2010a}{{14}{}{{}}{{}}}
\bibcite{Erler2010a}{{15}{}{{}}{{}}}
\bibcite{Navarro2018a}{{16}{}{{}}{{}}}
\bibcite{Navarro2019a}{{17}{}{{}}{{}}}
\bibcite{Bogner2009a}{{18}{}{{}}{{}}}
\bibcite{Gebremariam2010b}{{19}{}{{}}{{}}}
\bibcite{Gebremariam2010c}{{20}{}{{}}{{}}}
\bibcite{Davesne2018a}{{21}{}{{}}{{}}}
\bibcite{Furnstahl2019a}{{22}{}{{}}{{}}}
\bibdata{mainNotes}
\bibstyle{apsrmp4-1}
\citation{REVTEX41Control}
\citation{apsrmp41Control}
\providecommand\NAT@force@numbers{}\NAT@force@numbers
\newlabel{LastBibItem}{{22}{5}{}{section*.24}{}}
\newlabel{LastPage}{{}{5}{}{}{}}
