\relax 
\providecommand\hyper@newdestlabel[2]{}
\providecommand\HyperFirstAtBeginDocument{\AtBeginDocument}
\HyperFirstAtBeginDocument{\ifx\hyper@anchor\@undefined
\global\let\oldcontentsline\contentsline
\gdef\contentsline#1#2#3#4{\oldcontentsline{#1}{#2}{#3}}
\global\let\oldnewlabel\newlabel
\gdef\newlabel#1#2{\newlabelxx{#1}#2}
\gdef\newlabelxx#1#2#3#4#5#6{\oldnewlabel{#1}{{#2}{#3}}}
\AtEndDocument{\ifx\hyper@anchor\@undefined
\let\contentsline\oldcontentsline
\let\newlabel\oldnewlabel
\fi}
\fi}
\global\let\hyper@last\relax 
\gdef\HyperFirstAtBeginDocument#1{#1}
\providecommand\HyField@AuxAddToFields[1]{}
\providecommand\HyField@AuxAddToCoFields[2]{}
\newlabel{FirstPage}{{}{1}{}{section*.1}{}}
\@writefile{toc}{\contentsline {title}{MBPT constrained and BMF DFT: \nobreakspace  {}\nobreakspace  {}\nobreakspace  {}\nobreakspace  {}\nobreakspace  {}\nobreakspace  {}\nobreakspace  {}\nobreakspace  {}\nobreakspace  {}\nobreakspace  {}\nobreakspace  {}\nobreakspace  {}\nobreakspace  {}\nobreakspace  {}\nobreakspace  {}\nobreakspace  {}\nobreakspace  {}\nobreakspace  {}\nobreakspace  {}\nobreakspace  {}\nobreakspace  {}\nobreakspace  {}\nobreakspace  {}\nobreakspace  {}\nobreakspace  {}\nobreakspace  {}\nobreakspace  {}\nobreakspace  {}\nobreakspace  {}\nobreakspace  {}\nobreakspace  {}\nobreakspace  {}\nobreakspace  {}\nobreakspace  {}\nobreakspace  {}\nobreakspace  {}\nobreakspace  {}\nobreakspace  {}\nobreakspace  {}\nobreakspace  {}\nobreakspace  {}\nobreakspace  {}\nobreakspace  {}\nobreakspace  {}\nobreakspace  {}\nobreakspace  {}\nobreakspace  {}\nobreakspace  {}\nobreakspace  {}\nobreakspace  {}\nobreakspace  {}\nobreakspace  {}\nobreakspace  {} a step towards the EFT formalism of EDF}{1}{section*.2}}
\@writefile{toc}{\contentsline {abstract}{Abstract}{1}{section*.1}}
\@writefile{toc}{\contentsline {section}{\numberline {I}Introduction}{1}{section*.3}}
\@writefile{toc}{\contentsline {section}{\numberline {II}Presentation of the problem}{1}{section*.4}}
\newlabel{eq:hamiltonian}{{1}{1}{}{equation.2.1}{}}
\newlabel{eq:expension-Eexact}{{2}{1}{}{equation.2.2}{}}
\newlabel{eq:high-scale-limit-constraint}{{3}{1}{}{equation.2.3}{}}
\citation{CHbook:EFTforDFT}
\citation{book:FetterWalecka,book:crossoverUG}
\citation{Adhikari2008a,Lacroix2016a}
\citation{Boulet2019a,BouletPhD}
\citation{Adhikari2008a,Lacroix2016a,Boulet2019a,BouletPhD}
\newlabel{eq:eff-hamiltonian}{{4}{2}{}{equation.2.4}{}}
\@writefile{toc}{\contentsline {subsection}{\numberline {A}Hartree-Fock or MBPT at first order}{2}{section*.5}}
\newlabel{eq:Elo-def}{{5}{2}{}{equation.2.5}{}}
\newlabel{subsec:app-UG-I}{{II.B}{2}{}{section*.6}{}}
\@writefile{toc}{\contentsline {subsection}{\numberline {B}Direct application to ultracold atoms systems }{2}{section*.6}}
\newlabel{eq:FermiGas-correspondence}{{7}{2}{}{equation.2.7}{}}
\newlabel{eq:ELO}{{8}{2}{}{equation.2.8}{}}
\citation{book:MBPT-CC,book:QChemistry}
\newlabel{sec:MBPT2}{{III}{3}{}{section*.7}{}}
\@writefile{toc}{\contentsline {section}{\numberline {III}Extension of the MBPT with correlated effective interaction }{3}{section*.7}}
\@writefile{toc}{\contentsline {subsection}{\numberline {A}(Revisited) Many-body perturbation theory}{3}{section*.8}}
\newlabel{eq:MBSchroEq}{{10}{3}{}{equation.3.10}{}}
\newlabel{eq:E-shift}{{11}{3}{}{equation.3.11}{}}
\newlabel{eq:exMBstate}{{12c}{3}{}{equation.3.12alph3}{}}
\@writefile{toc}{\contentsline {subsubsection}{\numberline {1}Brillouin-Wigner perturbation theory}{3}{section*.9}}
\@writefile{toc}{\contentsline {subsubsection}{\numberline {2}Rayleigh-Schr\"odinger perturbation theory}{3}{section*.10}}
\newlabel{eq:rspt-result}{{15}{3}{}{equation.3.15}{}}
\newlabel{eq:def-An}{{16}{4}{}{equation.3.16}{}}
\newlabel{sec:mbpt-reformulated}{{III.A.3}{4}{}{section*.11}{}}
\@writefile{toc}{\contentsline {subsubsection}{\numberline {3}Other choice for the resolvent parameter? }{4}{section*.11}}
\newlabel{eq:reformulation-E-mbpt}{{18}{4}{}{equation.3.18}{}}
\@writefile{toc}{\contentsline {subsection}{\numberline {B}MBPT whit an effective Hamiltonian}{4}{section*.12}}
\newlabel{eq:gsE-shift}{{20}{4}{}{equation.3.20}{}}
\newlabel{eq:Gamma-G-nlon}{{21}{4}{}{equation.3.21}{}}
\@writefile{toc}{\contentsline {subsubsection}{\numberline {1}First order}{5}{section*.13}}
\@writefile{toc}{\contentsline {subsubsection}{\numberline {2}Second order}{5}{section*.14}}
\@writefile{toc}{\contentsline {paragraph}{\numberline {a}Low-scale expansion}{5}{section*.15}}
\@writefile{toc}{\contentsline {paragraph}{\numberline {b}High-scale constraint}{5}{section*.16}}
\newlabel{eq:polynom-al2}{{27}{5}{}{equation.3.27}{}}
\@writefile{toc}{\contentsline {paragraph}{\numberline {c}Many-body state}{5}{section*.17}}
\@writefile{toc}{\contentsline {subsubsection}{\numberline {3}Third order}{5}{section*.18}}
\newlabel{eq:Eshift2beta}{{28}{5}{}{equation.3.28}{}}
\@writefile{toc}{\contentsline {subsubsection}{\numberline {4}Fourth order}{6}{section*.19}}
\newlabel{EDF-in-EFT}{{III.C}{6}{}{section*.20}{}}
\@writefile{toc}{\contentsline {subsection}{\numberline {C}EDF as an EFT? }{6}{section*.20}}
\@writefile{toc}{\contentsline {subsubsection}{\numberline {1}Chose of the high-scale solution}{6}{section*.21}}
\citation{Wellenhofer2020a}
\citation{Astrakharchik2004a}
\citation{Popov1965a}
\citation{Petrov2004a}
\citation{Chang2004a}
\def \dpthimport {\expandafter \gdef \csname pgfplots@labelstyle@pgf:abi\endcsname {only marks={},mark={*},black={\pgfkeysnovalue },forget plot={\pgfkeysnovalue }}}\dpthimport 
\def \dpthimport {\expandafter \gdef \csname pgfplots@show@ref@pgf:abi\endcsname {\begingroup \def \pgfplots@draw@image {\def \tikz@plot@handler {\pgfkeys {/pgf/plots/@handler options/.cd, start=\relax , end macro=\relax , point macro=\pgfutil@gobble , jump macro=\relax , special macro=\pgfutil@gobble , point macro=\pgf@plot@line@handler , jump=\global \let \pgf@plotstreampoint \pgf@plot@line@handler@move }\begingroup \escapechar =-1 \edef \pgfplotsplothandlername {\string \pgfplothandlerlineto }\pgfmath@smuggleone \pgfplotsplothandlername \endgroup \def \pgfplotsplothandlerLUAfactory {function(axis, pointmetainputhandler) return pgfplots.GenericPlothandler.new("\pgfplotsplothandlername ", axis,pointmetainputhandler) end}\def \pgfplotsplothandlerLUAvisualizerfactory {pgfplots.defaultPlotVisualizerFactory}}\pgfkeysdef {/pgfplots/legend image code}{\draw [/pgfplots/mesh=false,bar width=3pt,bar shift=0pt,mark repeat=2,mark phase=2,] plot coordinates { (0cm,0cm) (0.3cm,0cm) (0.6cm,0cm)};}\pgfkeysdef {/pgfplots/every legend image post}{}\pgfkeyssetvalue {/pgfplots/mark list fill}{.!80!black}\pgfkeysdef {/pgfplots/every crossref picture}{\pgfkeysalso {baseline,yshift=0.3em}}\pgfplots@show@small@legendplots {only marks={},mark={*},black={\pgfkeysnovalue },forget plot={\pgfkeysnovalue }}{}}\ifpgfpicture \scope [/pgfplots/every crossref picture]\pgfplots@draw@image \endscope \else \expandafter \ifx \csname tikzappendtofigurename\endcsname \relax \else \begingroup \tikzappendtofigurename {_crossref}\fi \tikz [/pgfplots/every crossref picture]{\pgfplots@draw@image }\expandafter \ifx \csname tikzappendtofigurename\endcsname \relax \else \endgroup \fi \fi \endgroup }}\dpthimport 
\def \dpthimport {\newlabel {pgf:abi}{{\expandafter \protect \csname pgfplots@show@ref@pgf:abi\endcsname }{\thepage }{}{pgfplotslink.4.0}{}}}\dpthimport 
\def \dpthimport {\expandafter \gdef \csname pgfplots@labelstyle@pgf:E1\endcsname {solid={\pgfkeysnovalue },mark={none},solid={\pgfkeysnovalue },grayp={\pgfkeysnovalue },samples={100},/utils/exec={\if 0\pgfplotsplothandlermesh@matrixinput \pgfkeysalso {/pgfplots/mesh input=lattice}\fi }}}\dpthimport 
\def \dpthimport {\expandafter \gdef \csname pgfplots@show@ref@pgf:E1\endcsname {\begingroup \def \pgfplots@draw@image {\def \tikz@plot@handler {\pgfkeys {/pgf/plots/@handler options/.cd, start=\relax , end macro=\relax , point macro=\pgfutil@gobble , jump macro=\relax , special macro=\pgfutil@gobble , point macro=\pgf@plot@line@handler , jump=\global \let \pgf@plotstreampoint \pgf@plot@line@handler@move }\begingroup \escapechar =-1 \edef \pgfplotsplothandlername {\string \pgfplothandlerlineto }\pgfmath@smuggleone \pgfplotsplothandlername \endgroup \def \pgfplotsplothandlerLUAfactory {function(axis, pointmetainputhandler) return pgfplots.GenericPlothandler.new("\pgfplotsplothandlername ", axis,pointmetainputhandler) end}\def \pgfplotsplothandlerLUAvisualizerfactory {pgfplots.defaultPlotVisualizerFactory}}\pgfkeysdef {/pgfplots/legend image code}{\draw [/pgfplots/mesh=false,bar width=3pt,bar shift=0pt,mark repeat=2,mark phase=2,] plot coordinates { (0cm,0cm) (0.3cm,0cm) (0.6cm,0cm)};}\pgfkeysdef {/pgfplots/every legend image post}{}\pgfkeyssetvalue {/pgfplots/mark list fill}{.!80!black}\pgfkeysdef {/pgfplots/every crossref picture}{\pgfkeysalso {baseline,yshift=0.3em}}\pgfplots@show@small@legendplots {solid={\pgfkeysnovalue },mark={none},solid={\pgfkeysnovalue },grayp={\pgfkeysnovalue },samples={100},/utils/exec={\if 0\pgfplotsplothandlermesh@matrixinput \pgfkeysalso {/pgfplots/mesh input=lattice}\fi }}{}}\ifpgfpicture \scope [/pgfplots/every crossref picture]\pgfplots@draw@image \endscope \else \expandafter \ifx \csname tikzappendtofigurename\endcsname \relax \else \begingroup \tikzappendtofigurename {_crossref}\fi \tikz [/pgfplots/every crossref picture]{\pgfplots@draw@image }\expandafter \ifx \csname tikzappendtofigurename\endcsname \relax \else \endgroup \fi \fi \endgroup }}\dpthimport 
\def \dpthimport {\newlabel {pgf:E1}{{\expandafter \protect \csname pgfplots@show@ref@pgf:E1\endcsname }{\thepage }{}{pgfplotslink.4.1}{}}}\dpthimport 
\def \dpthimport {\expandafter \gdef \csname pgfplots@labelstyle@pgf:E2\endcsname {dashed={\pgfkeysnovalue },mark={none},dashed={\pgfkeysnovalue },grayp={\pgfkeysnovalue },samples={100},/utils/exec={\if 0\pgfplotsplothandlermesh@matrixinput \pgfkeysalso {/pgfplots/mesh input=lattice}\fi }}}\dpthimport 
\def \dpthimport {\expandafter \gdef \csname pgfplots@show@ref@pgf:E2\endcsname {\begingroup \def \pgfplots@draw@image {\def \tikz@plot@handler {\pgfkeys {/pgf/plots/@handler options/.cd, start=\relax , end macro=\relax , point macro=\pgfutil@gobble , jump macro=\relax , special macro=\pgfutil@gobble , point macro=\pgf@plot@line@handler , jump=\global \let \pgf@plotstreampoint \pgf@plot@line@handler@move }\begingroup \escapechar =-1 \edef \pgfplotsplothandlername {\string \pgfplothandlerlineto }\pgfmath@smuggleone \pgfplotsplothandlername \endgroup \def \pgfplotsplothandlerLUAfactory {function(axis, pointmetainputhandler) return pgfplots.GenericPlothandler.new("\pgfplotsplothandlername ", axis,pointmetainputhandler) end}\def \pgfplotsplothandlerLUAvisualizerfactory {pgfplots.defaultPlotVisualizerFactory}}\pgfkeysdef {/pgfplots/legend image code}{\draw [/pgfplots/mesh=false,bar width=3pt,bar shift=0pt,mark repeat=2,mark phase=2,] plot coordinates { (0cm,0cm) (0.3cm,0cm) (0.6cm,0cm)};}\pgfkeysdef {/pgfplots/every legend image post}{}\pgfkeyssetvalue {/pgfplots/mark list fill}{.!80!black}\pgfkeysdef {/pgfplots/every crossref picture}{\pgfkeysalso {baseline,yshift=0.3em}}\pgfplots@show@small@legendplots {dashed={\pgfkeysnovalue },mark={none},dashed={\pgfkeysnovalue },grayp={\pgfkeysnovalue },samples={100},/utils/exec={\if 0\pgfplotsplothandlermesh@matrixinput \pgfkeysalso {/pgfplots/mesh input=lattice}\fi }}{}}\ifpgfpicture \scope [/pgfplots/every crossref picture]\pgfplots@draw@image \endscope \else \expandafter \ifx \csname tikzappendtofigurename\endcsname \relax \else \begingroup \tikzappendtofigurename {_crossref}\fi \tikz [/pgfplots/every crossref picture]{\pgfplots@draw@image }\expandafter \ifx \csname tikzappendtofigurename\endcsname \relax \else \endgroup \fi \fi \endgroup }}\dpthimport 
\def \dpthimport {\newlabel {pgf:E2}{{\expandafter \protect \csname pgfplots@show@ref@pgf:E2\endcsname }{\thepage }{}{pgfplotslink.4.2}{}}}\dpthimport 
\def \dpthimport {\expandafter \gdef \csname pgfplots@labelstyle@pgf:E3\endcsname {dotted={\pgfkeysnovalue },mark={none},dashdotted={\pgfkeysnovalue },grayp={\pgfkeysnovalue },samples={100},/utils/exec={\if 0\pgfplotsplothandlermesh@matrixinput \pgfkeysalso {/pgfplots/mesh input=lattice}\fi }}}\dpthimport 
\def \dpthimport {\expandafter \gdef \csname pgfplots@show@ref@pgf:E3\endcsname {\begingroup \def \pgfplots@draw@image {\def \tikz@plot@handler {\pgfkeys {/pgf/plots/@handler options/.cd, start=\relax , end macro=\relax , point macro=\pgfutil@gobble , jump macro=\relax , special macro=\pgfutil@gobble , point macro=\pgf@plot@line@handler , jump=\global \let \pgf@plotstreampoint \pgf@plot@line@handler@move }\begingroup \escapechar =-1 \edef \pgfplotsplothandlername {\string \pgfplothandlerlineto }\pgfmath@smuggleone \pgfplotsplothandlername \endgroup \def \pgfplotsplothandlerLUAfactory {function(axis, pointmetainputhandler) return pgfplots.GenericPlothandler.new("\pgfplotsplothandlername ", axis,pointmetainputhandler) end}\def \pgfplotsplothandlerLUAvisualizerfactory {pgfplots.defaultPlotVisualizerFactory}}\pgfkeysdef {/pgfplots/legend image code}{\draw [/pgfplots/mesh=false,bar width=3pt,bar shift=0pt,mark repeat=2,mark phase=2,] plot coordinates { (0cm,0cm) (0.3cm,0cm) (0.6cm,0cm)};}\pgfkeysdef {/pgfplots/every legend image post}{}\pgfkeyssetvalue {/pgfplots/mark list fill}{.!80!black}\pgfkeysdef {/pgfplots/every crossref picture}{\pgfkeysalso {baseline,yshift=0.3em}}\pgfplots@show@small@legendplots {dotted={\pgfkeysnovalue },mark={none},dashdotted={\pgfkeysnovalue },grayp={\pgfkeysnovalue },samples={100},/utils/exec={\if 0\pgfplotsplothandlermesh@matrixinput \pgfkeysalso {/pgfplots/mesh input=lattice}\fi }}{}}\ifpgfpicture \scope [/pgfplots/every crossref picture]\pgfplots@draw@image \endscope \else \expandafter \ifx \csname tikzappendtofigurename\endcsname \relax \else \begingroup \tikzappendtofigurename {_crossref}\fi \tikz [/pgfplots/every crossref picture]{\pgfplots@draw@image }\expandafter \ifx \csname tikzappendtofigurename\endcsname \relax \else \endgroup \fi \fi \endgroup }}\dpthimport 
\def \dpthimport {\newlabel {pgf:E3}{{\expandafter \protect \csname pgfplots@show@ref@pgf:E3\endcsname }{\thepage }{}{pgfplotslink.4.3}{}}}\dpthimport 
\def \dpthimport {\expandafter \gdef \csname pgfplots@labelstyle@pgf:E4\endcsname {solid={\pgfkeysnovalue },mark={none},dotted={\pgfkeysnovalue },grayp={\pgfkeysnovalue },samples={100},/utils/exec={\if 0\pgfplotsplothandlermesh@matrixinput \pgfkeysalso {/pgfplots/mesh input=lattice}\fi }}}\dpthimport 
\def \dpthimport {\expandafter \gdef \csname pgfplots@show@ref@pgf:E4\endcsname {\begingroup \def \pgfplots@draw@image {\def \tikz@plot@handler {\pgfkeys {/pgf/plots/@handler options/.cd, start=\relax , end macro=\relax , point macro=\pgfutil@gobble , jump macro=\relax , special macro=\pgfutil@gobble , point macro=\pgf@plot@line@handler , jump=\global \let \pgf@plotstreampoint \pgf@plot@line@handler@move }\begingroup \escapechar =-1 \edef \pgfplotsplothandlername {\string \pgfplothandlerlineto }\pgfmath@smuggleone \pgfplotsplothandlername \endgroup \def \pgfplotsplothandlerLUAfactory {function(axis, pointmetainputhandler) return pgfplots.GenericPlothandler.new("\pgfplotsplothandlername ", axis,pointmetainputhandler) end}\def \pgfplotsplothandlerLUAvisualizerfactory {pgfplots.defaultPlotVisualizerFactory}}\pgfkeysdef {/pgfplots/legend image code}{\draw [/pgfplots/mesh=false,bar width=3pt,bar shift=0pt,mark repeat=2,mark phase=2,] plot coordinates { (0cm,0cm) (0.3cm,0cm) (0.6cm,0cm)};}\pgfkeysdef {/pgfplots/every legend image post}{}\pgfkeyssetvalue {/pgfplots/mark list fill}{.!80!black}\pgfkeysdef {/pgfplots/every crossref picture}{\pgfkeysalso {baseline,yshift=0.3em}}\pgfplots@show@small@legendplots {solid={\pgfkeysnovalue },mark={none},dotted={\pgfkeysnovalue },grayp={\pgfkeysnovalue },samples={100},/utils/exec={\if 0\pgfplotsplothandlermesh@matrixinput \pgfkeysalso {/pgfplots/mesh input=lattice}\fi }}{}}\ifpgfpicture \scope [/pgfplots/every crossref picture]\pgfplots@draw@image \endscope \else \expandafter \ifx \csname tikzappendtofigurename\endcsname \relax \else \begingroup \tikzappendtofigurename {_crossref}\fi \tikz [/pgfplots/every crossref picture]{\pgfplots@draw@image }\expandafter \ifx \csname tikzappendtofigurename\endcsname \relax \else \endgroup \fi \fi \endgroup }}\dpthimport 
\def \dpthimport {\newlabel {pgf:E4}{{\expandafter \protect \csname pgfplots@show@ref@pgf:E4\endcsname }{\thepage }{}{pgfplotslink.4.4}{}}}\dpthimport 
\def \dpthimport {\expandafter \gdef \csname pgfplots@labelstyle@pgf:ELO\endcsname {dashed={\pgfkeysnovalue },solid={\pgfkeysnovalue },bluep={\pgfkeysnovalue },line width={0.25mm}}}\dpthimport 
\def \dpthimport {\expandafter \gdef \csname pgfplots@show@ref@pgf:ELO\endcsname {\begingroup \def \pgfplots@draw@image {\def \tikz@plot@handler {\pgfkeys {/pgf/plots/@handler options/.cd, start=\relax , end macro=\relax , point macro=\pgfutil@gobble , jump macro=\relax , special macro=\pgfutil@gobble , point macro=\pgf@plot@line@handler , jump=\global \let \pgf@plotstreampoint \pgf@plot@line@handler@move }\begingroup \escapechar =-1 \edef \pgfplotsplothandlername {\string \pgfplothandlerlineto }\pgfmath@smuggleone \pgfplotsplothandlername \endgroup \def \pgfplotsplothandlerLUAfactory {function(axis, pointmetainputhandler) return pgfplots.GenericPlothandler.new("\pgfplotsplothandlername ", axis,pointmetainputhandler) end}\def \pgfplotsplothandlerLUAvisualizerfactory {pgfplots.defaultPlotVisualizerFactory}}\pgfkeysdef {/pgfplots/legend image code}{\draw [/pgfplots/mesh=false,bar width=3pt,bar shift=0pt,mark repeat=2,mark phase=2,] plot coordinates { (0cm,0cm) (0.3cm,0cm) (0.6cm,0cm)};}\pgfkeysdef {/pgfplots/every legend image post}{}\pgfkeyssetvalue {/pgfplots/mark list fill}{.!80!black}\pgfkeysdef {/pgfplots/every crossref picture}{\pgfkeysalso {baseline,yshift=0.3em}}\pgfplots@show@small@legendplots {dashed={\pgfkeysnovalue },solid={\pgfkeysnovalue },bluep={\pgfkeysnovalue },line width={0.25mm}}{}}\ifpgfpicture \scope [/pgfplots/every crossref picture]\pgfplots@draw@image \endscope \else \expandafter \ifx \csname tikzappendtofigurename\endcsname \relax \else \begingroup \tikzappendtofigurename {_crossref}\fi \tikz [/pgfplots/every crossref picture]{\pgfplots@draw@image }\expandafter \ifx \csname tikzappendtofigurename\endcsname \relax \else \endgroup \fi \fi \endgroup }}\dpthimport 
\def \dpthimport {\newlabel {pgf:ELO}{{\expandafter \protect \csname pgfplots@show@ref@pgf:ELO\endcsname }{\thepage }{}{pgfplotslink.4.5}{}}}\dpthimport 
\def \dpthimport {\expandafter \gdef \csname pgfplots@labelstyle@pgf:ENLO\endcsname {dotted={\pgfkeysnovalue },dashed={\pgfkeysnovalue },orangep={\pgfkeysnovalue },line width={0.25mm}}}\dpthimport 
\def \dpthimport {\expandafter \gdef \csname pgfplots@show@ref@pgf:ENLO\endcsname {\begingroup \def \pgfplots@draw@image {\def \tikz@plot@handler {\pgfkeys {/pgf/plots/@handler options/.cd, start=\relax , end macro=\relax , point macro=\pgfutil@gobble , jump macro=\relax , special macro=\pgfutil@gobble , point macro=\pgf@plot@line@handler , jump=\global \let \pgf@plotstreampoint \pgf@plot@line@handler@move }\begingroup \escapechar =-1 \edef \pgfplotsplothandlername {\string \pgfplothandlerlineto }\pgfmath@smuggleone \pgfplotsplothandlername \endgroup \def \pgfplotsplothandlerLUAfactory {function(axis, pointmetainputhandler) return pgfplots.GenericPlothandler.new("\pgfplotsplothandlername ", axis,pointmetainputhandler) end}\def \pgfplotsplothandlerLUAvisualizerfactory {pgfplots.defaultPlotVisualizerFactory}}\pgfkeysdef {/pgfplots/legend image code}{\draw [/pgfplots/mesh=false,bar width=3pt,bar shift=0pt,mark repeat=2,mark phase=2,] plot coordinates { (0cm,0cm) (0.3cm,0cm) (0.6cm,0cm)};}\pgfkeysdef {/pgfplots/every legend image post}{}\pgfkeyssetvalue {/pgfplots/mark list fill}{.!80!black}\pgfkeysdef {/pgfplots/every crossref picture}{\pgfkeysalso {baseline,yshift=0.3em}}\pgfplots@show@small@legendplots {dotted={\pgfkeysnovalue },dashed={\pgfkeysnovalue },orangep={\pgfkeysnovalue },line width={0.25mm}}{}}\ifpgfpicture \scope [/pgfplots/every crossref picture]\pgfplots@draw@image \endscope \else \expandafter \ifx \csname tikzappendtofigurename\endcsname \relax \else \begingroup \tikzappendtofigurename {_crossref}\fi \tikz [/pgfplots/every crossref picture]{\pgfplots@draw@image }\expandafter \ifx \csname tikzappendtofigurename\endcsname \relax \else \endgroup \fi \fi \endgroup }}\dpthimport 
\def \dpthimport {\newlabel {pgf:ENLO}{{\expandafter \protect \csname pgfplots@show@ref@pgf:ENLO\endcsname }{\thepage }{}{pgfplotslink.4.6}{}}}\dpthimport 
\def \dpthimport {\expandafter \gdef \csname pgfplots@labelstyle@pgf:EN2LO\endcsname {solid={\pgfkeysnovalue },dashdotted={\pgfkeysnovalue },greenp={\pgfkeysnovalue },line width={0.25mm}}}\dpthimport 
\def \dpthimport {\expandafter \gdef \csname pgfplots@show@ref@pgf:EN2LO\endcsname {\begingroup \def \pgfplots@draw@image {\def \tikz@plot@handler {\pgfkeys {/pgf/plots/@handler options/.cd, start=\relax , end macro=\relax , point macro=\pgfutil@gobble , jump macro=\relax , special macro=\pgfutil@gobble , point macro=\pgf@plot@line@handler , jump=\global \let \pgf@plotstreampoint \pgf@plot@line@handler@move }\begingroup \escapechar =-1 \edef \pgfplotsplothandlername {\string \pgfplothandlerlineto }\pgfmath@smuggleone \pgfplotsplothandlername \endgroup \def \pgfplotsplothandlerLUAfactory {function(axis, pointmetainputhandler) return pgfplots.GenericPlothandler.new("\pgfplotsplothandlername ", axis,pointmetainputhandler) end}\def \pgfplotsplothandlerLUAvisualizerfactory {pgfplots.defaultPlotVisualizerFactory}}\pgfkeysdef {/pgfplots/legend image code}{\draw [/pgfplots/mesh=false,bar width=3pt,bar shift=0pt,mark repeat=2,mark phase=2,] plot coordinates { (0cm,0cm) (0.3cm,0cm) (0.6cm,0cm)};}\pgfkeysdef {/pgfplots/every legend image post}{}\pgfkeyssetvalue {/pgfplots/mark list fill}{.!80!black}\pgfkeysdef {/pgfplots/every crossref picture}{\pgfkeysalso {baseline,yshift=0.3em}}\pgfplots@show@small@legendplots {solid={\pgfkeysnovalue },dashdotted={\pgfkeysnovalue },greenp={\pgfkeysnovalue },line width={0.25mm}}{}}\ifpgfpicture \scope [/pgfplots/every crossref picture]\pgfplots@draw@image \endscope \else \expandafter \ifx \csname tikzappendtofigurename\endcsname \relax \else \begingroup \tikzappendtofigurename {_crossref}\fi \tikz [/pgfplots/every crossref picture]{\pgfplots@draw@image }\expandafter \ifx \csname tikzappendtofigurename\endcsname \relax \else \endgroup \fi \fi \endgroup }}\dpthimport 
\def \dpthimport {\newlabel {pgf:EN2LO}{{\expandafter \protect \csname pgfplots@show@ref@pgf:EN2LO\endcsname }{\thepage }{}{pgfplotslink.4.7}{}}}\dpthimport 
\def \dpthimport {\expandafter \gdef \csname pgfplots@labelstyle@pgf:EN3LO\endcsname {dashed={\pgfkeysnovalue },dotted={\pgfkeysnovalue },redp={\pgfkeysnovalue },line width={0.25mm}}}\dpthimport 
\def \dpthimport {\expandafter \gdef \csname pgfplots@show@ref@pgf:EN3LO\endcsname {\begingroup \def \pgfplots@draw@image {\def \tikz@plot@handler {\pgfkeys {/pgf/plots/@handler options/.cd, start=\relax , end macro=\relax , point macro=\pgfutil@gobble , jump macro=\relax , special macro=\pgfutil@gobble , point macro=\pgf@plot@line@handler , jump=\global \let \pgf@plotstreampoint \pgf@plot@line@handler@move }\begingroup \escapechar =-1 \edef \pgfplotsplothandlername {\string \pgfplothandlerlineto }\pgfmath@smuggleone \pgfplotsplothandlername \endgroup \def \pgfplotsplothandlerLUAfactory {function(axis, pointmetainputhandler) return pgfplots.GenericPlothandler.new("\pgfplotsplothandlername ", axis,pointmetainputhandler) end}\def \pgfplotsplothandlerLUAvisualizerfactory {pgfplots.defaultPlotVisualizerFactory}}\pgfkeysdef {/pgfplots/legend image code}{\draw [/pgfplots/mesh=false,bar width=3pt,bar shift=0pt,mark repeat=2,mark phase=2,] plot coordinates { (0cm,0cm) (0.3cm,0cm) (0.6cm,0cm)};}\pgfkeysdef {/pgfplots/every legend image post}{}\pgfkeyssetvalue {/pgfplots/mark list fill}{.!80!black}\pgfkeysdef {/pgfplots/every crossref picture}{\pgfkeysalso {baseline,yshift=0.3em}}\pgfplots@show@small@legendplots {dashed={\pgfkeysnovalue },dotted={\pgfkeysnovalue },redp={\pgfkeysnovalue },line width={0.25mm}}{}}\ifpgfpicture \scope [/pgfplots/every crossref picture]\pgfplots@draw@image \endscope \else \expandafter \ifx \csname tikzappendtofigurename\endcsname \relax \else \begingroup \tikzappendtofigurename {_crossref}\fi \tikz [/pgfplots/every crossref picture]{\pgfplots@draw@image }\expandafter \ifx \csname tikzappendtofigurename\endcsname \relax \else \endgroup \fi \fi \endgroup }}\dpthimport 
\def \dpthimport {\newlabel {pgf:EN3LO}{{\expandafter \protect \csname pgfplots@show@ref@pgf:EN3LO\endcsname }{\thepage }{}{pgfplotslink.4.8}{}}}\dpthimport 
\citation{Wellenhofer2020a}
\citation{Carlsson2012a}
\newlabel{sec:removeIm}{{III.C.2}{7}{}{section*.22}{}}
\@writefile{toc}{\contentsline {subsubsection}{\numberline {2}Remove the imaginary part }{7}{section*.22}}
\newlabel{subsec:app-UG-II}{{IV}{7}{}{section*.23}{}}
\@writefile{toc}{\contentsline {section}{\numberline {IV}Application to ultracold atoms systems }{7}{section*.23}}
\newlabel{sec:gal-finite-hs-constraint}{{V}{7}{}{section*.24}{}}
\@writefile{toc}{\contentsline {section}{\numberline {V}Generalization of the limiting high-scale constraint }{7}{section*.24}}
\@writefile{toc}{\contentsline {subsection}{\numberline {A}Effecive Hamiltonian with finite constraints}{7}{section*.25}}
\newlabel{eq:energy-exp-gal}{{31}{7}{}{equation.5.31}{}}
\newlabel{eq:HLOmulti}{{32}{7}{}{equation.5.32}{}}
\citation{Richardson1964a}
\@writefile{lof}{\contentsline {figure}{\numberline {1}{\ignorespaces   Ground state energy of the spin-saturated Fermi gas $E^{\textsc  {n${\scriptstyle ^l}$lo}\xspace  }_\lambda $ discussed in section \ref  {subsec:app-UG-II} as a function of $(a_sk_F)$ [panels (a) for $a_s<0$, and (c) for $a_s>0$] and $(a_sk_F)^{-1}$ [panels (b) for $a_s<0$, and (d) for $a_s>0$] obtained with \textup  {\hbox {\mathsurround \z@ \normalfont  (\ignorespaces \ref  {eq:Gamma-G-nlon}\unskip \@@italiccorr )}} using the dilute Fermi gas correspondence (see section \ref  {subsec:app-UG-II}) for $l=0$ (\plotref {pgf:ELO}), $l=1$ (\plotref {pgf:ENLO}), $l=2$ (\plotref {pgf:EN2LO}), and $l=3$ (\plotref {pgf:EN3LO}). $E_0$ correspond to the exact ground state energy of the non-interacting Fermi gas. For reference using thin gray lines, the first (\plotref {pgf:E1}), the second (\plotref {pgf:E2}), third (\plotref {pgf:E3}), and fourth (\plotref {pgf:E4}) orders of the \textsc  {mbpt}\xspace  for dilute Fermi gas \citep  {Wellenhofer2020a} are shown and \emph  {ab initio}\xspace  calculation of \citep  {Carlsson2012a} are represented in each panel by the black circles (\plotref {pgf:abi}). }}{8}{figure.1}}
\newlabel{fig:hf-ENLO-UG}{{1}{8}{Ground state energy of the spin-saturated Fermi gas $E^{\nlon {l}}_\lambda $ discussed in section \ref {subsec:app-UG-II} as a function of $(a_sk_F)$ [panels (a) for $a_s<0$, and (c) for $a_s>0$] and $(a_sk_F)^{-1}$ [panels (b) for $a_s<0$, and (d) for $a_s>0$] obtained with \eqref {eq:Gamma-G-nlon} using the dilute Fermi gas correspondence (see section \ref {subsec:app-UG-II}) for $l=0$ (\protect \plotref {pgf:ELO}), $l=1$ (\protect \plotref {pgf:ENLO}), $l=2$ (\protect \plotref {pgf:EN2LO}), and $l=3$ (\protect \plotref {pgf:EN3LO}). $E_0$ correspond to the exact ground state energy of the non-interacting Fermi gas. For reference using thin gray lines, the first (\protect \plotref {pgf:E1}), the second (\protect \plotref {pgf:E2}), third (\protect \plotref {pgf:E3}), and fourth (\protect \plotref {pgf:E4}) orders of the \mbpt for dilute Fermi gas \cite {Wellenhofer2020a} are shown and \abi calculation of \cite {Carlsson2012a} are represented in each panel by the black circles (\protect \plotref {pgf:abi})}{figure.1}{}}
\@writefile{toc}{\contentsline {subsection}{\numberline {B}MBPT ground-state energy using finite constraint}{8}{section*.26}}
\newlabel{sec:applicationRPH}{{VI}{8}{}{section*.27}{}}
\@writefile{toc}{\contentsline {section}{\numberline {VI}Application to the Richardson pairing Hamiltonian }{8}{section*.27}}
\@writefile{lof}{\contentsline {figure}{\numberline {2}{\ignorespaces  Configuration (Slater determinant) of the \textsc  {rph}\xspace  discussed in the text with $A=4$ and $l=4$ ($N_l =2l$). On the left is represented the ground-state and zero-particle-zero-hole excitation ($0p-0h$), the four central diagrams correspond to the $2p-2h$ excitations, and the right diagrams correspond to the $4p-4h$ excitation. }}{9}{figure.2}}
\newlabel{fig:configurationRPH}{{2}{9}{Configuration (Slater determinant) of the \rph discussed in the text with $A=4$ and $l=4$ ($N_l =2l$). On the left is represented the ground-state and zero-particle-zero-hole excitation ($0p-0h$), the four central diagrams correspond to the $2p-2h$ excitations, and the right diagrams correspond to the $4p-4h$ excitation}{figure.2}{}}
\@writefile{lot}{\contentsline {table}{\numberline {I}{\ignorespaces Energy of the \ensuremath  { \mathrm  {sp} }\xspace  states for the \textsc  {rph}\xspace  discussed in the text labeled by the quantum number $p$ and the spin-projection on the quantification axis $\sigma $.}}{9}{table.1}}
\newlabel{tab:RPH-quantum-number}{{I}{9}{Energy of the \sp states for the \rph discussed in the text labeled by the quantum number $p$ and the spin-projection on the quantification axis $\sigma $}{table.1}{}}
\@writefile{toc}{\contentsline {subsection}{\numberline {A}Exact ground-state energy}{9}{section*.28}}
\newlabel{eq:reducedE-RPH}{{36}{9}{}{equation.6.36}{}}
\@writefile{toc}{\contentsline {subsection}{\numberline {B}Hartree-Fock and MBPT solutions}{9}{section*.29}}
\@writefile{toc}{\contentsline {subsubsection}{\numberline {1}Hartree-Fock}{9}{section*.30}}
\@writefile{lof}{\contentsline {figure}{\numberline {3}{\ignorespaces   Ground state energy of the \textsc  {rph}\xspace  $E^{\textsc  {n${\scriptstyle ^l}$lo}\xspace  }_\lambda $ discussed in the text as a function of $g$ [panels (a) for $g<0$, and (c) for $g>0$] and $g^{-1}$ [panels (b) for $g<0$, and (d) for $g>0$] obtained with \textup  {\hbox {\mathsurround \z@ \normalfont  (\ignorespaces \ref  {eq:Gamma-G-nlon}\unskip \@@italiccorr )}} using the low-scale parameter correspondence of the model for $l=0$ (\plotref {pgf:ELO}), $l=1$ (\plotref {pgf:ENLO}), $l=2$ (\plotref {pgf:EN2LO}), and $l=3$ (\plotref {pgf:EN3LO}). $E_0$ correspond to the reference ground state energy. For reference using thin gray lines, the first (\plotref {pgf:E1}), the second (\plotref {pgf:E2}), third (\plotref {pgf:E3}), and fourth (\plotref {pgf:E4}) orders of the \textsc  {mbpt}\xspace  are shown and exact result is represented in each panel by the black circles (\plotref {pgf:abi}). }}{10}{figure.3}}
\newlabel{fig:ENLO-RPH}{{3}{10}{Ground state energy of the \rph $E^{\nlon {l}}_\lambda $ discussed in the text as a function of $g$ [panels (a) for $g<0$, and (c) for $g>0$] and $g^{-1}$ [panels (b) for $g<0$, and (d) for $g>0$] obtained with \eqref {eq:Gamma-G-nlon} using the low-scale parameter correspondence of the model for $l=0$ (\protect \plotref {pgf:ELO}), $l=1$ (\protect \plotref {pgf:ENLO}), $l=2$ (\protect \plotref {pgf:EN2LO}), and $l=3$ (\protect \plotref {pgf:EN3LO}). $E_0$ correspond to the reference ground state energy. For reference using thin gray lines, the first (\protect \plotref {pgf:E1}), the second (\protect \plotref {pgf:E2}), third (\protect \plotref {pgf:E3}), and fourth (\protect \plotref {pgf:E4}) orders of the \mbpt are shown and exact result is represented in each panel by the black circles (\protect \plotref {pgf:abi})}{figure.3}{}}
\@writefile{toc}{\contentsline {subsubsection}{\numberline {2}MBPT results}{10}{section*.31}}
\@writefile{toc}{\contentsline {subsection}{\numberline {C}MBPT using infinite high-scale limit constraints}{10}{section*.32}}
\def \dpthimport {\expandafter \gdef \csname pgfplots@labelstyle@pgf:EN4LO\endcsname {dashed={\pgfkeysnovalue },dashdotdotted={\pgfkeysnovalue },purplep={\pgfkeysnovalue },mark={none},line width={0.25mm}}}\dpthimport 
\def \dpthimport {\expandafter \gdef \csname pgfplots@show@ref@pgf:EN4LO\endcsname {\begingroup \def \pgfplots@draw@image {\def \tikz@plot@handler {\pgfkeys {/pgf/plots/@handler options/.cd, start=\relax , end macro=\relax , point macro=\pgfutil@gobble , jump macro=\relax , special macro=\pgfutil@gobble , point macro=\pgf@plot@line@handler , jump=\global \let \pgf@plotstreampoint \pgf@plot@line@handler@move }\begingroup \escapechar =-1 \edef \pgfplotsplothandlername {\string \pgfplothandlerlineto }\pgfmath@smuggleone \pgfplotsplothandlername \endgroup \def \pgfplotsplothandlerLUAfactory {function(axis, pointmetainputhandler) return pgfplots.GenericPlothandler.new("\pgfplotsplothandlername ", axis,pointmetainputhandler) end}\def \pgfplotsplothandlerLUAvisualizerfactory {pgfplots.defaultPlotVisualizerFactory}}\pgfkeysdef {/pgfplots/legend image code}{\draw [/pgfplots/mesh=false,bar width=3pt,bar shift=0pt,mark repeat=2,mark phase=2,] plot coordinates { (0cm,0cm) (0.3cm,0cm) (0.6cm,0cm)};}\pgfkeysdef {/pgfplots/every legend image post}{}\pgfkeyssetvalue {/pgfplots/mark list fill}{.!80!black}\pgfkeysdef {/pgfplots/every crossref picture}{\pgfkeysalso {baseline,yshift=0.3em}}\pgfplots@show@small@legendplots {dashed={\pgfkeysnovalue },dashdotdotted={\pgfkeysnovalue },purplep={\pgfkeysnovalue },mark={none},line width={0.25mm}}{}}\ifpgfpicture \scope [/pgfplots/every crossref picture]\pgfplots@draw@image \endscope \else \expandafter \ifx \csname tikzappendtofigurename\endcsname \relax \else \begingroup \tikzappendtofigurename {_crossref}\fi \tikz [/pgfplots/every crossref picture]{\pgfplots@draw@image }\expandafter \ifx \csname tikzappendtofigurename\endcsname \relax \else \endgroup \fi \fi \endgroup }}\dpthimport 
\def \dpthimport {\newlabel {pgf:EN4LO}{{\expandafter \protect \csname pgfplots@show@ref@pgf:EN4LO\endcsname }{\thepage }{}{pgfplotslink.6.0}{}}}\dpthimport 
\def \dpthimport {\expandafter \gdef \csname pgfplots@labelstyle@pgf:ELOsym\endcsname {only marks={},mark={*},bluep={\pgfkeysnovalue }}}\dpthimport 
\def \dpthimport {\expandafter \gdef \csname pgfplots@show@ref@pgf:ELOsym\endcsname {\begingroup \def \pgfplots@draw@image {\def \tikz@plot@handler {\pgfkeys {/pgf/plots/@handler options/.cd, start=\relax , end macro=\relax , point macro=\pgfutil@gobble , jump macro=\relax , special macro=\pgfutil@gobble , point macro=\pgf@plot@line@handler , jump=\global \let \pgf@plotstreampoint \pgf@plot@line@handler@move }\begingroup \escapechar =-1 \edef \pgfplotsplothandlername {\string \pgfplothandlerlineto }\pgfmath@smuggleone \pgfplotsplothandlername \endgroup \def \pgfplotsplothandlerLUAfactory {function(axis, pointmetainputhandler) return pgfplots.GenericPlothandler.new("\pgfplotsplothandlername ", axis,pointmetainputhandler) end}\def \pgfplotsplothandlerLUAvisualizerfactory {pgfplots.defaultPlotVisualizerFactory}}\pgfkeysdef {/pgfplots/legend image code}{\draw [/pgfplots/mesh=false,bar width=3pt,bar shift=0pt,mark repeat=2,mark phase=2,] plot coordinates { (0cm,0cm) (0.3cm,0cm) (0.6cm,0cm)};}\pgfkeysdef {/pgfplots/every legend image post}{}\pgfkeyssetvalue {/pgfplots/mark list fill}{.!80!black}\pgfkeysdef {/pgfplots/every crossref picture}{\pgfkeysalso {baseline,yshift=0.3em}}\pgfplots@show@small@legendplots {only marks={},mark={*},bluep={\pgfkeysnovalue }}{}}\ifpgfpicture \scope [/pgfplots/every crossref picture]\pgfplots@draw@image \endscope \else \expandafter \ifx \csname tikzappendtofigurename\endcsname \relax \else \begingroup \tikzappendtofigurename {_crossref}\fi \tikz [/pgfplots/every crossref picture]{\pgfplots@draw@image }\expandafter \ifx \csname tikzappendtofigurename\endcsname \relax \else \endgroup \fi \fi \endgroup }}\dpthimport 
\def \dpthimport {\newlabel {pgf:ELOsym}{{\expandafter \protect \csname pgfplots@show@ref@pgf:ELOsym\endcsname }{\thepage }{}{pgfplotslink.6.0}{}}}\dpthimport 
\def \dpthimport {\expandafter \gdef \csname pgfplots@labelstyle@pgf:ENLOsym\endcsname {only marks={},mark={square*},orangep={\pgfkeysnovalue }}}\dpthimport 
\def \dpthimport {\expandafter \gdef \csname pgfplots@show@ref@pgf:ENLOsym\endcsname {\begingroup \def \pgfplots@draw@image {\def \tikz@plot@handler {\pgfkeys {/pgf/plots/@handler options/.cd, start=\relax , end macro=\relax , point macro=\pgfutil@gobble , jump macro=\relax , special macro=\pgfutil@gobble , point macro=\pgf@plot@line@handler , jump=\global \let \pgf@plotstreampoint \pgf@plot@line@handler@move }\begingroup \escapechar =-1 \edef \pgfplotsplothandlername {\string \pgfplothandlerlineto }\pgfmath@smuggleone \pgfplotsplothandlername \endgroup \def \pgfplotsplothandlerLUAfactory {function(axis, pointmetainputhandler) return pgfplots.GenericPlothandler.new("\pgfplotsplothandlername ", axis,pointmetainputhandler) end}\def \pgfplotsplothandlerLUAvisualizerfactory {pgfplots.defaultPlotVisualizerFactory}}\pgfkeysdef {/pgfplots/legend image code}{\draw [/pgfplots/mesh=false,bar width=3pt,bar shift=0pt,mark repeat=2,mark phase=2,] plot coordinates { (0cm,0cm) (0.3cm,0cm) (0.6cm,0cm)};}\pgfkeysdef {/pgfplots/every legend image post}{}\pgfkeyssetvalue {/pgfplots/mark list fill}{.!80!black}\pgfkeysdef {/pgfplots/every crossref picture}{\pgfkeysalso {baseline,yshift=0.3em}}\pgfplots@show@small@legendplots {only marks={},mark={square*},orangep={\pgfkeysnovalue }}{}}\ifpgfpicture \scope [/pgfplots/every crossref picture]\pgfplots@draw@image \endscope \else \expandafter \ifx \csname tikzappendtofigurename\endcsname \relax \else \begingroup \tikzappendtofigurename {_crossref}\fi \tikz [/pgfplots/every crossref picture]{\pgfplots@draw@image }\expandafter \ifx \csname tikzappendtofigurename\endcsname \relax \else \endgroup \fi \fi \endgroup }}\dpthimport 
\def \dpthimport {\newlabel {pgf:ENLOsym}{{\expandafter \protect \csname pgfplots@show@ref@pgf:ENLOsym\endcsname }{\thepage }{}{pgfplotslink.6.1}{}}}\dpthimport 
\def \dpthimport {\expandafter \gdef \csname pgfplots@labelstyle@pgf:EN2LOsym\endcsname {only marks={},mark={triangle*},greenp={\pgfkeysnovalue }}}\dpthimport 
\def \dpthimport {\expandafter \gdef \csname pgfplots@show@ref@pgf:EN2LOsym\endcsname {\begingroup \def \pgfplots@draw@image {\def \tikz@plot@handler {\pgfkeys {/pgf/plots/@handler options/.cd, start=\relax , end macro=\relax , point macro=\pgfutil@gobble , jump macro=\relax , special macro=\pgfutil@gobble , point macro=\pgf@plot@line@handler , jump=\global \let \pgf@plotstreampoint \pgf@plot@line@handler@move }\begingroup \escapechar =-1 \edef \pgfplotsplothandlername {\string \pgfplothandlerlineto }\pgfmath@smuggleone \pgfplotsplothandlername \endgroup \def \pgfplotsplothandlerLUAfactory {function(axis, pointmetainputhandler) return pgfplots.GenericPlothandler.new("\pgfplotsplothandlername ", axis,pointmetainputhandler) end}\def \pgfplotsplothandlerLUAvisualizerfactory {pgfplots.defaultPlotVisualizerFactory}}\pgfkeysdef {/pgfplots/legend image code}{\draw [/pgfplots/mesh=false,bar width=3pt,bar shift=0pt,mark repeat=2,mark phase=2,] plot coordinates { (0cm,0cm) (0.3cm,0cm) (0.6cm,0cm)};}\pgfkeysdef {/pgfplots/every legend image post}{}\pgfkeyssetvalue {/pgfplots/mark list fill}{.!80!black}\pgfkeysdef {/pgfplots/every crossref picture}{\pgfkeysalso {baseline,yshift=0.3em}}\pgfplots@show@small@legendplots {only marks={},mark={triangle*},greenp={\pgfkeysnovalue }}{}}\ifpgfpicture \scope [/pgfplots/every crossref picture]\pgfplots@draw@image \endscope \else \expandafter \ifx \csname tikzappendtofigurename\endcsname \relax \else \begingroup \tikzappendtofigurename {_crossref}\fi \tikz [/pgfplots/every crossref picture]{\pgfplots@draw@image }\expandafter \ifx \csname tikzappendtofigurename\endcsname \relax \else \endgroup \fi \fi \endgroup }}\dpthimport 
\def \dpthimport {\newlabel {pgf:EN2LOsym}{{\expandafter \protect \csname pgfplots@show@ref@pgf:EN2LOsym\endcsname }{\thepage }{}{pgfplotslink.6.2}{}}}\dpthimport 
\def \dpthimport {\expandafter \gdef \csname pgfplots@labelstyle@pgf:EN3LOsym\endcsname {only marks={},mark={diamond*},redp={\pgfkeysnovalue }}}\dpthimport 
\def \dpthimport {\expandafter \gdef \csname pgfplots@show@ref@pgf:EN3LOsym\endcsname {\begingroup \def \pgfplots@draw@image {\def \tikz@plot@handler {\pgfkeys {/pgf/plots/@handler options/.cd, start=\relax , end macro=\relax , point macro=\pgfutil@gobble , jump macro=\relax , special macro=\pgfutil@gobble , point macro=\pgf@plot@line@handler , jump=\global \let \pgf@plotstreampoint \pgf@plot@line@handler@move }\begingroup \escapechar =-1 \edef \pgfplotsplothandlername {\string \pgfplothandlerlineto }\pgfmath@smuggleone \pgfplotsplothandlername \endgroup \def \pgfplotsplothandlerLUAfactory {function(axis, pointmetainputhandler) return pgfplots.GenericPlothandler.new("\pgfplotsplothandlername ", axis,pointmetainputhandler) end}\def \pgfplotsplothandlerLUAvisualizerfactory {pgfplots.defaultPlotVisualizerFactory}}\pgfkeysdef {/pgfplots/legend image code}{\draw [/pgfplots/mesh=false,bar width=3pt,bar shift=0pt,mark repeat=2,mark phase=2,] plot coordinates { (0cm,0cm) (0.3cm,0cm) (0.6cm,0cm)};}\pgfkeysdef {/pgfplots/every legend image post}{}\pgfkeyssetvalue {/pgfplots/mark list fill}{.!80!black}\pgfkeysdef {/pgfplots/every crossref picture}{\pgfkeysalso {baseline,yshift=0.3em}}\pgfplots@show@small@legendplots {only marks={},mark={diamond*},redp={\pgfkeysnovalue }}{}}\ifpgfpicture \scope [/pgfplots/every crossref picture]\pgfplots@draw@image \endscope \else \expandafter \ifx \csname tikzappendtofigurename\endcsname \relax \else \begingroup \tikzappendtofigurename {_crossref}\fi \tikz [/pgfplots/every crossref picture]{\pgfplots@draw@image }\expandafter \ifx \csname tikzappendtofigurename\endcsname \relax \else \endgroup \fi \fi \endgroup }}\dpthimport 
\def \dpthimport {\newlabel {pgf:EN3LOsym}{{\expandafter \protect \csname pgfplots@show@ref@pgf:EN3LOsym\endcsname }{\thepage }{}{pgfplotslink.6.3}{}}}\dpthimport 
\def \dpthimport {\expandafter \gdef \csname pgfplots@labelstyle@pgf:EN4LOsym\endcsname {only marks={},mark={pentagon*},purplep={\pgfkeysnovalue }}}\dpthimport 
\def \dpthimport {\expandafter \gdef \csname pgfplots@show@ref@pgf:EN4LOsym\endcsname {\begingroup \def \pgfplots@draw@image {\def \tikz@plot@handler {\pgfkeys {/pgf/plots/@handler options/.cd, start=\relax , end macro=\relax , point macro=\pgfutil@gobble , jump macro=\relax , special macro=\pgfutil@gobble , point macro=\pgf@plot@line@handler , jump=\global \let \pgf@plotstreampoint \pgf@plot@line@handler@move }\begingroup \escapechar =-1 \edef \pgfplotsplothandlername {\string \pgfplothandlerlineto }\pgfmath@smuggleone \pgfplotsplothandlername \endgroup \def \pgfplotsplothandlerLUAfactory {function(axis, pointmetainputhandler) return pgfplots.GenericPlothandler.new("\pgfplotsplothandlername ", axis,pointmetainputhandler) end}\def \pgfplotsplothandlerLUAvisualizerfactory {pgfplots.defaultPlotVisualizerFactory}}\pgfkeysdef {/pgfplots/legend image code}{\draw [/pgfplots/mesh=false,bar width=3pt,bar shift=0pt,mark repeat=2,mark phase=2,] plot coordinates { (0cm,0cm) (0.3cm,0cm) (0.6cm,0cm)};}\pgfkeysdef {/pgfplots/every legend image post}{}\pgfkeyssetvalue {/pgfplots/mark list fill}{.!80!black}\pgfkeysdef {/pgfplots/every crossref picture}{\pgfkeysalso {baseline,yshift=0.3em}}\pgfplots@show@small@legendplots {only marks={},mark={pentagon*},purplep={\pgfkeysnovalue }}{}}\ifpgfpicture \scope [/pgfplots/every crossref picture]\pgfplots@draw@image \endscope \else \expandafter \ifx \csname tikzappendtofigurename\endcsname \relax \else \begingroup \tikzappendtofigurename {_crossref}\fi \tikz [/pgfplots/every crossref picture]{\pgfplots@draw@image }\expandafter \ifx \csname tikzappendtofigurename\endcsname \relax \else \endgroup \fi \fi \endgroup }}\dpthimport 
\def \dpthimport {\newlabel {pgf:EN4LOsym}{{\expandafter \protect \csname pgfplots@show@ref@pgf:EN4LOsym\endcsname }{\thepage }{}{pgfplotslink.6.4}{}}}\dpthimport 
\bibcite{CHbook:EFTforDFT}{{1}{}{{}}{{}}}
\@writefile{toc}{\contentsline {subsection}{\numberline {D}MBPT using finite high-scale limit constraints}{11}{section*.33}}
\newlabel{eq:rel-error}{{40}{11}{}{equation.6.40}{}}
\@writefile{toc}{\appendix }
\newlabel{app:coef-op-constrainedMBPT}{{A}{11}{}{section*.34}{}}
\@writefile{toc}{\contentsline {section}{\numberline {A}Coefficients and operators of the constrained MBPT }{11}{section*.34}}
\@writefile{toc}{\contentsline {subsection}{\numberline {1}Imposing the high-scale constraint at infinity}{11}{section*.35}}
\@writefile{toc}{\contentsline {subsubsection}{\numberline {a}Low-scale constraint on the energy}{11}{section*.36}}
\@writefile{toc}{\contentsline {subsubsection}{\numberline {b}High-scale constraint on the energy}{11}{section*.37}}
\newlabel{eq:polynom-al}{{A2}{11}{}{equation.A.2}{}}
\@writefile{toc}{\contentsline {subsubsection}{\numberline {c}Many-body state operators}{11}{section*.38}}
\@writefile{lof}{\contentsline {figure}{\numberline {4}{\ignorespaces   Ground state energy of the \textsc  {rph}\xspace  $E^{\textsc  {n${\scriptstyle ^l}$lo}\xspace  }_\lambda $ discussed in the text as a function of $g$ obtained with \textup  {\hbox {\mathsurround \z@ \normalfont  (\ignorespaces \ref  {eq:Gamma-G-nlon}\unskip \@@italiccorr )}} with the generalization for finite high-scale constraint $g_c = \pm 0.01$ (see section \ref  {sec:gal-finite-hs-constraint}) using the low-scale parameter correspondence of the model for $l=0$ (\plotref {pgf:ELO}), $l=1$ (\plotref {pgf:ENLO}), $l=2$ (\plotref {pgf:EN2LO}), and $l=3$ (\plotref {pgf:EN3LO}). $E_0$ correspond to the reference ground state energy. For reference using thin gray lines, the first (\plotref {pgf:E1}), the second (\plotref {pgf:E2}), third (\plotref {pgf:E3}), and fourth (\plotref {pgf:E4}) orders of the \textsc  {mbpt}\xspace  are shown and exact result is represented in each panel by the black circles (\plotref {pgf:abi}). }}{11}{figure.4}}
\newlabel{fig:ENLO-RPH-epsgc}{{4}{11}{Ground state energy of the \rph $E^{\nlon {l}}_\lambda $ discussed in the text as a function of $g$ obtained with \eqref {eq:Gamma-G-nlon} with the generalization for finite high-scale constraint $g_c = \pm 0.01$ (see section \ref {sec:gal-finite-hs-constraint}) using the low-scale parameter correspondence of the model for $l=0$ (\protect \plotref {pgf:ELO}), $l=1$ (\protect \plotref {pgf:ENLO}), $l=2$ (\protect \plotref {pgf:EN2LO}), and $l=3$ (\protect \plotref {pgf:EN3LO}). $E_0$ correspond to the reference ground state energy. For reference using thin gray lines, the first (\protect \plotref {pgf:E1}), the second (\protect \plotref {pgf:E2}), third (\protect \plotref {pgf:E3}), and fourth (\protect \plotref {pgf:E4}) orders of the \mbpt are shown and exact result is represented in each panel by the black circles (\protect \plotref {pgf:abi})}{figure.4}{}}
\@writefile{toc}{\contentsline {section}{\numberline {}References}{11}{section*.39}}
\bibcite{book:FetterWalecka}{{2}{}{{}}{{}}}
\bibcite{book:crossoverUG}{{3}{}{{}}{{}}}
\bibcite{Adhikari2008a}{{4}{}{{}}{{}}}
\bibcite{Lacroix2016a}{{5}{}{{}}{{}}}
\bibcite{Boulet2019a}{{6}{}{{}}{{}}}
\bibcite{BouletPhD}{{7}{}{{}}{{}}}
\bibcite{book:MBPT-CC}{{8}{}{{}}{{}}}
\bibcite{book:QChemistry}{{9}{}{{}}{{}}}
\bibcite{Wellenhofer2020a}{{10}{}{{}}{{}}}
\bibcite{Astrakharchik2004a}{{11}{}{{}}{{}}}
\@writefile{lof}{\contentsline {figure}{\numberline {5}{\ignorespaces   Relative error on the \ensuremath  { \mathrm  {gs} }\xspace  energy estimation of the Richardson pairing Hamiltonian $\Delta _l$ defined by \textup  {\hbox {\mathsurround \z@ \normalfont  (\ignorespaces \ref  {eq:rel-error}\unskip \@@italiccorr )}} at $g=+1$ [top] and at $g=-1$ [bottom] as a function of the high-scale constraint $g_c$ for $l=0$ (\plotref {pgf:ELO}), $l=1$ (\plotref {pgf:ENLO}), $l=2$ (\plotref {pgf:EN2LO}), $l=3$ (\plotref {pgf:EN3LO}), and $l=4$ (\plotref {pgf:EN4LO}). }}{12}{figure.5}}
\newlabel{fig:RPH-large-scale-lcErrb}{{5}{12}{Relative error on the \gs energy estimation of the Richardson pairing Hamiltonian $\Delta _l$ defined by \eqref {eq:rel-error} at $g=+1$ [top] and at $g=-1$ [bottom] as a function of the high-scale constraint $g_c$ for $l=0$ (\protect \plotref {pgf:ELO}), $l=1$ (\protect \plotref {pgf:ENLO}), $l=2$ (\protect \plotref {pgf:EN2LO}), $l=3$ (\protect \plotref {pgf:EN3LO}), and $l=4$ (\protect \plotref {pgf:EN4LO})}{figure.5}{}}
\@writefile{lof}{\contentsline {figure}{\numberline {6}{\ignorespaces   Relative error on the \ensuremath  { \mathrm  {gs} }\xspace  energy estimation of the Richardson pairing Hamiltonian $\Delta _l$ defined by \textup  {\hbox {\mathsurround \z@ \normalfont  (\ignorespaces \ref  {eq:rel-error}\unskip \@@italiccorr )}} at $g=+1$ [top] and at $g=-1$ [bottom] in the limit $g_c \to 0$ (in practice, $g_c = \pm 0.01$) for $l=0$ (\plotref {pgf:ELOsym}), $l=1$ (\plotref {pgf:ENLOsym}), $l=2$ (\plotref {pgf:EN2LOsym}), $l=3$ (\plotref {pgf:EN3LOsym}), and $l=4$ (\plotref {pgf:EN4LOsym}). For comparison, the corresponding relative error using standard \textsc  {mbpt}\xspace  are displayed by the gray open symbols. }}{12}{figure.6}}
\newlabel{fig:RPH-large-scale-lcErrb-eps}{{6}{12}{Relative error on the \gs energy estimation of the Richardson pairing Hamiltonian $\Delta _l$ defined by \eqref {eq:rel-error} at $g=+1$ [top] and at $g=-1$ [bottom] in the limit $g_c \to 0$ (in practice, $g_c = \pm 0.01$) for $l=0$ (\protect \plotref {pgf:ELOsym}), $l=1$ (\protect \plotref {pgf:ENLOsym}), $l=2$ (\protect \plotref {pgf:EN2LOsym}), $l=3$ (\protect \plotref {pgf:EN3LOsym}), and $l=4$ (\protect \plotref {pgf:EN4LOsym}). For comparison, the corresponding relative error using standard \mbpt are displayed by the gray open symbols}{figure.6}{}}
\@writefile{lof}{\contentsline {figure}{\numberline {7}{\ignorespaces   Relative error on the \ensuremath  { \mathrm  {gs} }\xspace  energy estimation of the Richardson pairing Hamiltonian $\Delta _l$ defined by \textup  {\hbox {\mathsurround \z@ \normalfont  (\ignorespaces \ref  {eq:rel-error}\unskip \@@italiccorr )}} at $g=+2$ [top] and at $g=-2$ [bottom] in the limit $g_c \to 0$ (in practice, $g_c = \pm 0.01$) for $l=0$ (\plotref {pgf:ELOsym}), $l=1$ (\plotref {pgf:ENLOsym}), $l=2$ (\plotref {pgf:EN2LOsym}), $l=3$ (\plotref {pgf:EN3LOsym}), and $l=4$ (\plotref {pgf:EN4LOsym}). For comparison, the corresponding relative error using standard \textsc  {mbpt}\xspace  are displayed by the gray open symbols. }}{12}{figure.7}}
\newlabel{fig:RPH-large-scale-lcErrb-eps2}{{7}{12}{Relative error on the \gs energy estimation of the Richardson pairing Hamiltonian $\Delta _l$ defined by \eqref {eq:rel-error} at $g=+2$ [top] and at $g=-2$ [bottom] in the limit $g_c \to 0$ (in practice, $g_c = \pm 0.01$) for $l=0$ (\protect \plotref {pgf:ELOsym}), $l=1$ (\protect \plotref {pgf:ENLOsym}), $l=2$ (\protect \plotref {pgf:EN2LOsym}), $l=3$ (\protect \plotref {pgf:EN3LOsym}), and $l=4$ (\protect \plotref {pgf:EN4LOsym}). For comparison, the corresponding relative error using standard \mbpt are displayed by the gray open symbols}{figure.7}{}}
\bibcite{Popov1965a}{{12}{}{{}}{{}}}
\bibcite{Petrov2004a}{{13}{}{{}}{{}}}
\bibcite{Chang2004a}{{14}{}{{}}{{}}}
\bibcite{Carlsson2012a}{{15}{}{{}}{{}}}
\bibcite{Richardson1964a}{{16}{}{{}}{{}}}
\bibdata{mainNotes}
\bibstyle{apsrmp4-1}
\citation{REVTEX41Control}
\citation{apsrmp41Control}
\providecommand\NAT@force@numbers{}\NAT@force@numbers
\newlabel{LastBibItem}{{16}{13}{}{section*.39}{}}
\newlabel{LastPage}{{}{13}{}{}{}}
