\relax 
\providecommand\hyper@newdestlabel[2]{}
\providecommand\HyperFirstAtBeginDocument{\AtBeginDocument}
\HyperFirstAtBeginDocument{\ifx\hyper@anchor\@undefined
\global\let\oldcontentsline\contentsline
\gdef\contentsline#1#2#3#4{\oldcontentsline{#1}{#2}{#3}}
\global\let\oldnewlabel\newlabel
\gdef\newlabel#1#2{\newlabelxx{#1}#2}
\gdef\newlabelxx#1#2#3#4#5#6{\oldnewlabel{#1}{{#2}{#3}}}
\AtEndDocument{\ifx\hyper@anchor\@undefined
\let\contentsline\oldcontentsline
\let\newlabel\oldnewlabel
\fi}
\fi}
\global\let\hyper@last\relax 
\gdef\HyperFirstAtBeginDocument#1{#1}
\providecommand\HyField@AuxAddToFields[1]{}
\providecommand\HyField@AuxAddToCoFields[2]{}
\gdef \tocmax@section{17.5164pt}
\gdef \tocmax@subsection{14.52916pt}
\gdef \tocmax@subsubsection{12.5835pt}
\gdef \tocmax@paragraph{5.0pt}
\gdef \tocmax@appendix{5.0pt}
\gdef \tocmax@pagenum{8.5pt}
\citation{book:FetterWalecka}
\newlabel{FirstPage}{{}{1}{}{section*.1}{}}
\@writefile{toc}{\contentsline {title}{Generalities on the density matrix expansion}{1}{section*.2}}
\@writefile{toc}{\contentsline {abstract}{Abstract}{1}{section*.1}}
\@writefile{toc}{\tocdepth@munge}
\@writefile{toc}{\contentsline {section}{\numberline {}Contents}{1}{section*.3}}
\@writefile{toc}{\tocdepth@restore}
\@writefile{toc}{\contentsline {section}{\numberline {I}Mean-field description of many-body quantum systems}{1}{section*.4}}
\@writefile{toc}{\contentsline {subsection}{\numberline {A}Hartree-Fock theory}{1}{section*.5}}
\@writefile{toc}{\contentsline {subsubsection}{\numberline {1}Complete quantum basis}{1}{section*.6}}
\citation{book:RingSchuck}
\citation{book:RingSchuck}
\newlabel{eq:C-transform}{{3}{2}{}{equation.1.3}{}}
\@writefile{toc}{\contentsline {subsubsection}{\numberline {2}Many-body state of quantum systems}{2}{section*.7}}
\@writefile{toc}{\contentsline {subsubsection}{\numberline {3}Hartree-Fock equations}{2}{section*.8}}
\newlabel{eq:HF-E}{{5}{2}{}{equation.1.5}{}}
\newlabel{eq:hf-equation-coordinate-space}{{10}{2}{}{equation.1.10}{}}
\@writefile{toc}{\contentsline {subsection}{\numberline {B}Hartree-Fock-Bogoliubov theory}{2}{section*.9}}
\@writefile{toc}{\contentsline {subsubsection}{\numberline {1}Bogoliubov transformation}{2}{section*.10}}
\@writefile{toc}{\contentsline {subsubsection}{\numberline {2}Quasi-particle density}{3}{section*.11}}
\@writefile{toc}{\contentsline {subsubsection}{\numberline {3}Hartree-Fock-Bogoliubov equations}{3}{section*.12}}
\@writefile{toc}{\contentsline {subsection}{\numberline {C}One-body density matrix in coordinate space}{3}{section*.13}}
\newlabel{eq:obdm-def}{{18}{3}{}{equation.1.18}{}}
\@writefile{toc}{\contentsline {section}{\numberline {II}Hartree-Fock energy with a general two-body Hamiltonian}{3}{section*.14}}
\newlabel{eq:2body-H}{{19}{3}{}{equation.2.19}{}}
\@writefile{toc}{\contentsline {subsection}{\numberline {A}Kinetic contribution to the Hartree-Fock energy}{4}{section*.15}}
\newlabel{eq:HF-kin}{{22}{4}{}{equation.2.22}{}}
\newlabel{eq:kinetic-HF}{{24}{4}{}{equation.2.24}{}}
\newlabel{eq:kinetic-HF-m}{{25}{4}{}{equation.2.25}{}}
\@writefile{toc}{\contentsline {subsection}{\numberline {B}Hartree-Fock energy of the two-body interaction}{4}{section*.16}}
\newlabel{eq:HF-V2-energy}{{26}{4}{}{equation.2.26}{}}
\newlabel{eq:HF-2body}{{28a}{4}{}{equation.2.28alph1}{}}
\newlabel{eq:exchange-decomposition}{{29}{4}{}{equation.2.29}{}}
\newlabel{eq:exchange-square-properties}{{30}{4}{}{equation.2.30}{}}
\citation{Gebremariam2010a}
\citation{Negele1972a,Gebremariam2010a}
\citation{Negele1972a,Gebremariam2010a}
\citation{Navarro2018a}
\@writefile{toc}{\contentsline {subsection}{\numberline {C}Decomposition of the two-body interaction}{5}{section*.17}}
\@writefile{toc}{\contentsline {subsection}{\numberline {D}Hartree contribution of the two-body local interaction}{5}{section*.18}}
\citation{Navarro2018a}
\citation{Negele1972a,Gebremariam2010a}
\@writefile{toc}{\contentsline {subsubsection}{\numberline {1}Central part of the Hartree contribution}{6}{section*.19}}
\@writefile{toc}{\contentsline {subsubsection}{\numberline {2}Tensor part of the Hartree contribution}{6}{section*.20}}
\@writefile{toc}{\contentsline {subsubsection}{\numberline {3}Spin-orbit part of the Hartree contribution}{6}{section*.21}}
\@writefile{toc}{\contentsline {subsection}{\numberline {E}Fock contribution of the two-body local interaction}{6}{section*.22}}
\@writefile{toc}{\contentsline {subsubsection}{\numberline {1}Central part of the Fock contribution}{6}{section*.23}}
\@writefile{toc}{\contentsline {subsubsection}{\numberline {2}Tensor part of the Fock contribution}{6}{section*.24}}
\citation{Negele1972a,Gebremariam2010a}
\@writefile{toc}{\contentsline {subsubsection}{\numberline {3}Spin-orbit part of the Fock contribution}{7}{section*.25}}
\@writefile{toc}{\contentsline {subsection}{\numberline {F}Summary of the two-body local interaction contribution to the Hartree-Fock energy}{7}{section*.26}}
\newlabel{eq:building-block-HF}{{41}{7}{}{equation.2.41}{}}
\citation{Negele1972a,Negele1975a}
\citation{Carlsson2008a,Raimondi2011a}
\citation{Negele1975b}
\citation{Sprung1975a}
\citation{Gebremariam2010a,Stoitsov2010a,Carlsson2010a,Gebremariam2011a,Bogner2011a,Dyhdalo2017a,Carlsson2008a,Carlsson2010b,Dobaczewski2010a,Erler2010a,Raimondi2011a,Navarro2018a,Navarro2019a,Bogner2009a}
\@writefile{lot}{\contentsline {table}{\numberline {I}{\ignorespaces Summary of the two-body interaction contribution to the Hartree energy.}}{8}{table.1}}
\newlabel{tab:H2-energy-summarized}{{I}{8}{Summary of the two-body interaction contribution to the Hartree energy}{table.1}{}}
\@writefile{lot}{\contentsline {table}{\numberline {II}{\ignorespaces Summary of the two-body interaction contribution to the Fock energy.}}{8}{table.2}}
\newlabel{tab:F2-energy-summarized}{{II}{8}{Summary of the two-body interaction contribution to the Fock energy}{table.2}{}}
\@writefile{toc}{\contentsline {subsection}{\numberline {G}Exact Hartree-Fock equation for an idealized system}{8}{section*.27}}
\citation{Negele1972a,Negele1975a,Negele1975b}
\citation{Dobaczewski2010a}
\citation{Bogner2009a,Bogner2011a,Gebremariam2010a,Gebremariam2011a,Dyhdalo2017a,Stoitsov2010a,Navarro2018a,Navarro2019a}
\citation{Gebremariam2010a}
\citation{Navarro2018a,Navarro2019a,Dyhdalo2017a}
\citation{Gebremariam2010a}
\citation{Gebremariam2010b,Gebremariam2010c}
\citation{Carlsson2008a,Carlsson2010a,Carlsson2010b,Raimondi2011a}
\citation{Erler2010a}
\citation{Gebremariam2011a}
\@writefile{toc}{\contentsline {section}{\numberline {III}Application of the density-matrix expansion for the two-body interaction}{9}{section*.28}}
\@writefile{toc}{\contentsline {subsection}{\numberline {A}Phase-space average method for the density-matrix expansion}{9}{section*.29}}
\@writefile{toc}{\contentsline {subsubsection}{\numberline {1}Isolation of the non-locality of the one-body density matrix}{9}{section*.30}}
\citation{Negele1972a,Negele1975a,Negele1975b}
\newlabel{subsubsec:psa-dme}{{III.A.2}{10}{}{section*.31}{}}
\@writefile{toc}{\contentsline {subsubsection}{\numberline {2}Expansion around a momentum scale }{10}{section*.31}}
\newlabel{eq:obdm-local-kappa}{{55a}{10}{}{equation.3.55alph1}{}}
\newlabel{eq:dme-truncation}{{55c}{10}{}{equation.3.55alph3}{}}
\@writefile{toc}{\contentsline {subsubsection}{\numberline {3}Phase-space average method}{10}{section*.32}}
\@writefile{toc}{\contentsline {subsubsection}{\numberline {4}Calculation of the $\Pi _n$ functions}{10}{section*.33}}
\citation{Bulgac1996a}
\citation{Gebremariam2010a}
\citation{Bulgac1996a}
\@writefile{toc}{\contentsline {subsubsection}{\numberline {5}Choice of averaged momentum scale}{11}{section*.34}}
\@writefile{toc}{\appendix }
\newlabel{app:spin-isospin-decomposition-obdm}{{A}{12}{}{section*.35}{}}
\@writefile{toc}{\contentsline {section}{\numberline {A}Spin-isospin decomposition of the one-body density matrix in coordinate space }{12}{section*.35}}
\@writefile{toc}{\contentsline {subsection}{\numberline {1}Spin-isospin independent one-body density matrix}{12}{section*.36}}
\@writefile{toc}{\contentsline {subsection}{\numberline {2}Isospin independent one-body density matrix}{12}{section*.37}}
\@writefile{toc}{\contentsline {subsubsection}{\numberline {a}General case}{12}{section*.38}}
\newlabel{eq:obdm-spin-decomposition}{{A4a}{12}{}{equation.A.4alph1}{}}
\@writefile{toc}{\contentsline {subsubsection}{\numberline {b}Spherical representation of the Pauli matrices}{12}{section*.39}}
\@writefile{toc}{\contentsline {subsubsection}{\numberline {c}Pure spin states}{13}{section*.40}}
\@writefile{toc}{\contentsline {subsection}{\numberline {3}One-body density matrix with spin and isospin}{13}{section*.41}}
\@writefile{toc}{\contentsline {subsubsection}{\numberline {a}General case}{13}{section*.42}}
\newlabel{eq:obdm-general-spin-isospin-decomposition}{{A8a}{13}{}{equation.A.8alph1}{}}
\@writefile{toc}{\contentsline {subsubsection}{\numberline {b}Pure spin states}{13}{section*.43}}
\@writefile{toc}{\contentsline {subsubsection}{\numberline {c}Pure isospin states}{13}{section*.44}}
\newlabel{eq:obdm-pure-isospin-decomposition}{{A10a}{13}{}{equation.A.10alph1}{}}
\@writefile{toc}{\contentsline {subsubsection}{\numberline {d}Pure spin-isospin states}{14}{section*.45}}
\@writefile{toc}{\contentsline {section}{\numberline {B}Hartree-Fock energy for infinite matter}{14}{section*.46}}
\bibcite{book:FetterWalecka}{{1}{}{{}}{{}}}
\bibcite{book:RingSchuck}{{2}{}{{}}{{}}}
\bibcite{Gebremariam2010a}{{3}{}{{}}{{}}}
\bibcite{Negele1972a}{{4}{}{{}}{{}}}
\bibcite{Navarro2018a}{{5}{}{{}}{{}}}
\bibcite{Negele1975a}{{6}{}{{}}{{}}}
\bibcite{Carlsson2008a}{{7}{}{{}}{{}}}
\bibcite{Raimondi2011a}{{8}{}{{}}{{}}}
\bibcite{Negele1975b}{{9}{}{{}}{{}}}
\bibcite{Sprung1975a}{{10}{}{{}}{{}}}
\bibcite{Stoitsov2010a}{{11}{}{{}}{{}}}
\bibcite{Carlsson2010a}{{12}{}{{}}{{}}}
\bibcite{Gebremariam2011a}{{13}{}{{}}{{}}}
\bibcite{Bogner2011a}{{14}{}{{}}{{}}}
\bibcite{Dyhdalo2017a}{{15}{}{{}}{{}}}
\bibcite{Carlsson2010b}{{16}{}{{}}{{}}}
\bibcite{Dobaczewski2010a}{{17}{}{{}}{{}}}
\bibcite{Erler2010a}{{18}{}{{}}{{}}}
\bibcite{Navarro2019a}{{19}{}{{}}{{}}}
\bibcite{Bogner2009a}{{20}{}{{}}{{}}}
\bibcite{Gebremariam2010b}{{21}{}{{}}{{}}}
\bibcite{Gebremariam2010c}{{22}{}{{}}{{}}}
\bibcite{Bulgac1996a}{{23}{}{{}}{{}}}
\bibdata{mainNotes}
\bibstyle{apsrmp4-1}
\citation{REVTEX41Control}
\citation{apsrmp41Control}
\providecommand\NAT@force@numbers{}\NAT@force@numbers
\@writefile{toc}{\contentsline {section}{\numberline {}References}{15}{section*.47}}
\newlabel{LastBibItem}{{23}{15}{}{section*.47}{}}
\newlabel{LastPage}{{}{15}{}{}{}}
