This is BibTeX, Version 0.99d (TeX Live 2017/Debian)
Capacity: max_strings=100000, hash_size=100000, hash_prime=85009
The top-level auxiliary file: main.aux
The style file: apsrmp4-1.bst
Reallocated singl_function (elt_size=4) to 100 items from 50.
Reallocated singl_function (elt_size=4) to 100 items from 50.
Reallocated singl_function (elt_size=4) to 100 items from 50.
Reallocated singl_function (elt_size=4) to 100 items from 50.
Reallocated singl_function (elt_size=4) to 100 items from 50.
Reallocated singl_function (elt_size=4) to 100 items from 50.
Reallocated wiz_functions (elt_size=4) to 6000 items from 3000.
Database file #1: mainNotes.bib
Warning--I didn't find a database entry for "book:FetterWalecka"
Warning--I didn't find a database entry for "book:RingSchuck"
Warning--I didn't find a database entry for "Gebremariam2010a"
Warning--I didn't find a database entry for "Negele1972a"
Warning--I didn't find a database entry for "Navarro2018a"
Warning--I didn't find a database entry for "Negele1975a"
Warning--I didn't find a database entry for "Carlsson2008a"
Warning--I didn't find a database entry for "Raimondi2011a"
Warning--I didn't find a database entry for "Negele1975b"
Warning--I didn't find a database entry for "Sprung1975a"
Warning--I didn't find a database entry for "Stoitsov2010a"
Warning--I didn't find a database entry for "Carlsson2010a"
Warning--I didn't find a database entry for "Gebremariam2011a"
Warning--I didn't find a database entry for "Bogner2011a"
Warning--I didn't find a database entry for "Dyhdalo2017a"
Warning--I didn't find a database entry for "Carlsson2010b"
Warning--I didn't find a database entry for "Dobaczewski2010a"
Warning--I didn't find a database entry for "Erler2010a"
Warning--I didn't find a database entry for "Navarro2019a"
Warning--I didn't find a database entry for "Bogner2009a"
Warning--I didn't find a database entry for "Gebremariam2010b"
Warning--I didn't find a database entry for "Gebremariam2010c"
Warning--I didn't find a database entry for "Bulgac1996a"
control{REVTEX41Control}, control.key{N/A}, control.author{N/A}, control.editor{N/A}, control.title{N/A}, control.pages{N/A}, control.year{N/A}, control.eprint{N/A}, 
control{apsrmp41Control}, control.key{N/A}, control.author{0B}, control.editor{0}, control.title{}, control.pages{0}, control.year{1}, control.eprint{N/A}, 
Reallocated singl_function (elt_size=4) to 100 items from 50.
merlin.mbs apsrmp4-1.bst 2010-07-25 4.21a (PWD, AO, DPC) hacked
Control: key (0) 
Control: author (11) reversed first initials
Control: editor formatted (0) differently from author
Control: production of article title (-1) disabled
Control: page (0) single
Control: year (1) truncated
Control: production of eprint (0) enabled
You've used 2 entries,
            5876 wiz_defined-function locations,
            1649 strings with 15295 characters,
and the built_in function-call counts, 946 in all, are:
= -- 12
> -- 14
< -- 34
+ -- 10
- -- 20
* -- 127
:= -- 67
add.period$ -- 0
call.type$ -- 2
change.case$ -- 0
chr.to.int$ -- 11
cite$ -- 2
duplicate$ -- 131
empty$ -- 15
format.name$ -- 0
if$ -- 116
int.to.chr$ -- 1
int.to.str$ -- 8
missing$ -- 28
newline$ -- 52
num.names$ -- 0
pop$ -- 67
preamble$ -- 1
purify$ -- 0
quote$ -- 0
skip$ -- 25
stack$ -- 0
substring$ -- 10
swap$ -- 110
text.length$ -- 0
text.prefix$ -- 0
top$ -- 10
type$ -- 12
warning$ -- 0
while$ -- 9
width$ -- 0
write$ -- 52
(There were 23 warnings)
