# Fdb version 3
["bibtex main"] 1583164177 "main.aux" "main.bbl" "main" 1583164704
  "/usr/share/texlive/texmf-dist/bibtex/bst/revtex/apsrmp4-1.bst" 1480098436 71752 829bb7b3ba11afa4198c64d709e83c56 ""
  "main.aux" 1583164704 3258 24549891a03827c925a76ab189ac0681 ""
  "main.bcf" 0 -1 0 ""
  "mainNotes.bib" 1583164704 103 5dda7eed7424c7c71aaffeef94c38bdc ""
  (generated)
  "main.bbl"
  "main.blg"
["pdflatex"] 1583164701 "main.tex" "/user/boulet/Documents/msu_postdoc/notes_msu/generalities-on-IMSRG-EA/main.pdf" "main" 1583164704
  "../abreviation.tex" 1582318140 2136 cd5188079867ec9dc13dc13f3d181b27 ""
  "../bibliography_style.tex" 1582131328 1604 4bb8d3376970b1f43f9938e702c5f6e4 ""
  "../full_bibliography.tex" 1583162625 15974 2b893138d7f87073183bcffc457b9e20 ""
  "../header_notes.tex" 1582666656 2595 b69886ebb7e54b36eb196b045194e8da ""
  "../math_commands.tex" 1582668913 950 3a288a92c6758c3e6d1e7887578e50f3 ""
  "/user/boulet/Documents/msu_postdoc/notes_msu/generalities-on-IMSRG-EA/main.aux" 1583164704 3258 24549891a03827c925a76ab189ac0681 ""
  "/usr/share/texlive/texmf-dist/fonts/tfm/public/amsfonts/cmextra/cmbsy5.tfm" 1480098698 1120 1e8878807317373affa7f7bba4cf2f6a ""
  "/usr/share/texlive/texmf-dist/fonts/tfm/public/amsfonts/cmextra/cmbsy6.tfm" 1480098698 1124 14ccf5552bc7f77ca02a8a402bea8bfb ""
  "/usr/share/texlive/texmf-dist/fonts/tfm/public/amsfonts/cmextra/cmbsy7.tfm" 1480098698 1120 7f9f170e8aa57527ad6c49feafd45d54 ""
  "/usr/share/texlive/texmf-dist/fonts/tfm/public/amsfonts/cmextra/cmbsy8.tfm" 1480098698 1120 200be8b775682cdf80acad4be5ef57e4 ""
  "/usr/share/texlive/texmf-dist/fonts/tfm/public/amsfonts/cmextra/cmmib5.tfm" 1480098698 1496 c79f6914c6d39ffb3759967363d1be79 ""
  "/usr/share/texlive/texmf-dist/fonts/tfm/public/amsfonts/cmextra/cmmib6.tfm" 1480098698 1516 a3bf6a5e7ec4401b1f52092dfaaed242 ""
  "/usr/share/texlive/texmf-dist/fonts/tfm/public/amsfonts/cmextra/cmmib7.tfm" 1480098698 1508 6e807ff901c35a5f1fde0ca275533df8 ""
  "/usr/share/texlive/texmf-dist/fonts/tfm/public/amsfonts/cmextra/cmmib8.tfm" 1480098698 1528 dab402b9d3774ca98baa037071cee7ae ""
  "/usr/share/texlive/texmf-dist/fonts/tfm/public/amsfonts/symbols/msam10.tfm" 1480098698 916 f87d7c45f9c908e672703b83b72241a3 ""
  "/usr/share/texlive/texmf-dist/fonts/tfm/public/amsfonts/symbols/msam5.tfm" 1480098698 924 9904cf1d39e9767e7a3622f2a125a565 ""
  "/usr/share/texlive/texmf-dist/fonts/tfm/public/amsfonts/symbols/msam7.tfm" 1480098698 928 2dc8d444221b7a635bb58038579b861a ""
  "/usr/share/texlive/texmf-dist/fonts/tfm/public/amsfonts/symbols/msbm10.tfm" 1480098698 908 2921f8a10601f252058503cc6570e581 ""
  "/usr/share/texlive/texmf-dist/fonts/tfm/public/amsfonts/symbols/msbm5.tfm" 1480098698 940 75ac932a52f80982a9f8ea75d03a34cf ""
  "/usr/share/texlive/texmf-dist/fonts/tfm/public/amsfonts/symbols/msbm7.tfm" 1480098698 940 228d6584342e91276bf566bcf9716b83 ""
  "/usr/share/texlive/texmf-dist/fonts/tfm/public/cm/cmbsy10.tfm" 1480098701 1116 4e6ba9d7914baa6482fd69f67d126380 ""
  "/usr/share/texlive/texmf-dist/fonts/tfm/public/cm/cmbx10.tfm" 1480098701 1328 c834bbb027764024c09d3d2bf908b5f0 ""
  "/usr/share/texlive/texmf-dist/fonts/tfm/public/cm/cmbx5.tfm" 1480098701 1332 f817c21a1ba54560425663374f1b651a ""
  "/usr/share/texlive/texmf-dist/fonts/tfm/public/cm/cmbx6.tfm" 1480098701 1344 8a0be4fe4d376203000810ad4dc81558 ""
  "/usr/share/texlive/texmf-dist/fonts/tfm/public/cm/cmbx7.tfm" 1480098701 1336 3125ccb448c1a09074e3aa4a9832f130 ""
  "/usr/share/texlive/texmf-dist/fonts/tfm/public/cm/cmbx8.tfm" 1480098701 1332 1fde11373e221473104d6cc5993f046e ""
  "/usr/share/texlive/texmf-dist/fonts/tfm/public/cm/cmmib10.tfm" 1480098701 1524 554068197b70979a55370e6c6495f441 ""
  "/usr/share/texlive/texmf-dist/fonts/tfm/public/cm/cmr10.tfm" 1480098701 1296 45809c5a464d5f32c8f98ba97c1bb47f ""
  "/usr/share/texlive/texmf-dist/fonts/tfm/public/esint/esint10.tfm" 1480098705 364 55557743e6c24ee44e49bc5e8dbbe3cd ""
  "/usr/share/texlive/texmf-dist/fonts/type1/public/amsfonts/cm/cmmib10.pfb" 1480098733 36912 b448ef9ad9d7228ec3c6e71005136d55 ""
  "/usr/share/texlive/texmf-dist/fonts/type1/public/amsfonts/cmextra/cmmib7.pfb" 1480098733 39386 0bb525d495ceab21fe797301a586e0d7 ""
  "/usr/share/texlive/texmf-dist/fonts/type1/public/esint-type1/esint10.pfb" 1480098739 34421 79309417cbb00a4641f92d2efa583bbd ""
  "/usr/share/texlive/texmf-dist/scripts/oberdiek/oberdiek.luatex.lua" 1480098773 1972 1fb7c07d88e23d4594015b8b0aa21544 ""
  "/usr/share/texlive/texmf-dist/tex/context/base/mkii/supp-pdf.mkii" 1480098806 71627 94eb9990bed73c364d7f53f960cc8c5b ""
  "/usr/share/texlive/texmf-dist/tex/generic/ifxetex/ifxetex.sty" 1480098815 1458 43ab4710dc82f3edeabecd0d099626b2 ""
  "/usr/share/texlive/texmf-dist/tex/generic/oberdiek/gettitlestring.sty" 1480098815 8237 3b62ef1f7e2c23a328c814b3893bc11f ""
  "/usr/share/texlive/texmf-dist/tex/generic/oberdiek/hobsub-generic.sty" 1517006633 185082 6c11d4e30ed78e2a12957b7e77030856 ""
  "/usr/share/texlive/texmf-dist/tex/generic/oberdiek/hobsub-hyperref.sty" 1480098815 70864 bcd5b216757bd619ae692a151d90085d ""
  "/usr/share/texlive/texmf-dist/tex/generic/pgf/basiclayer/pgfcore.code.tex" 1480098816 1006 b103be0bfc8c1682ff1fa9760697a329 ""
  "/usr/share/texlive/texmf-dist/tex/generic/pgf/basiclayer/pgfcorearrows.code.tex" 1480098816 43226 167a99346bfe2676e3efcdde2d81fe45 ""
  "/usr/share/texlive/texmf-dist/tex/generic/pgf/basiclayer/pgfcoreexternal.code.tex" 1480098816 19302 4f089dc590e71f7331e6d5b5ea85273b ""
  "/usr/share/texlive/texmf-dist/tex/generic/pgf/basiclayer/pgfcoregraphicstate.code.tex" 1480098816 6068 edae1e768a7d8d8f0f00e953d2b0153e ""
  "/usr/share/texlive/texmf-dist/tex/generic/pgf/basiclayer/pgfcoreimage.code.tex" 1480098816 7041 a891ad72049e17c4e366c40ca37b0ccb ""
  "/usr/share/texlive/texmf-dist/tex/generic/pgf/basiclayer/pgfcorelayers.code.tex" 1480098816 4625 40c07e9f6f2f7c674704b3f2055560ce ""
  "/usr/share/texlive/texmf-dist/tex/generic/pgf/basiclayer/pgfcoreobjects.code.tex" 1480098816 2631 7eefa6cdbefd8d4e2bad7262cf1094cd ""
  "/usr/share/texlive/texmf-dist/tex/generic/pgf/basiclayer/pgfcorepathconstruct.code.tex" 1480098816 43477 81143b33d9ebafdeead07ede13372427 ""
  "/usr/share/texlive/texmf-dist/tex/generic/pgf/basiclayer/pgfcorepathprocessing.code.tex" 1480098816 17436 8d99d4113be311daf23deff86991ee7d ""
  "/usr/share/texlive/texmf-dist/tex/generic/pgf/basiclayer/pgfcorepathusage.code.tex" 1480098816 20772 c57e34db4aa7b1da013169d04b743eac ""
  "/usr/share/texlive/texmf-dist/tex/generic/pgf/basiclayer/pgfcorepatterns.code.tex" 1480098816 9641 711f0edc22c180a5caf168b6e8970057 ""
  "/usr/share/texlive/texmf-dist/tex/generic/pgf/basiclayer/pgfcorepoints.code.tex" 1480098816 34516 658a71478d21df554bce9d9cd436203a ""
  "/usr/share/texlive/texmf-dist/tex/generic/pgf/basiclayer/pgfcorequick.code.tex" 1480098816 3052 e5672c657232fd63b0a9853b0746297c ""
  "/usr/share/texlive/texmf-dist/tex/generic/pgf/basiclayer/pgfcorescopes.code.tex" 1480098816 16669 4ec6e40088fc6de6334b443fe2dc59f0 ""
  "/usr/share/texlive/texmf-dist/tex/generic/pgf/basiclayer/pgfcoreshade.code.tex" 1480098816 21541 4cd19f8ff7dd74d5aa7d803a6397af84 ""
  "/usr/share/texlive/texmf-dist/tex/generic/pgf/basiclayer/pgfcoretransformations.code.tex" 1480098816 19998 d77fef95c7369827753d17fd11be19c4 ""
  "/usr/share/texlive/texmf-dist/tex/generic/pgf/basiclayer/pgfcoretransparency.code.tex" 1480098816 8943 2e2495b057f8f0035b5568394d489963 ""
  "/usr/share/texlive/texmf-dist/tex/generic/pgf/frontendlayer/tikz/libraries/graphs/tikzlibrarygraphs.code.tex" 1480098816 86341 6965458878c14cd14108892243b30303 ""
  "/usr/share/texlive/texmf-dist/tex/generic/pgf/frontendlayer/tikz/libraries/tikzexternalshared.code.tex" 1480098816 61220 1291e1c296a22e4e9612daadb91e111f ""
  "/usr/share/texlive/texmf-dist/tex/generic/pgf/frontendlayer/tikz/libraries/tikzlibraryarrows.code.tex" 1480098816 437 cf40f841f40822be6cb995f8b47112fd ""
  "/usr/share/texlive/texmf-dist/tex/generic/pgf/frontendlayer/tikz/libraries/tikzlibrarycalc.code.tex" 1480098816 15934 b941bd3ae7b33179029513707d1f0ff6 ""
  "/usr/share/texlive/texmf-dist/tex/generic/pgf/frontendlayer/tikz/libraries/tikzlibrarydecorations.code.tex" 1480098816 5484 4bb4a5cbbd05d6f17a261b59dbd014f1 ""
  "/usr/share/texlive/texmf-dist/tex/generic/pgf/frontendlayer/tikz/libraries/tikzlibrarydecorations.markings.code.tex" 1480098816 782 2479083eef1ef47450770d40ad81f937 ""
  "/usr/share/texlive/texmf-dist/tex/generic/pgf/frontendlayer/tikz/libraries/tikzlibrarydecorations.pathmorphing.code.tex" 1480098816 319 d246cee5ce1aaf2afe558acd4731d5ba ""
  "/usr/share/texlive/texmf-dist/tex/generic/pgf/frontendlayer/tikz/libraries/tikzlibrarydecorations.pathreplacing.code.tex" 1480098816 1255 7940bad47e253420d587a4a875c7c06c ""
  "/usr/share/texlive/texmf-dist/tex/generic/pgf/frontendlayer/tikz/libraries/tikzlibraryintersections.code.tex" 1480098816 5220 0f0bec286b88710b8c835dd69175d781 ""
  "/usr/share/texlive/texmf-dist/tex/generic/pgf/frontendlayer/tikz/libraries/tikzlibrarypatterns.code.tex" 1480098816 884 60c3d56b80194544f9ecdae97dd5e286 ""
  "/usr/share/texlive/texmf-dist/tex/generic/pgf/frontendlayer/tikz/libraries/tikzlibraryplotmarks.code.tex" 1480098816 443 6742ac279d940e87725265f9145ed090 ""
  "/usr/share/texlive/texmf-dist/tex/generic/pgf/frontendlayer/tikz/libraries/tikzlibrarypositioning.code.tex" 1480098816 4034 0a8cd33cf30d262ec971380666acb2d0 ""
  "/usr/share/texlive/texmf-dist/tex/generic/pgf/frontendlayer/tikz/libraries/tikzlibraryshapes.geometric.code.tex" 1480098816 457 ffe9f8b9d108b5f729fd86c78c63589a ""
  "/usr/share/texlive/texmf-dist/tex/generic/pgf/frontendlayer/tikz/libraries/tikzlibrarysvg.path.code.tex" 1480098816 1024 28434c7e9adac44b1bee208786430a4b ""
  "/usr/share/texlive/texmf-dist/tex/generic/pgf/frontendlayer/tikz/libraries/tikzlibrarytopaths.code.tex" 1480098816 11599 d694704a88e2f9007c996d3a6a4d629c ""
  "/usr/share/texlive/texmf-dist/tex/generic/pgf/frontendlayer/tikz/tikz.code.tex" 1480098816 176652 1c2926908e2b356d454795c35385d580 ""
  "/usr/share/texlive/texmf-dist/tex/generic/pgf/graphdrawing/tex/pgflibrarygraphdrawing.code.tex" 1480098816 34215 7912f8fedbf51cb139599f5be80d4cd3 ""
  "/usr/share/texlive/texmf-dist/tex/generic/pgf/graphdrawing/tex/tikzlibrarygraphdrawing.code.tex" 1480098816 7030 8f5f590255e53803b6880b4dcc26515d ""
  "/usr/share/texlive/texmf-dist/tex/generic/pgf/libraries/decorations/pgflibrarydecorations.markings.code.tex" 1480098816 5181 c2b736d254ec36204f8fffd5a45bbd41 ""
  "/usr/share/texlive/texmf-dist/tex/generic/pgf/libraries/decorations/pgflibrarydecorations.pathmorphing.code.tex" 1480098816 8854 7be3c3b9eb0de90885a881085ce8e118 ""
  "/usr/share/texlive/texmf-dist/tex/generic/pgf/libraries/decorations/pgflibrarydecorations.pathreplacing.code.tex" 1480098816 7089 02ec01183269fb6991e0be82d034128a ""
  "/usr/share/texlive/texmf-dist/tex/generic/pgf/libraries/luamath/pgflibraryluamath.code.tex" 1480098816 20561 ddc2891e988c7e6f4d06fea1a94480f7 ""
  "/usr/share/texlive/texmf-dist/tex/generic/pgf/libraries/pgflibraryarrows.code.tex" 1480098816 31927 7acd27f90dd95ce67ad32166cd0b95ec ""
  "/usr/share/texlive/texmf-dist/tex/generic/pgf/libraries/pgflibraryarrows.meta.code.tex" 1480098816 58967 21f38abaa0fb7112dd851bc45ee45849 ""
  "/usr/share/texlive/texmf-dist/tex/generic/pgf/libraries/pgflibraryfpu.code.tex" 1480098816 71137 c32d35e60bbb16d313e5b57ffc7e7f4a ""
  "/usr/share/texlive/texmf-dist/tex/generic/pgf/libraries/pgflibraryintersections.code.tex" 1480098816 33007 c277d64044b7e771d3aaed2c131547d2 ""
  "/usr/share/texlive/texmf-dist/tex/generic/pgf/libraries/pgflibrarypatterns.code.tex" 1480098816 7874 56ca58561783fbca7be095fa7178e656 ""
  "/usr/share/texlive/texmf-dist/tex/generic/pgf/libraries/pgflibraryplothandlers.code.tex" 1480098816 32969 dbcfd5a7de6a0f7255c333ef60287d59 ""
  "/usr/share/texlive/texmf-dist/tex/generic/pgf/libraries/pgflibraryplotmarks.code.tex" 1480098816 14289 3e102605531a114ad76afca2a43e66b7 ""
  "/usr/share/texlive/texmf-dist/tex/generic/pgf/libraries/pgflibrarysvg.path.code.tex" 1480098816 20033 50cce6dc71ed37c5e91439b34fee18b0 ""
  "/usr/share/texlive/texmf-dist/tex/generic/pgf/libraries/shapes/pgflibraryshapes.geometric.code.tex" 1480098816 132566 291d42c3b23fdb5c47e51b36a5fea0c4 ""
  "/usr/share/texlive/texmf-dist/tex/generic/pgf/math/pgfmath.code.tex" 1480098816 454 9e9e7c99f4da4f41698be21eaef4938e ""
  "/usr/share/texlive/texmf-dist/tex/generic/pgf/math/pgfmathcalc.code.tex" 1480098816 13416 940ea6971d7a65dc440d3479939c66ae ""
  "/usr/share/texlive/texmf-dist/tex/generic/pgf/math/pgfmathfloat.code.tex" 1480098816 94097 62ac62cda46eb715560dc27f9ed6e8b1 ""
  "/usr/share/texlive/texmf-dist/tex/generic/pgf/math/pgfmathfunctions.base.code.tex" 1480098816 9375 5adc70f722abd29fc250d59e0694b548 ""
  "/usr/share/texlive/texmf-dist/tex/generic/pgf/math/pgfmathfunctions.basic.code.tex" 1480098816 22069 7c21c42b15718ce922f36235be360490 ""
  "/usr/share/texlive/texmf-dist/tex/generic/pgf/math/pgfmathfunctions.code.tex" 1480098816 8210 a7be5b52ef3d2c087b7dc3d52898b67e ""
  "/usr/share/texlive/texmf-dist/tex/generic/pgf/math/pgfmathfunctions.comparison.code.tex" 1480098816 3534 c7f28fbac13616513e513efe93b8569b ""
  "/usr/share/texlive/texmf-dist/tex/generic/pgf/math/pgfmathfunctions.integerarithmetics.code.tex" 1480098816 3167 7c9394e79aac27db96a92f9b2792b858 ""
  "/usr/share/texlive/texmf-dist/tex/generic/pgf/math/pgfmathfunctions.misc.code.tex" 1480098816 9289 261407875b9dbb0194691c3eb893610f ""
  "/usr/share/texlive/texmf-dist/tex/generic/pgf/math/pgfmathfunctions.random.code.tex" 1480098816 7078 946ddf4a7e57219b6afdbad98eb6731b ""
  "/usr/share/texlive/texmf-dist/tex/generic/pgf/math/pgfmathfunctions.round.code.tex" 1480098816 2688 139c6abc86761a6190c2f4bef5d752be ""
  "/usr/share/texlive/texmf-dist/tex/generic/pgf/math/pgfmathfunctions.trigonometric.code.tex" 1480098816 92284 dcf023dbaa84e6c50e11c2f79fe8cfa6 ""
  "/usr/share/texlive/texmf-dist/tex/generic/pgf/math/pgfmathparser.code.tex" 1480098816 35430 046e15fbb65e74d8f0e7945f99741fdb ""
  "/usr/share/texlive/texmf-dist/tex/generic/pgf/math/pgfmathutil.code.tex" 1480098816 7099 f44d505bae6c7c2b933cdd63441db4b9 ""
  "/usr/share/texlive/texmf-dist/tex/generic/pgf/modules/pgfmoduledecorations.code.tex" 1480098816 71902 658cc1e13f73daec4225b8fc1c27600b ""
  "/usr/share/texlive/texmf-dist/tex/generic/pgf/modules/pgfmodulematrix.code.tex" 1480098816 20934 2328bd2e04520e1ab077ac4ee13b8935 ""
  "/usr/share/texlive/texmf-dist/tex/generic/pgf/modules/pgfmoduleparser.code.tex" 1480098816 2675 c4eba4a393c4c50d8cafbb05742d5992 ""
  "/usr/share/texlive/texmf-dist/tex/generic/pgf/modules/pgfmoduleplot.code.tex" 1480098816 16203 83cbe1220e389eeee283a6168f9a567b ""
  "/usr/share/texlive/texmf-dist/tex/generic/pgf/modules/pgfmoduleshapes.code.tex" 1480098816 42906 d54376d96df1a2ae2d33fb722236d8e9 ""
  "/usr/share/texlive/texmf-dist/tex/generic/pgf/systemlayer/pgf.cfg" 1480098816 978 15af626ebd3d4d790aac19170dac04f2 ""
  "/usr/share/texlive/texmf-dist/tex/generic/pgf/systemlayer/pgfsys-common-pdf.def" 1480098816 5437 d91f93ed61ecdc57e119849b2d784a0b ""
  "/usr/share/texlive/texmf-dist/tex/generic/pgf/systemlayer/pgfsys-luatex.def" 1480098816 14274 79db5dec277817e8688d603ca0741ba3 ""
  "/usr/share/texlive/texmf-dist/tex/generic/pgf/systemlayer/pgfsys.code.tex" 1480098816 35113 2ccc50c1c9573e4bac9230d030f9c67c ""
  "/usr/share/texlive/texmf-dist/tex/generic/pgf/systemlayer/pgfsysprotocol.code.tex" 1480098816 1983 b5994ebbcee17f1ba3d29bb1bd696fcf ""
  "/usr/share/texlive/texmf-dist/tex/generic/pgf/systemlayer/pgfsyssoftpath.code.tex" 1480098816 7881 d459d6057e13d10ce7a227ae44b7295e ""
  "/usr/share/texlive/texmf-dist/tex/generic/pgf/utilities/pgffor.code.tex" 1480098816 22211 d696ef78c12269178882d218b2cf191d ""
  "/usr/share/texlive/texmf-dist/tex/generic/pgf/utilities/pgfkeys.code.tex" 1480098816 36194 e194ef4e0b396b531a3891feb4b1cc22 ""
  "/usr/share/texlive/texmf-dist/tex/generic/pgf/utilities/pgfkeysfiltered.code.tex" 1480098816 33377 af391d6ad1bfcbe2278e191f48e43ba8 ""
  "/usr/share/texlive/texmf-dist/tex/generic/pgf/utilities/pgfrcs.code.tex" 1480098816 2536 a3b0529d815a2759ba157b56610a6377 ""
  "/usr/share/texlive/texmf-dist/tex/generic/pgf/utilities/pgfutil-common-lists.tex" 1480098816 6833 114eda2cf1d348e0e7e477a1a4dc1941 ""
  "/usr/share/texlive/texmf-dist/tex/generic/pgf/utilities/pgfutil-common.tex" 1480098816 16501 ab0135765e27b6b8dae047831fe84818 ""
  "/usr/share/texlive/texmf-dist/tex/generic/pgf/utilities/pgfutil-latex.def" 1480098816 5544 294baac9629ba59f675b1f2027ad7136 ""
  "/usr/share/texlive/texmf-dist/tex/generic/pgfplots/libs/pgflibrarypgfplots.surfshading.code.tex" 1480098816 22701 5fab7b8ebb90b053dc067d1bd37e43c2 ""
  "/usr/share/texlive/texmf-dist/tex/generic/pgfplots/libs/pgfplotslibrary.code.tex" 1480098816 3047 aa82404aec57311271f4991c44bd71dc ""
  "/usr/share/texlive/texmf-dist/tex/generic/pgfplots/libs/tikzlibrarypgfplots.decorations.softclip.code.tex" 1480098816 1280 1521249d4f63a803d4675a58b2f8d27b ""
  "/usr/share/texlive/texmf-dist/tex/generic/pgfplots/libs/tikzlibrarypgfplots.fillbetween.code.tex" 1496704190 6313 e145316b496070c34b6caf444a477a92 ""
  "/usr/share/texlive/texmf-dist/tex/generic/pgfplots/liststructure/pgfplotsarray.code.tex" 1496704190 23537 54be8160344d894595f6d145b1311658 ""
  "/usr/share/texlive/texmf-dist/tex/generic/pgfplots/liststructure/pgfplotsdeque.code.tex" 1480098816 4288 b8d6247899b21e3bb66bb11b24d30f2c ""
  "/usr/share/texlive/texmf-dist/tex/generic/pgfplots/liststructure/pgfplotsliststructure.code.tex" 1480098816 13828 11d1b09335a4a8baa693dd1e6cac3edf ""
  "/usr/share/texlive/texmf-dist/tex/generic/pgfplots/liststructure/pgfplotsliststructureext.code.tex" 1496704190 24373 6544c1554e5da33118301011eb03058d ""
  "/usr/share/texlive/texmf-dist/tex/generic/pgfplots/liststructure/pgfplotsmatrix.code.tex" 1480098816 18861 7dc35832c8ccea3aa73cdcd75ec0a60b ""
  "/usr/share/texlive/texmf-dist/tex/generic/pgfplots/numtable/pgfplotstableshared.code.tex" 1496704190 78679 dcd35e59a9413900aafdd882799961a9 ""
  "/usr/share/texlive/texmf-dist/tex/generic/pgfplots/oldpgfcompatib/pgfplotsoldpgfsupp_loader.code.tex" 1496704190 10789 4b94397f1d12a1a6162ade4d596b3030 ""
  "/usr/share/texlive/texmf-dist/tex/generic/pgfplots/oldpgfcompatib/pgfplotsoldpgfsupp_pgflibraryfpu.code.tex" 1496704190 74424 4b902e42350d434c0a09a4e67ea5612a ""
  "/usr/share/texlive/texmf-dist/tex/generic/pgfplots/oldpgfcompatib/pgfplotsoldpgfsupp_pgflibraryluamath.code.tex" 1496704190 22412 ed4d191a3607321e63325f80bd78d2d8 ""
  "/usr/share/texlive/texmf-dist/tex/generic/pgfplots/oldpgfcompatib/pgfplotsoldpgfsupp_pgfmathfloat.code.tex" 1496704190 95256 f53bf7fee2ec814e1d386c124038ab8c ""
  "/usr/share/texlive/texmf-dist/tex/generic/pgfplots/pgfcontrib/pgflibraryfillbetween.code.tex" 1496704190 42506 11dcf4008ae2a4b90a712ad5119d1f0d ""
  "/usr/share/texlive/texmf-dist/tex/generic/pgfplots/pgfcontrib/tikzlibrarydecorations.softclip.code.tex" 1480098816 15939 fb9647ace050b0527b20509753df65f4 ""
  "/usr/share/texlive/texmf-dist/tex/generic/pgfplots/pgfcontrib/tikzlibraryfillbetween.code.tex" 1496704190 18491 b85533b4f2fac6ecfb5f55a453adefd5 ""
  "/usr/share/texlive/texmf-dist/tex/generic/pgfplots/pgfplots.code.tex" 1496704190 480040 829c82a414cb9c02e679fbbf87895f25 ""
  "/usr/share/texlive/texmf-dist/tex/generic/pgfplots/pgfplots.errorbars.code.tex" 1480098816 22428 72578a4c9324bc5dfafe23fe64f64024 ""
  "/usr/share/texlive/texmf-dist/tex/generic/pgfplots/pgfplots.markers.code.tex" 1496704190 12462 43d76eeeb8efa51f11a058cb813ba410 ""
  "/usr/share/texlive/texmf-dist/tex/generic/pgfplots/pgfplots.paths.code.tex" 1480098816 2419 026baafbf72a109e199ede6fbbfd9caa ""
  "/usr/share/texlive/texmf-dist/tex/generic/pgfplots/pgfplots.revision.tex" 1496704190 516 b81962d57567169633fdcba032b06f19 ""
  "/usr/share/texlive/texmf-dist/tex/generic/pgfplots/pgfplots.scaling.code.tex" 1496704190 123492 195f2f2cd1a90e6cf15b30d4dde10e15 ""
  "/usr/share/texlive/texmf-dist/tex/generic/pgfplots/pgfplotscoordprocessing.code.tex" 1496704190 357841 963dfaddc3174c54e63c26b4819e8550 ""
  "/usr/share/texlive/texmf-dist/tex/generic/pgfplots/pgfplotscore.code.tex" 1480098816 19944 7957349fbe31c4e8dea9de4cd41cb086 ""
  "/usr/share/texlive/texmf-dist/tex/generic/pgfplots/pgfplotsmeshplothandler.code.tex" 1496704190 133871 7247b31742a2240343a6739cb76d6821 ""
  "/usr/share/texlive/texmf-dist/tex/generic/pgfplots/pgfplotsmeshplotimage.code.tex" 1480098816 24402 288fc3f6c7980728b8a519dfd1737d22 ""
  "/usr/share/texlive/texmf-dist/tex/generic/pgfplots/pgfplotsplothandlers.code.tex" 1496704190 117673 ba2a69982abb70115c5431acf313d1e6 ""
  "/usr/share/texlive/texmf-dist/tex/generic/pgfplots/pgfplotsstackedplots.code.tex" 1480098816 26190 c428334c805ae1d15110eb8670292947 ""
  "/usr/share/texlive/texmf-dist/tex/generic/pgfplots/pgfplotsticks.code.tex" 1496704190 90664 85b67905efff9ea12b75a45f06686bb9 ""
  "/usr/share/texlive/texmf-dist/tex/generic/pgfplots/sys/pgflibrarypgfplots.surfshading.pgfsys-luatex.def" 1496704190 6218 14d6dd7e59196606b7d0277cb5ea69af ""
  "/usr/share/texlive/texmf-dist/tex/generic/pgfplots/sys/pgfplotssysgeneric.code.tex" 1480098816 3095 c82d281b748902a65be2ccca97360b11 ""
  "/usr/share/texlive/texmf-dist/tex/generic/pgfplots/util/pgfplotsbinary.code.tex" 1480098816 23050 a369aa910ef860a3621fe0459faa335c ""
  "/usr/share/texlive/texmf-dist/tex/generic/pgfplots/util/pgfplotsbinary.data.code.tex" 1480098816 26859 7a4ee9d206fb0a0daa0d3108445afb57 ""
  "/usr/share/texlive/texmf-dist/tex/generic/pgfplots/util/pgfplotscolor.code.tex" 1480098816 23958 1b96260863091af1669c3a38b1c4c9af ""
  "/usr/share/texlive/texmf-dist/tex/generic/pgfplots/util/pgfplotscolormap.code.tex" 1496704190 88956 018b2512ef27998e97af72e8b1dcdbd5 ""
  "/usr/share/texlive/texmf-dist/tex/generic/pgfplots/util/pgfplotsutil.code.tex" 1496704190 69300 d69422610b847918ed9c5f4455896b9f ""
  "/usr/share/texlive/texmf-dist/tex/generic/pgfplots/util/pgfplotsutil.verb.code.tex" 1480098816 3286 c17079ba50483e1ac1721268ea016041 ""
  "/usr/share/texlive/texmf-dist/tex/generic/unicode-data/CaseFolding.txt" 1498600549 78161 7893b6e005c5a521319a0d12062ae122 ""
  "/usr/share/texlive/texmf-dist/tex/generic/unicode-data/SpecialCasing.txt" 1498600549 16830 e49d6f1fe536f43762ba1ecfe9e53e12 ""
  "/usr/share/texlive/texmf-dist/tex/generic/unicode-data/UnicodeData.txt" 1498600549 1735010 2a52f30695dcc821f0f224650552beaf ""
  "/usr/share/texlive/texmf-dist/tex/latex/amsfonts/amsfonts.sty" 1480098820 5949 3f3fd50a8cc94c3d4cbf4fc66cd3df1c ""
  "/usr/share/texlive/texmf-dist/tex/latex/amsfonts/amssymb.sty" 1480098820 13829 94730e64147574077f8ecfea9bb69af4 ""
  "/usr/share/texlive/texmf-dist/tex/latex/amsfonts/umsa.fd" 1480098820 961 6518c6525a34feb5e8250ffa91731cff ""
  "/usr/share/texlive/texmf-dist/tex/latex/amsfonts/umsb.fd" 1480098820 961 d02606146ba5601b5645f987c92e6193 ""
  "/usr/share/texlive/texmf-dist/tex/latex/amsmath/amsbsy.sty" 1480098820 2210 5c54ab129b848a5071554186d0168766 ""
  "/usr/share/texlive/texmf-dist/tex/latex/amsmath/amsgen.sty" 1480098820 4160 c115536cf8d4ff25aa8c1c9bc4ecb79a ""
  "/usr/share/texlive/texmf-dist/tex/latex/amsmath/amsmath.sty" 1504905757 84352 897a476d96a0681047a5b0f91178a3d2 ""
  "/usr/share/texlive/texmf-dist/tex/latex/amsmath/amsopn.sty" 1480098820 4115 318a66090112f3aa3f415aeb6fe8540f ""
  "/usr/share/texlive/texmf-dist/tex/latex/amsmath/amstext.sty" 1480098820 2431 fe3078ec12fc30287f568596f8e0b948 ""
  "/usr/share/texlive/texmf-dist/tex/latex/base/fontenc.sty" 1492297155 4571 13977df0eda144b93597fc709035ad1f ""
  "/usr/share/texlive/texmf-dist/tex/latex/base/ifthen.sty" 1480098821 5159 a08c9bbd48fc492f15b22e458bef961f ""
  "/usr/share/texlive/texmf-dist/tex/latex/base/inputenc.sty" 1480098821 4732 d63eda807ac82cca2ca8488efd31a966 ""
  "/usr/share/texlive/texmf-dist/tex/latex/base/t1enc.def" 1492297155 10006 a90ba4035cf778f32f424e297d92e235 ""
  "/usr/share/texlive/texmf-dist/tex/latex/booktabs/booktabs.sty" 1480098823 5869 94335281ffcab47f341cf07ea8220e30 ""
  "/usr/share/texlive/texmf-dist/tex/latex/enumitem/enumitem.sty" 1480098827 42666 6fa770e3485520a6a5f2ea7d259c8f8d ""
  "/usr/share/texlive/texmf-dist/tex/latex/esint/esint.sty" 1480098827 2738 d009930b67bcc6c8477ed9dd979e1bec ""
  "/usr/share/texlive/texmf-dist/tex/latex/esint/uesint.fd" 1480098827 777 8a4024cddce58525258bc7d69de6dc0d ""
  "/usr/share/texlive/texmf-dist/tex/latex/etoolbox/etoolbox.sty" 1518389458 43862 d90315ae4a46ef887a38b4ccba021f91 ""
  "/usr/share/texlive/texmf-dist/tex/latex/feynmp-auto/feynmp-auto.sty" 1480098828 3566 e9a705e95e4f8932ac586c9b20204100 ""
  "/usr/share/texlive/texmf-dist/tex/latex/graphics-cfg/color.cfg" 1480098830 1213 620bba36b25224fa9b7e1ccb4ecb76fd ""
  "/usr/share/texlive/texmf-dist/tex/latex/graphics-cfg/graphics.cfg" 1480098830 1224 978390e9c2234eab29404bc21b268d1e ""
  "/usr/share/texlive/texmf-dist/tex/latex/graphics-def/luatex.def" 1515537368 17337 8b3095c14728a2bab49dc6531392a3c0 ""
  "/usr/share/texlive/texmf-dist/tex/latex/graphics/color.sty" 1480098830 7031 4ca2945c73eec4e726c0da188fbbf50f ""
  "/usr/share/texlive/texmf-dist/tex/latex/graphics/dvipsnam.def" 1480098830 4945 c1421f5ee140ec8aa7a12ec5462e7bab ""
  "/usr/share/texlive/texmf-dist/tex/latex/graphics/graphics.sty" 1498427532 15275 7d676729b1bedd3e7f3c6717affb366c ""
  "/usr/share/texlive/texmf-dist/tex/latex/graphics/graphicx.sty" 1498427532 9066 649f2ccf62888e3d8c3e57256b70b8e1 ""
  "/usr/share/texlive/texmf-dist/tex/latex/graphics/keyval.sty" 1480098830 2594 d18d5e19aa8239cf867fa670c556d2e9 ""
  "/usr/share/texlive/texmf-dist/tex/latex/graphics/trig.sty" 1480098830 3980 0a268fbfda01e381fa95821ab13b6aee ""
  "/usr/share/texlive/texmf-dist/tex/latex/hyperref/hluatex.def" 1518041854 51422 1eb682e2d14f55fb14545444dffc523b ""
  "/usr/share/texlive/texmf-dist/tex/latex/hyperref/hyperref.sty" 1518041854 234088 2c849389d62d41c593d9f5176c4116ab ""
  "/usr/share/texlive/texmf-dist/tex/latex/hyperref/nameref.sty" 1480098831 12949 81e4e808884a8f0e276b69410e234656 ""
  "/usr/share/texlive/texmf-dist/tex/latex/hyperref/pd1enc.def" 1518041854 14098 4e70bf396c7c265bd8b0e5cab3fd3d4d ""
  "/usr/share/texlive/texmf-dist/tex/latex/l3kernel/expl3-code.tex" 1519422854 865979 4e627d13dfa51060cef916f5bf16b57a ""
  "/usr/share/texlive/texmf-dist/tex/latex/l3kernel/expl3.sty" 1519422854 9854 30dd9ffac9577d887036852ef4c7ccc0 ""
  "/usr/share/texlive/texmf-dist/tex/latex/l3kernel/l3pdfmode.def" 1519422854 12836 6f78fd4e4ede5f794b4e9523f8e11191 ""
  "/usr/share/texlive/texmf-dist/tex/latex/l3packages/xparse/xparse.sty" 1519337871 76828 accb53d91c291d3ec67841b8989ca15c ""
  "/usr/share/texlive/texmf-dist/tex/latex/latexconfig/epstopdf-sys.cfg" 1480098833 678 4792914a8f45be57bb98413425e4c7af ""
  "/usr/share/texlive/texmf-dist/tex/latex/latexconfig/hyperref.cfg" 1480098833 235 6031e5765137be07eed51a510b2b8fb7 ""
  "/usr/share/texlive/texmf-dist/tex/latex/marginnote/marginnote.sty" 1492896137 14164 78f7f81e7ab591d078ad6cc95b579eb4 ""
  "/usr/share/texlive/texmf-dist/tex/latex/mathtools/mathtools.sty" 1515449928 53430 0411f0481da6078e76fd7de46531d2e0 ""
  "/usr/share/texlive/texmf-dist/tex/latex/mathtools/mhsetup.sty" 1496786006 5317 cf75154a8a7e6436f05a5be497f0b05e ""
  "/usr/share/texlive/texmf-dist/tex/latex/ms/everyshi.sty" 1480098835 3878 6aa7c08ff2621006e0603349e40a30a8 ""
  "/usr/share/texlive/texmf-dist/tex/latex/natbib/natbib.sty" 1520210507 45458 f1c6cb3edd91174e966cbbaf88993bcf ""
  "/usr/share/texlive/texmf-dist/tex/latex/oberdiek/auxhook.sty" 1480098836 3834 4363110eb0ef1eb2b71c8fcbcdb6c357 ""
  "/usr/share/texlive/texmf-dist/tex/latex/oberdiek/epstopdf-base.sty" 1480098836 12095 5337833c991d80788a43d3ce26bd1c46 ""
  "/usr/share/texlive/texmf-dist/tex/latex/oberdiek/grfext.sty" 1480098836 7075 2fe3d848bba95f139de11ded085e74aa ""
  "/usr/share/texlive/texmf-dist/tex/latex/oberdiek/kvoptions.sty" 1480098836 22417 1d9df1eb66848aa31b18a593099cf45c ""
  "/usr/share/texlive/texmf-dist/tex/latex/oberdiek/rerunfilecheck.sty" 1480098836 9581 023642318cef9f4677efe364de1e2a27 ""
  "/usr/share/texlive/texmf-dist/tex/latex/pgf/basiclayer/pgf.sty" 1480098837 1197 8a80cdde14696a9198f1793a55dcf332 ""
  "/usr/share/texlive/texmf-dist/tex/latex/pgf/basiclayer/pgfcore.sty" 1480098837 410 5bf12ea7330e5f12c445332a4fe9a263 ""
  "/usr/share/texlive/texmf-dist/tex/latex/pgf/compatibility/pgfcomp-version-0-65.sty" 1480098837 21115 facf03b7dbe5ea2f5f1dce1ac84b5d05 ""
  "/usr/share/texlive/texmf-dist/tex/latex/pgf/compatibility/pgfcomp-version-1-18.sty" 1480098837 1091 d9163d29def82ee90370c8a63667742c ""
  "/usr/share/texlive/texmf-dist/tex/latex/pgf/frontendlayer/libraries/tikzlibraryexternal.code.tex" 1480098837 3606 6d142e007d5340f76b6b2dbf6c7234f6 ""
  "/usr/share/texlive/texmf-dist/tex/latex/pgf/frontendlayer/tikz.sty" 1480098837 339 592cf35cba3d400082b8a9a5d0199d70 ""
  "/usr/share/texlive/texmf-dist/tex/latex/pgf/math/pgfmath.sty" 1480098837 306 0796eafca5e159e6ec2167a6d22d81b1 ""
  "/usr/share/texlive/texmf-dist/tex/latex/pgf/systemlayer/pgfsys.sty" 1480098837 443 0b2e781830192df35c0fd357cf13e26e ""
  "/usr/share/texlive/texmf-dist/tex/latex/pgf/utilities/pgffor.sty" 1480098837 348 8927fde343487e003b01a4c2ca34073b ""
  "/usr/share/texlive/texmf-dist/tex/latex/pgf/utilities/pgfkeys.sty" 1480098837 274 4cad6e665cc93ac2ac979039a94fa1e1 ""
  "/usr/share/texlive/texmf-dist/tex/latex/pgf/utilities/pgfrcs.sty" 1480098837 325 2bcd023400636339210573e2b3ee298b ""
  "/usr/share/texlive/texmf-dist/tex/latex/pgfopts/pgfopts.sty" 1480098837 5540 d5c60cf09c59da351aa4023ed084e4eb ""
  "/usr/share/texlive/texmf-dist/tex/latex/pgfplots/pgfplots.sty" 1496704190 4904 ee78b44e85d6fccf08cd99370557481e ""
  "/usr/share/texlive/texmf-dist/tex/latex/physics/physics.sty" 1480098837 29610 a9597219b282d9c78b02393dcd7d4322 ""
  "/usr/share/texlive/texmf-dist/tex/latex/revtex/aps10pt4-1.rtx" 1480098838 4343 a0275f592f8d74cb0d60b78294d10c2e ""
  "/usr/share/texlive/texmf-dist/tex/latex/revtex/aps4-1.rtx" 1480098838 15227 2888c3e94449d608adb6fe4ee6f4121d ""
  "/usr/share/texlive/texmf-dist/tex/latex/revtex/apsrmp4-1.rtx" 1480098838 7241 c8efbb40ec132e0cfa8e420d49852517 ""
  "/usr/share/texlive/texmf-dist/tex/latex/revtex/revsymb4-1.sty" 1480098838 5191 68f8787861a9ba3c4a5a4959a687ef10 ""
  "/usr/share/texlive/texmf-dist/tex/latex/revtex/revtex4-1.cls" 1480098838 199798 166dddb5ba2b6c918ce38d92ad67794f ""
  "/usr/share/texlive/texmf-dist/tex/latex/slantsc/slantsc.sty" 1480098839 2856 8a1819784341195ef5bcd3c5842b49e1 ""
  "/usr/share/texlive/texmf-dist/tex/latex/tabu/tabu.sty" 1480098840 114961 e56cefaf93c0235eff9664a2490be707 ""
  "/usr/share/texlive/texmf-dist/tex/latex/textcase/textcase.sty" 1480098840 2022 79a2c3efd954daff1698214872b6ca46 ""
  "/usr/share/texlive/texmf-dist/tex/latex/tikz-feynman/tikz-feynman.sty" 1480098841 1329 6570b50bf5b74a6c8e9e2ad48d88bd43 ""
  "/usr/share/texlive/texmf-dist/tex/latex/tikz-feynman/tikzfeynman.keys.code.tex" 1480098841 30485 290c9ab1d3def5802ae47c3d6189ac2f ""
  "/usr/share/texlive/texmf-dist/tex/latex/tikz-feynman/tikzlibraryfeynman.code.tex" 1480098841 11610 8e70e7f6c7e9a7e7ee03990108a6bbdd ""
  "/usr/share/texlive/texmf-dist/tex/latex/tools/array.sty" 1485129666 12396 d41f82b039f900e95f351e54ae740f31 ""
  "/usr/share/texlive/texmf-dist/tex/latex/tools/bm.sty" 1485129666 12628 f9caa46b01869ce6fad7de6138318b70 ""
  "/usr/share/texlive/texmf-dist/tex/latex/tools/calc.sty" 1480098841 10214 d03d065f799d54f6b7e9b175f8d84279 ""
  "/usr/share/texlive/texmf-dist/tex/latex/tools/dcolumn.sty" 1480098841 2757 c5b68c40b2b33cff6b22d86273d37e2f ""
  "/usr/share/texlive/texmf-dist/tex/latex/tools/tabularx.sty" 1480098841 7141 64e8a94c3d083215654cd9a5b9dcc136 ""
  "/usr/share/texlive/texmf-dist/tex/latex/tools/xspace.sty" 1480098841 4544 8b8f59969458e1c25e0559e8e0ced1a4 ""
  "/usr/share/texlive/texmf-dist/tex/latex/url/url.sty" 1480098842 12796 8edb7d69a20b857904dd0ea757c14ec9 ""
  "/usr/share/texlive/texmf-dist/tex/latex/varwidth/varwidth.sty" 1480098842 10894 d359a13923460b2a73d4312d613554c8 ""
  "/usr/share/texlive/texmf-dist/tex/latex/xcolor/svgnam.def" 1480098843 4620 ef4794ae13f75d0c199ba494bc41ff4b ""
  "/usr/share/texlive/texmf-dist/tex/latex/xcolor/xcolor.sty" 1480098843 55589 34128738f682d033422ca125f82e5d62 ""
  "/usr/share/texlive/texmf-dist/tex/luatex/lualibs/lualibs-basic.lua" 1486339267 2685 01cf68c81eccdf10366f3f84158d2bc8 ""
  "/usr/share/texlive/texmf-dist/tex/luatex/lualibs/lualibs-boolean.lua" 1480098844 1850 abe28515dd33e8f6c416c09bca351cf8 ""
  "/usr/share/texlive/texmf-dist/tex/luatex/lualibs/lualibs-compat.lua" 1480098844 603 398583cb619d20952d67edcedae41608 ""
  "/usr/share/texlive/texmf-dist/tex/luatex/lualibs/lualibs-dir.lua" 1486339267 17703 9ea92204a66366c1e44e5616f84f46a2 ""
  "/usr/share/texlive/texmf-dist/tex/luatex/lualibs/lualibs-extended.lua" 1486339267 4826 f09108bac11f85bb9fa04d868d666e63 ""
  "/usr/share/texlive/texmf-dist/tex/luatex/lualibs/lualibs-file.lua" 1486339267 20997 32d9ba0a5cdd3509a3847bb050bfb800 ""
  "/usr/share/texlive/texmf-dist/tex/luatex/lualibs/lualibs-function.lua" 1480098844 361 a7e68a9703c35238729da41a474e951b ""
  "/usr/share/texlive/texmf-dist/tex/luatex/lualibs/lualibs-gzip.lua" 1480098844 1211 9cdb8f316bdef565fb312b1099590701 ""
  "/usr/share/texlive/texmf-dist/tex/luatex/lualibs/lualibs-io.lua" 1486339267 10014 ee77e357f5965196f9559b8fcccc6e71 ""
  "/usr/share/texlive/texmf-dist/tex/luatex/lualibs/lualibs-lpeg.lua" 1480098845 37012 93b90b22d7d3600ddd9def9f3ad9a7bb ""
  "/usr/share/texlive/texmf-dist/tex/luatex/lualibs/lualibs-lua.lua" 1486339267 4535 5466b2db6d8cc3b9786a398bb4230ea1 ""
  "/usr/share/texlive/texmf-dist/tex/luatex/lualibs/lualibs-math.lua" 1480098845 974 51275e81c652e3fbd7d02b1c383d3049 ""
  "/usr/share/texlive/texmf-dist/tex/luatex/lualibs/lualibs-md5.lua" 1480098845 3248 8cad752e187261eabf9cde462a1eef81 ""
  "/usr/share/texlive/texmf-dist/tex/luatex/lualibs/lualibs-number.lua" 1486339267 5358 bacbf8f2ff767e317d6ac2ba5930ec6a ""
  "/usr/share/texlive/texmf-dist/tex/luatex/lualibs/lualibs-os.lua" 1480098845 15832 a5a96e495876a7ccea203ac3cdcac40b ""
  "/usr/share/texlive/texmf-dist/tex/luatex/lualibs/lualibs-package.lua" 1480098845 10587 ecf99777107151998d886199ef5589dd ""
  "/usr/share/texlive/texmf-dist/tex/luatex/lualibs/lualibs-set.lua" 1480098845 1923 17868172ce396e1c5d0e9a672b8bdcb9 ""
  "/usr/share/texlive/texmf-dist/tex/luatex/lualibs/lualibs-string.lua" 1486339267 5863 2ca01eeb225c09e73ff4f3a2d101827a ""
  "/usr/share/texlive/texmf-dist/tex/luatex/lualibs/lualibs-table.lua" 1486339267 37480 92978e5ea9ca13dae04fb606f5be4a1c ""
  "/usr/share/texlive/texmf-dist/tex/luatex/lualibs/lualibs-trac-inf.lua" 1486339267 6844 aeb4a209d048a47dc0526a1915da2258 ""
  "/usr/share/texlive/texmf-dist/tex/luatex/lualibs/lualibs-unicode.lua" 1480098845 37427 eb7ac141175e74f69b1f303064ed91f8 ""
  "/usr/share/texlive/texmf-dist/tex/luatex/lualibs/lualibs-url.lua" 1480098845 12531 555c5d1e1134654b5e5a679150cf11d2 ""
  "/usr/share/texlive/texmf-dist/tex/luatex/lualibs/lualibs-util-deb.lua" 1480098845 3898 dedc408152fed20d666d41b93124de05 ""
  "/usr/share/texlive/texmf-dist/tex/luatex/lualibs/lualibs-util-dim.lua" 1480098845 13522 456eee0716ac9758c73a82b638b97ef4 ""
  "/usr/share/texlive/texmf-dist/tex/luatex/lualibs/lualibs-util-fil.lua" 1486339267 5548 0573e91847e722ffe0fcdb465ba89e6b ""
  "/usr/share/texlive/texmf-dist/tex/luatex/lualibs/lualibs-util-jsn.lua" 1486339267 5291 07fff8fbc3b6542771b6f5ee9ce8c8c3 ""
  "/usr/share/texlive/texmf-dist/tex/luatex/lualibs/lualibs-util-lua.lua" 1486339267 5396 03f3d11a20846a41f46e89c4aebb457d ""
  "/usr/share/texlive/texmf-dist/tex/luatex/lualibs/lualibs-util-prs.lua" 1486339267 22883 9246f0f89dc599d472ce1b0b5ee9baee ""
  "/usr/share/texlive/texmf-dist/tex/luatex/lualibs/lualibs-util-sta.lua" 1480098845 9178 4840e537d4ecc144f7058d768e93715b ""
  "/usr/share/texlive/texmf-dist/tex/luatex/lualibs/lualibs-util-sto.lua" 1480098845 3926 bea61790df64287215ffa7dd1759a63f ""
  "/usr/share/texlive/texmf-dist/tex/luatex/lualibs/lualibs-util-str.lua" 1486339267 35499 513836cfea6a8027c1451a95bc74649f ""
  "/usr/share/texlive/texmf-dist/tex/luatex/lualibs/lualibs-util-tab.lua" 1486339267 28471 cb1ae792cb08c524e4bc09b4f005f7f8 ""
  "/usr/share/texlive/texmf-dist/tex/luatex/lualibs/lualibs-util-tpl.lua" 1480098845 7100 ccfb5023bc761673396964848d85b5e2 ""
  "/usr/share/texlive/texmf-dist/tex/luatex/luaotfload/luaotfload-characters.lua" 1485820867 1548690 99578c3eff8b68cae3da45a4a7cbfcf2 ""
  "/usr/share/texmf/fonts/tfm/public/lm/ec-lmbx9.tfm" 1254938640 12080 8da3d5e88196e4de175949ad7749b42f ""
  "/usr/share/texmf/fonts/tfm/public/lm/ec-lmcsc10.tfm" 1254938640 11276 116dd5bea6621ce4a1999f96d876084c ""
  "/usr/share/texmf/fonts/tfm/public/lm/ec-lmr10.tfm" 1254938640 12056 7e13df7fe4cbce21b072ba7c4f4deb6e ""
  "/usr/share/texmf/fonts/tfm/public/lm/ec-lmr6.tfm" 1254938640 12048 c1068d0f4772be9b0ec447692e1d6d82 ""
  "/usr/share/texmf/fonts/tfm/public/lm/ec-lmr7.tfm" 1254938640 12064 09aa3eeac96bf141d673bb1b0385ce55 ""
  "/usr/share/texmf/fonts/tfm/public/lm/ec-lmr8.tfm" 1254938640 12064 a35db870f0b76c338d749c56dc030ef5 ""
  "/usr/share/texmf/fonts/tfm/public/lm/ec-lmr9.tfm" 1254938640 12084 b7f5e4c003de6f57f07c7e9fee73a37c ""
  "/usr/share/texmf/fonts/tfm/public/lm/ec-lmri10.tfm" 1254938640 17148 9556e1b5f936b77a796f68d2d559ba99 ""
  "/usr/share/texmf/fonts/tfm/public/lm/ec-lmri8.tfm" 1254938640 17152 c8240fef851c4991afefdae37a539ee1 ""
  "/usr/share/texmf/fonts/tfm/public/lm/ec-lmri9.tfm" 1254938640 17148 ca1ae65757b004f470b8cd636199f6fc ""
  "/usr/share/texmf/fonts/tfm/public/lm/ec-lmss10.tfm" 1254938640 11176 53ebf7a171df1f9447b387b178768bb5 ""
  "/usr/share/texmf/fonts/tfm/public/lm/ec-lmss12.tfm" 1254938640 11232 955a7245396175d9219648eadc654ac9 ""
  "/usr/share/texmf/fonts/tfm/public/lm/ec-lmss8.tfm" 1254938640 11180 705632ac6b4fb69204ad970192cdf4e5 ""
  "/usr/share/texmf/fonts/tfm/public/lm/ec-lmss9.tfm" 1254938640 11204 6ae1acdb5c7b9e57dc25853230e3cdae ""
  "/usr/share/texmf/fonts/tfm/public/lm/ec-lmssbx10.tfm" 1254938640 11168 06d87f5698fd1b642d96449b7c8d90b0 ""
  "/usr/share/texmf/fonts/tfm/public/lm/ec-lmsso9.tfm" 1254938640 11340 e41cf3cafd4865c26a5ddb8787023b13 ""
  "/usr/share/texmf/fonts/tfm/public/lm/ec-lmtt8.tfm" 1254938640 1380 64228d979098ac090aa3f98d5aa8ad3e ""
  "/usr/share/texmf/fonts/tfm/public/lm/lmex10.tfm" 1254938640 992 ce925c9346c7613270a79afbee98c070 ""
  "/usr/share/texmf/fonts/tfm/public/lm/lmmi10.tfm" 1254938640 1528 6d36b2385e0ca062a654de6ac59cb34f ""
  "/usr/share/texmf/fonts/tfm/public/lm/lmmi5.tfm" 1254938640 1508 198f5b7b99b5769126de3a533f6fc334 ""
  "/usr/share/texmf/fonts/tfm/public/lm/lmmi6.tfm" 1254938640 1512 94a3fd88c6f27dbd9ecb46987e297a4e ""
  "/usr/share/texmf/fonts/tfm/public/lm/lmmi7.tfm" 1254938640 1528 d5b028dd23da623848ef0645c96a1ed7 ""
  "/usr/share/texmf/fonts/tfm/public/lm/lmmi8.tfm" 1254938640 1520 a3fe5596932db2db2cbda300920dd4e9 ""
  "/usr/share/texmf/fonts/tfm/public/lm/lmsy10.tfm" 1254938640 1308 02cc510f9dd6012e5815d0c0ffbf6869 ""
  "/usr/share/texmf/fonts/tfm/public/lm/lmsy5.tfm" 1254938640 1296 54ed1a711e2303d5282575278e3620b0 ""
  "/usr/share/texmf/fonts/tfm/public/lm/lmsy6.tfm" 1254938640 1300 b0605d44c16c22d99dc001808e4f24ea ""
  "/usr/share/texmf/fonts/tfm/public/lm/lmsy7.tfm" 1254938640 1304 32f22a15acc296b2a4e15698403dcb88 ""
  "/usr/share/texmf/fonts/tfm/public/lm/lmsy8.tfm" 1254938640 1304 cdc9a17df9ef0d2dc320eff37bbab1c4 ""
  "/usr/share/texmf/fonts/tfm/public/lm/rm-lmr10.tfm" 1254938640 11868 4f81e9b6033c032bdaf9884f4d7ef412 ""
  "/usr/share/texmf/fonts/tfm/public/lm/rm-lmr5.tfm" 1254938640 11804 aefb10c002e6492c25236524a447f969 ""
  "/usr/share/texmf/fonts/tfm/public/lm/rm-lmr6.tfm" 1254938640 11836 e3b6ce3e601aec94f64a536e7f4224d5 ""
  "/usr/share/texmf/fonts/tfm/public/lm/rm-lmr7.tfm" 1254938640 11852 5a9022f105fd1ee2797df861e79ae9a0 ""
  "/usr/share/texmf/fonts/tfm/public/lm/rm-lmr8.tfm" 1254938640 11864 309fd7f43e4a0ba39f6f7644d76e8edf ""
  "/usr/share/texmf/fonts/type1/public/lm/lmbx9.pfb" 1254938640 126646 439622e6fd57f388c9979d39c4fce535 ""
  "/usr/share/texmf/fonts/type1/public/lm/lmcsc10.pfb" 1254938640 116427 4a5b1ccaa7cce719091920a86b58608d ""
  "/usr/share/texmf/fonts/type1/public/lm/lmex10.pfb" 1254938640 23055 2e5b42921de910eaa97b85df04ca4891 ""
  "/usr/share/texmf/fonts/type1/public/lm/lmmi10.pfb" 1254938640 30388 702fae6a5f0e6e9c48a1d872b442ffcf ""
  "/usr/share/texmf/fonts/type1/public/lm/lmmi5.pfb" 1254938640 31443 ba2241b179aa231f73e052863720cb42 ""
  "/usr/share/texmf/fonts/type1/public/lm/lmmi7.pfb" 1254938640 30789 be3ebdf20b6442cc4aaf81a81e17daf4 ""
  "/usr/share/texmf/fonts/type1/public/lm/lmr10.pfb" 1254938640 119235 f35b44530a1d90eb90fe15d9cba67ea0 ""
  "/usr/share/texmf/fonts/type1/public/lm/lmr5.pfb" 1254938640 120387 212cad1e763d510fc9c3ce2466274a57 ""
  "/usr/share/texmf/fonts/type1/public/lm/lmr6.pfb" 1254938640 123394 d390152bb30feeb496aaaa93299ee9ba ""
  "/usr/share/texmf/fonts/type1/public/lm/lmr7.pfb" 1254938640 121145 68312a933e2c689ed40ec0aba373e279 ""
  "/usr/share/texmf/fonts/type1/public/lm/lmr8.pfb" 1254938640 122174 a7a08406857c9530a0320a2517f60370 ""
  "/usr/share/texmf/fonts/type1/public/lm/lmr9.pfb" 1254938640 121065 50bbfa703ce7e11638752ef5a6d120c7 ""
  "/usr/share/texmf/fonts/type1/public/lm/lmri10.pfb" 1254938640 112593 fda2373ba4420af33949610de4c28fe8 ""
  "/usr/share/texmf/fonts/type1/public/lm/lmri8.pfb" 1254938640 109952 3dd76c0c5c680d519bb6d59a066c0826 ""
  "/usr/share/texmf/fonts/type1/public/lm/lmri9.pfb" 1254938640 109598 cb570392cb143ca78182169795feed7a ""
  "/usr/share/texmf/fonts/type1/public/lm/lmss10.pfb" 1254938640 97408 f595704ec2a07246c2d6f7b602587452 ""
  "/usr/share/texmf/fonts/type1/public/lm/lmss8.pfb" 1254938640 94400 e33ecfb646a9f148e2e53da01a9168fe ""
  "/usr/share/texmf/fonts/type1/public/lm/lmss9.pfb" 1254938640 95954 039cb8d6009e8fc5ea194e3e167ecc5f ""
  "/usr/share/texmf/fonts/type1/public/lm/lmssbx10.pfb" 1254938640 119663 e82fa1a58f98ccd89bdbd77311ac9cf1 ""
  "/usr/share/texmf/fonts/type1/public/lm/lmsso9.pfb" 1254938640 106652 ff05a0e8c2fd1774314bcad2c26aa3e8 ""
  "/usr/share/texmf/fonts/type1/public/lm/lmsy10.pfb" 1254938640 27863 09ce3735688ffde955e72da27c95b61a ""
  "/usr/share/texmf/fonts/type1/public/lm/lmsy5.pfb" 1254938640 28210 987b40585e9bcf6463d6155bb4219492 ""
  "/usr/share/texmf/fonts/type1/public/lm/lmsy6.pfb" 1254938640 28109 6d61305ed3d0eb794ebe36f15cf44aa0 ""
  "/usr/share/texmf/fonts/type1/public/lm/lmsy7.pfb" 1254938640 27941 d1f5d03f61a46c3fcc3a2ba904ddda52 ""
  "/usr/share/texmf/fonts/type1/public/lm/lmtt8.pfb" 1254938640 115291 2ae7034c644e971beb573b1e6606f863 ""
  "/usr/share/texmf/tex/latex/feynmf/feynmp.sty" 1431214178 12551 0cf5c597a9c40bdc431f5ce226479b5a ""
  "/usr/share/texmf/tex/latex/lm/lmodern.sty" 1256929440 1606 c17281c7cff2bbd7ff0173e1433487ec ""
  "/usr/share/texmf/tex/latex/lm/omllmm.fd" 1256929440 888 44447a3a3af84a22454ef89500942d93 ""
  "/usr/share/texmf/tex/latex/lm/omslmsy.fd" 1256929440 805 af340a8260c447aa315cfc740ff0152f ""
  "/usr/share/texmf/tex/latex/lm/omxlmex.fd" 1256929440 566 a94661f7b66063f191960bb7935b6ba2 ""
  "/usr/share/texmf/tex/latex/lm/ot1lmr.fd" 1256929440 1880 bae7b659316f7344a86218ad38b01d91 ""
  "/usr/share/texmf/tex/latex/lm/t1lmr.fd" 1256929440 1865 afbfccbe7fda9c2dc5078ad7c486bbed ""
  "/usr/share/texmf/tex/latex/lm/t1lmss.fd" 1256929440 1639 ba1c66ef577aa5cadc2c0fdc691a26ee ""
  "/usr/share/texmf/tex/latex/lm/t1lmtt.fd" 1256929440 2681 354015af3b61e7be30009f084986375a ""
  "/var/lib/texmf/web2c/luatex/lualatex.fmt" 1573144253 1349097 c2c2748bf92fb52b74d2b23e53c53046 ""
  "BackEndMatter.tex" 1582294286 85 14a2a0a8b5db7622f6a57f8da340540f ""
  "FrontBackMatter.tex" 1582321914 1090 1a1b1d18c62f375ea5f0cdc21b760d64 ""
  "main.aux" 1583164704 3258 24549891a03827c925a76ab189ac0681 ""
  "main.bbl" 1583164177 1994 26839190724e7552d562ae751c1aff82 "bibtex main"
  "main.out" 1583164704 1194 cc02b29d6b14260bcd69c4e88b54a80a ""
  "main.tex" 1583164701 27831 bd91f25f4d8847bf19f0d1e341512664 ""
  "main.toc" 1583164704 1407 ec6fb9cc9596cdd76505100b17b53fc2 ""
  (generated)
  "/user/boulet/Documents/msu_postdoc/notes_msu/generalities-on-DME/main.log"
  "/user/boulet/Documents/msu_postdoc/notes_msu/generalities-on-IMSRG/main.log"
  "/user/boulet/Documents/msu_postdoc/notes_msu/generalities-on-IMSRG-EA/main.pdf"
  "main.aux"
  "/user/boulet/Documents/msu_postdoc/notes_msu/generalities-on-IMSRG-EA/main.log"
  "mainNotes.bib"
  "main.pdf"
  "main.log"
  "/user/boulet/Documents/msu_postdoc/notes_msu/generalities-on-DME/main.pdf"
  "/user/boulet/Documents/msu_postdoc/notes_msu/generalities-on-IMSRG/main.pdf"
  "main.toc"
  "main.auxlock"
  "main.out"
