\relax 
\providecommand\hyper@newdestlabel[2]{}
\providecommand\HyperFirstAtBeginDocument{\AtBeginDocument}
\HyperFirstAtBeginDocument{\ifx\hyper@anchor\@undefined
\global\let\oldcontentsline\contentsline
\gdef\contentsline#1#2#3#4{\oldcontentsline{#1}{#2}{#3}}
\global\let\oldnewlabel\newlabel
\gdef\newlabel#1#2{\newlabelxx{#1}#2}
\gdef\newlabelxx#1#2#3#4#5#6{\oldnewlabel{#1}{{#2}{#3}}}
\AtEndDocument{\ifx\hyper@anchor\@undefined
\let\contentsline\oldcontentsline
\let\newlabel\oldnewlabel
\fi}
\fi}
\global\let\hyper@last\relax 
\gdef\HyperFirstAtBeginDocument#1{#1}
\providecommand\HyField@AuxAddToFields[1]{}
\providecommand\HyField@AuxAddToCoFields[2]{}
\citation{Kleinert2011a}
\gdef \tocmax@section{14.21928pt}
\gdef \tocmax@subsection{14.22816pt}
\gdef \tocmax@subsubsection{12.11116pt}
\gdef \tocmax@paragraph{5.0pt}
\gdef \tocmax@appendix{5.0pt}
\gdef \tocmax@pagenum{5.0pt}
\newlabel{FirstPage}{{}{1}{}{section*.1}{}}
\@writefile{toc}{\contentsline {title}{Generalities on In-Medium Similarity Renormalization Group \\ in an effective action formalism}{1}{section*.2}}
\@writefile{toc}{\contentsline {abstract}{Abstract}{1}{section*.1}}
\@writefile{toc}{\tocdepth@munge}
\@writefile{toc}{\contentsline {section}{\numberline {}Contents}{1}{section*.3}}
\@writefile{toc}{\tocdepth@restore}
\@writefile{toc}{\contentsline {section}{\numberline {I}Basic presentation of the Renormalization Group Methods}{1}{section*.4}}
\@writefile{toc}{\contentsline {subsection}{\numberline {A}Similarity Renormalization Group}{1}{section*.5}}
\@writefile{toc}{\contentsline {subsubsection}{\numberline {1}Wegner generator}{1}{section*.6}}
\@writefile{toc}{\contentsline {subsubsection}{\numberline {2}White generator}{1}{section*.7}}
\@writefile{toc}{\contentsline {subsection}{\numberline {B}In-Medium Similarity Renormalization Group}{1}{section*.8}}
\citation{Hergert2018a}
\citation{Hergert2018a}
\@writefile{toc}{\contentsline {subsubsection}{\numberline {1}Correlated many-body reference state}{2}{section*.9}}
\@writefile{toc}{\contentsline {subsubsection}{\numberline {2}Multireference IMSR}{2}{section*.10}}
\citation{CHbook:EFTforDFT}
\citation{book:FetterWalecka}
\@writefile{toc}{\contentsline {section}{\numberline {II}Path integral effective action formalism for DFT}{3}{section*.11}}
\@writefile{toc}{\contentsline {subsection}{\numberline {A}Generalities}{3}{section*.12}}
\@writefile{toc}{\contentsline {subsection}{\numberline {B}Path integral formalism}{3}{section*.13}}
\citation{book:NegeleOrland}
\citation{Kleinert2011a}
\@writefile{toc}{\contentsline {subsection}{\numberline {C}Illustration: development based on variational perturbation theory \citep  {Kleinert2011a}}{4}{section*.14}}
\bibcite{Kleinert2011a}{{1}{}{{}}{{}}}
\bibcite{Hergert2018a}{{2}{}{{}}{{}}}
\bibcite{CHbook:EFTforDFT}{{3}{}{{}}{{}}}
\bibcite{book:FetterWalecka}{{4}{}{{}}{{}}}
\bibcite{book:NegeleOrland}{{5}{}{{}}{{}}}
\bibdata{mainNotes}
\bibstyle{apsrmp4-1}
\citation{REVTEX41Control}
\citation{apsrmp41Control}
\providecommand\NAT@force@numbers{}\NAT@force@numbers
\@writefile{toc}{\appendix }
\@writefile{toc}{\contentsline {section}{\numberline {}References}{6}{section*.15}}
\newlabel{LastBibItem}{{5}{6}{}{section*.15}{}}
\newlabel{LastPage}{{}{6}{}{}{}}
