\relax 
\providecommand\hyper@newdestlabel[2]{}
\providecommand\HyperFirstAtBeginDocument{\AtBeginDocument}
\HyperFirstAtBeginDocument{\ifx\hyper@anchor\@undefined
\global\let\oldcontentsline\contentsline
\gdef\contentsline#1#2#3#4{\oldcontentsline{#1}{#2}{#3}}
\global\let\oldnewlabel\newlabel
\gdef\newlabel#1#2{\newlabelxx{#1}#2}
\gdef\newlabelxx#1#2#3#4#5#6{\oldnewlabel{#1}{{#2}{#3}}}
\AtEndDocument{\ifx\hyper@anchor\@undefined
\let\contentsline\oldcontentsline
\let\newlabel\oldnewlabel
\fi}
\fi}
\global\let\hyper@last\relax 
\gdef\HyperFirstAtBeginDocument#1{#1}
\providecommand\HyField@AuxAddToFields[1]{}
\providecommand\HyField@AuxAddToCoFields[2]{}
\citation{Kleinert2011a}
\gdef \tocmax@section{17.5164pt}
\gdef \tocmax@subsection{14.35016pt}
\gdef \tocmax@subsubsection{12.5835pt}
\gdef \tocmax@paragraph{5.0pt}
\gdef \tocmax@appendix{5.0pt}
\gdef \tocmax@pagenum{8.5pt}
\citation{Kleinert2011a}
\newlabel{FirstPage}{{}{1}{}{section*.1}{}}
\@writefile{toc}{\contentsline {title}{Variational perturbation theory \\ for \emph  {ab initio} density functional theory: case study}{1}{section*.2}\protected@file@percent }
\@writefile{toc}{\contentsline {abstract}{Abstract}{1}{section*.1}\protected@file@percent }
\@writefile{toc}{\tocdepth@munge}
\@writefile{toc}{\contentsline {section}{\numberline {}Contents}{1}{section*.3}\protected@file@percent }
\@writefile{toc}{\tocdepth@restore}
\@writefile{toc}{\contentsline {section}{\numberline {I}Preliminary results}{1}{section*.4}\protected@file@percent }
\citation{book:FetterWalecka}
\citation{book:NegeleOrland}
\citation{Kleinert2011a}
\@writefile{toc}{\contentsline {subsection}{\numberline {A}Effective action formalism and generating partition function}{2}{section*.5}\protected@file@percent }
\@writefile{toc}{\contentsline {subsubsection}{\numberline {1}Many-body Hamiltonian}{2}{section*.6}\protected@file@percent }
\@writefile{toc}{\contentsline {subsubsection}{\numberline {2}Action and generating functional}{2}{section*.7}\protected@file@percent }
\@writefile{toc}{\contentsline {subsubsection}{\numberline {3}Auxiliary classical collective fields}{2}{section*.8}\protected@file@percent }
\@writefile{toc}{\contentsline {subsection}{\numberline {B}One-body Green's functions}{2}{section*.9}\protected@file@percent }
\citation{Ullrich1996a}
\citation{Ullrich1996a}
\newlabel{eq:def-Omega0}{{9}{3}{}{equation.1.9}{}}
\newlabel{eq:greenfunction-propagator}{{11}{3}{}{equation.1.11}{}}
\newlabel{sec:gradient-exp}{{I.C}{3}{}{section*.10}{}}
\@writefile{toc}{\contentsline {subsection}{\numberline {C}Wigner transform and gradient expansion of the one-body Green's functions }{3}{section*.10}\protected@file@percent }
\@writefile{toc}{\contentsline {subsubsection}{\numberline {1}Generalities on the Wgner transform}{3}{section*.11}\protected@file@percent }
\newlabel{eq:def-Lambda-op}{{14b}{3}{}{equation.1.14alph2}{}}
\@writefile{toc}{\contentsline {subsubsection}{\numberline {2}Grandient expansion of the one-body Green's function}{3}{section*.12}\protected@file@percent }
\newlabel{eq:G0GE}{{18}{4}{}{equation.1.18}{}}
\@writefile{toc}{\contentsline {subsubsection}{\numberline {3}Functional derivative of the zero order effective action and generating one-body Green's function}{4}{section*.13}\protected@file@percent }
\newlabel{eq:GF-generated-by-Omega}{{19}{4}{}{equation.1.19}{}}
\newlabel{sec:tracelog}{{I.D}{4}{}{section*.14}{}}
\@writefile{toc}{\contentsline {subsection}{\numberline {D}Generating effective action }{4}{section*.14}\protected@file@percent }
\@writefile{toc}{\contentsline {subsubsection}{\numberline {1}Generating effective action for the non-interacting system}{4}{section*.15}\protected@file@percent }
\newlabel{eq:adv-ret-GF-FG}{{23}{4}{}{equation.1.23}{}}
\newlabel{sec:Omega0-HF}{{I.D.2}{5}{}{section*.16}{}}
\@writefile{toc}{\contentsline {subsubsection}{\numberline {2}Estimation of the zero-order effective action in the Hartree-Fock approximation }{5}{section*.16}\protected@file@percent }
\newlabel{eq:gal-Omega0-r-dep}{{28}{5}{}{equation.1.28}{}}
\@writefile{toc}{\contentsline {section}{\numberline {II}First order in perturbation: Hartree-Fock level}{5}{section*.17}\protected@file@percent }
\newlabel{eq:master-consisentent-HF}{{36}{6}{}{equation.2.36}{}}
\newlabel{eq:energy-HF}{{38}{6}{}{equation.2.38}{}}
\newlabel{app:SCHF-equation}{{II.A}{6}{}{section*.18}{}}
\@writefile{toc}{\contentsline {subsection}{\numberline {A}Self-consistent Hartree-Fock equation using the gradient expansion of the Green's functions }{6}{section*.18}\protected@file@percent }
\@writefile{toc}{\contentsline {paragraph}{\numberline {a}First iteration --}{7}{section*.19}\protected@file@percent }
\newlabel{eq:density-matrix-expansion-SCHF}{{44}{7}{}{equation.2.44}{}}
\@writefile{toc}{\contentsline {paragraph}{\numberline {b}Recurrence relation --}{7}{section*.20}\protected@file@percent }
\newlabel{eq:gal-HF-auxField}{{45}{7}{}{equation.2.45}{}}
\newlabel{eq:HF-selfenergy}{{46}{7}{}{equation.2.46}{}}
\@writefile{toc}{\contentsline {paragraph}{\numberline {c}Application --}{7}{section*.21}\protected@file@percent }
\@writefile{lof}{\contentsline {figure}{\numberline {1}{\ignorespaces  Chemical potential as a function of the strength (or its inverse) of the contact interaction obtained at Hartree-Fock level (solid line), see text. The dotted line correspond to the low-density/weak-coupling regime. }}{8}{figure.1}\protected@file@percent }
\newlabel{sec:expansion-obdm}{{II.B}{8}{}{section*.22}{}}
\@writefile{toc}{\contentsline {subsection}{\numberline {B}Gradient expansion of the density matrix and link with the density matrix expansion }{8}{section*.22}\protected@file@percent }
\newlabel{eq:fi-def}{{52}{8}{}{equation.2.52}{}}
\newlabel{eq:obdm-wigner2}{{52a}{8}{}{equation.2.52alph1}{}}
\newlabel{eq:obdm-gal-exp}{{55}{8}{}{equation.2.55}{}}
\@writefile{toc}{\contentsline {subsubsection}{\numberline {1}Explicit form of the one-body density matrix up to second order in the gradient expansion approximation}{9}{section*.23}\protected@file@percent }
\@writefile{toc}{\contentsline {subsubsection}{\numberline {2}Local normal, kinetic and current}{9}{section*.24}\protected@file@percent }
\newlabel{eq:local-density}{{61}{9}{}{equation.2.61}{}}
\newlabel{eq:local-kin-density}{{63}{9}{}{equation.2.63}{}}
\newlabel{eq:local-cur-density}{{64}{9}{}{equation.2.64}{}}
\newlabel{eq:local-ref-densities}{{65}{9}{}{equation.2.65}{}}
\@writefile{toc}{\contentsline {subsubsection}{\numberline {3}Exact expansion of the one-body density matrix in terms of the densities}{9}{section*.25}\protected@file@percent }
\newlabel{eq:eff-mass-def}{{68}{10}{}{equation.2.68}{}}
\newlabel{eq:obdm-gal-exp-2Grad}{{70}{10}{}{equation.2.70}{}}
\newlabel{eq:HvH-thm}{{71}{10}{}{equation.2.71}{}}
\@writefile{toc}{\contentsline {subsubsection}{\numberline {4}Density functional}{10}{section*.26}\protected@file@percent }
\@writefile{toc}{\contentsline {section}{\numberline {III}Density functional theory}{10}{section*.27}\protected@file@percent }
\@writefile{toc}{\contentsline {subsection}{\numberline {A}Contribution of the interacting part: density-dependent coupling constants}{10}{section*.28}\protected@file@percent }
\citation{book:Lipparini}
\@writefile{toc}{\contentsline {subsubsection}{\numberline {1}Hartree contribution}{11}{section*.29}\protected@file@percent }
\@writefile{toc}{\contentsline {subsubsection}{\numberline {2}Fock contribution}{11}{section*.30}\protected@file@percent }
\@writefile{toc}{\contentsline {subsection}{\numberline {B}Non-interacting part: reference single-particle states}{11}{section*.31}\protected@file@percent }
\@writefile{toc}{\contentsline {subsubsection}{\numberline {1}Kohn-Sham equations}{11}{section*.32}\protected@file@percent }
\newlabel{eq:sp-potential-KS}{{83b}{11}{}{equation.3.83alph2}{}}
\@writefile{toc}{\contentsline {subsubsection}{\numberline {2}Effective local density-dependent interaction}{12}{section*.33}\protected@file@percent }
\newlabel{eq:eff-int-densities}{{88}{12}{}{equation.3.88}{}}
\@writefile{toc}{\contentsline {subsection}{\numberline {C}Local kinetic density as a functional of the reference local density}{12}{section*.34}\protected@file@percent }
\@writefile{toc}{\contentsline {subsection}{\numberline {D}Density-dependent single-particle potential}{12}{section*.35}\protected@file@percent }
\@writefile{toc}{\appendix }
\newlabel{app:KS-potential}{{A}{13}{}{section*.36}{}}
\@writefile{toc}{\contentsline {section}{\numberline {A}Kohn-Sham potential }{13}{section*.36}\protected@file@percent }
\@writefile{toc}{\contentsline {subsection}{\numberline {1}One-body density matrix expansion}{13}{section*.37}\protected@file@percent }
\@writefile{toc}{\contentsline {subsubsection}{\numberline {a}Local densities}{13}{section*.38}\protected@file@percent }
\newlabel{eq:local-ref-densities}{{A2}{13}{}{equation.A.2}{}}
\@writefile{toc}{\contentsline {subsubsection}{\numberline {b}Local functionals}{13}{section*.39}\protected@file@percent }
\@writefile{toc}{\contentsline {subsubsection}{\numberline {c}Non-local functions}{13}{section*.40}\protected@file@percent }
\@writefile{toc}{\contentsline {subsection}{\numberline {2}Hartree-Fock coupling constants}{13}{section*.41}\protected@file@percent }
\@writefile{toc}{\contentsline {subsection}{\numberline {3}Density-dependent auxiliary field}{13}{section*.42}\protected@file@percent }
\@writefile{toc}{\contentsline {subsubsection}{\numberline {a}Density-dependent effective mass}{13}{section*.43}\protected@file@percent }
\newlabel{eq:eff-mass-densities}{{A14}{14}{}{equation.A.14}{}}
\@writefile{toc}{\contentsline {subsubsection}{\numberline {b}Residual self-energy}{14}{section*.44}\protected@file@percent }
\@writefile{toc}{\contentsline {subsection}{\numberline {4}Local functional correction to the local densities}{14}{section*.45}\protected@file@percent }
\@writefile{toc}{\contentsline {subsection}{\numberline {5}Funcional derivatives}{14}{section*.46}\protected@file@percent }
\@writefile{toc}{\contentsline {subsubsection}{\numberline {a}Functional derivative of the local functions}{14}{section*.47}\protected@file@percent }
\@writefile{toc}{\contentsline {subsubsection}{\numberline {b}Functional derivative of the non-local coupling functions}{14}{section*.48}\protected@file@percent }
\@writefile{toc}{\contentsline {subsubsection}{\numberline {c}Functional derivative of the effective mass and residual self-energy}{15}{section*.49}\protected@file@percent }
\newlabel{app:convention-tranforms}{{B}{16}{}{section*.50}{}}
\@writefile{toc}{\contentsline {section}{\numberline {B}Fourier and Wigner transform conventions }{16}{section*.50}\protected@file@percent }
\@writefile{toc}{\contentsline {subsection}{\numberline {1}Change of variable convention}{16}{section*.51}\protected@file@percent }
\@writefile{toc}{\contentsline {paragraph}{\numberline {}Time}{16}{section*.52}\protected@file@percent }
\@writefile{toc}{\contentsline {paragraph}{\numberline {}Coordinate}{16}{section*.53}\protected@file@percent }
\@writefile{toc}{\contentsline {paragraph}{\numberline {}Frequency}{16}{section*.54}\protected@file@percent }
\@writefile{toc}{\contentsline {paragraph}{\numberline {}Momentum}{16}{section*.55}\protected@file@percent }
\@writefile{toc}{\contentsline {subsection}{\numberline {2}Fourier transform in the time-frequency domain}{16}{section*.56}\protected@file@percent }
\@writefile{toc}{\contentsline {subsection}{\numberline {3}Wigner transformation}{16}{section*.57}\protected@file@percent }
\@writefile{toc}{\contentsline {subsection}{\numberline {4}Specific integrals}{16}{section*.58}\protected@file@percent }
\@writefile{toc}{\contentsline {subsubsection}{\numberline {a}Constant function and Dirac distributions}{16}{section*.59}\protected@file@percent }
\@writefile{toc}{\contentsline {subsubsection}{\numberline {b}Heaviside distribution}{16}{section*.60}\protected@file@percent }
\newlabel{app:contour-int}{{C}{16}{}{section*.61}{}}
\@writefile{toc}{\contentsline {section}{\numberline {C}Contour integration }{16}{section*.61}\protected@file@percent }
\newlabel{app:contour-delta-prime}{{C.1}{16}{}{section*.62}{}}
\@writefile{toc}{\contentsline {subsection}{\numberline {1}Usful integral implicating Dirac and Heaviside distribution }{16}{section*.62}\protected@file@percent }
\newlabel{eq:contour-GF-gradient}{{C4}{16}{}{equation.C.4}{}}
\newlabel{app:functional-deriv}{{D}{17}{}{section*.63}{}}
\@writefile{toc}{\contentsline {section}{\numberline {D}Functional derivative }{17}{section*.63}\protected@file@percent }
\@writefile{toc}{\contentsline {paragraph}{\numberline {}Linearity}{17}{section*.64}\protected@file@percent }
\@writefile{toc}{\contentsline {paragraph}{\numberline {}Product rule}{17}{section*.65}\protected@file@percent }
\@writefile{toc}{\contentsline {paragraph}{\numberline {}Chain rule}{17}{section*.66}\protected@file@percent }
\newlabel{app:generated-GF}{{E}{17}{}{section*.67}{}}
\@writefile{toc}{\contentsline {section}{\numberline {E}Generated one-body Green's function }{17}{section*.67}\protected@file@percent }
\newlabel{eq:fderivOmega}{{E6}{17}{}{equation.E.6}{}}
\newlabel{eq:fderiv-FWmoG}{{E15}{18}{}{equation.E.15}{}}
\@writefile{toc}{\contentsline {subsection}{\numberline {1}Mathematical relation on matrix derivative}{18}{section*.68}\protected@file@percent }
\bibcite{Kleinert2011a}{{1}{}{{}}{{}}}
\bibcite{book:FetterWalecka}{{2}{}{{}}{{}}}
\bibcite{book:NegeleOrland}{{3}{}{{}}{{}}}
\bibcite{Ullrich1996a}{{4}{}{{}}{{}}}
\bibcite{book:Lipparini}{{5}{}{{}}{{}}}
\bibdata{mainNotes}
\bibstyle{apsrmp4-1}
\citation{REVTEX41Control}
\citation{apsrmp41Control}
\providecommand\NAT@force@numbers{}\NAT@force@numbers
\@writefile{toc}{\contentsline {section}{\numberline {}References}{19}{section*.69}\protected@file@percent }
\newlabel{LastBibItem}{{5}{19}{}{section*.69}{}}
\newlabel{LastPage}{{}{19}{}{}{}}
