PWD /user/boulet/Documents/msu_postdoc/notes_msu/Kleinert-abinitio-nuclear-DFT
INPUT /var/lib/texmf/web2c/luatex/lualatex.fmt
INPUT /user/boulet/Documents/msu_postdoc/notes_msu/Kleinert-abinitio-nuclear-DFT/FrontBackMatter.tex
OUTPUT /user/boulet/Documents/msu_postdoc/notes_msu/Kleinert-abinitio-nuclear-DFT/FrontBackMatter.log
INPUT /usr/share/texlive/texmf-dist/tex/luatex/lualibs/lualibs-basic.lua
INPUT /usr/share/texlive/texmf-dist/tex/luatex/lualibs/lualibs-lua.lua
INPUT /usr/share/texlive/texmf-dist/tex/luatex/lualibs/lualibs-package.lua
INPUT /usr/share/texlive/texmf-dist/tex/luatex/lualibs/lualibs-lpeg.lua
INPUT /usr/share/texlive/texmf-dist/tex/luatex/lualibs/lualibs-function.lua
INPUT /usr/share/texlive/texmf-dist/tex/luatex/lualibs/lualibs-string.lua
INPUT /usr/share/texlive/texmf-dist/tex/luatex/lualibs/lualibs-table.lua
INPUT /usr/share/texlive/texmf-dist/tex/luatex/lualibs/lualibs-boolean.lua
INPUT /usr/share/texlive/texmf-dist/tex/luatex/lualibs/lualibs-number.lua
INPUT /usr/share/texlive/texmf-dist/tex/luatex/lualibs/lualibs-math.lua
INPUT /usr/share/texlive/texmf-dist/tex/luatex/lualibs/lualibs-io.lua
INPUT /usr/share/texlive/texmf-dist/tex/luatex/lualibs/lualibs-os.lua
INPUT /usr/share/texlive/texmf-dist/tex/luatex/lualibs/lualibs-file.lua
INPUT /usr/share/texlive/texmf-dist/tex/luatex/lualibs/lualibs-gzip.lua
INPUT /usr/share/texlive/texmf-dist/tex/luatex/lualibs/lualibs-md5.lua
INPUT /usr/share/texlive/texmf-dist/tex/luatex/lualibs/lualibs-dir.lua
INPUT /usr/share/texlive/texmf-dist/tex/luatex/lualibs/lualibs-unicode.lua
INPUT /usr/share/texlive/texmf-dist/tex/luatex/lualibs/lualibs-url.lua
INPUT /usr/share/texlive/texmf-dist/tex/luatex/lualibs/lualibs-set.lua
INPUT /usr/share/texlive/texmf-dist/tex/luatex/lualibs/lualibs-compat.lua
INPUT /usr/share/texlive/texmf-dist/tex/luatex/lualibs/lualibs-extended.lua
INPUT /usr/share/texlive/texmf-dist/tex/luatex/lualibs/lualibs-util-str.lua
INPUT /usr/share/texlive/texmf-dist/tex/luatex/lualibs/lualibs-util-fil.lua
INPUT /usr/share/texlive/texmf-dist/tex/luatex/lualibs/lualibs-util-tab.lua
INPUT /usr/share/texlive/texmf-dist/tex/luatex/lualibs/lualibs-util-sto.lua
INPUT /usr/share/texlive/texmf-dist/tex/luatex/lualibs/lualibs-util-prs.lua
INPUT /usr/share/texlive/texmf-dist/tex/luatex/lualibs/lualibs-util-dim.lua
INPUT /usr/share/texlive/texmf-dist/tex/luatex/lualibs/lualibs-util-jsn.lua
INPUT /usr/share/texlive/texmf-dist/tex/luatex/lualibs/lualibs-trac-inf.lua
INPUT /usr/share/texlive/texmf-dist/tex/luatex/lualibs/lualibs-util-lua.lua
INPUT /usr/share/texlive/texmf-dist/tex/luatex/lualibs/lualibs-util-deb.lua
INPUT /usr/share/texlive/texmf-dist/tex/luatex/lualibs/lualibs-util-tpl.lua
INPUT /usr/share/texlive/texmf-dist/tex/luatex/lualibs/lualibs-util-sta.lua
INPUT /usr/share/texlive/texmf-dist/tex/luatex/luaotfload/luaotfload-characters.lua
INPUT /user/boulet/.texlive2017/texmf-var/luatex-cache/generic/fonts/otl/lmroman10-regular.luc
INPUT /user/boulet/.texlive2017/texmf-var/luatex-cache/generic/fonts/otl/lmroman10-bold.luc
INPUT /user/boulet/.texlive2017/texmf-var/luatex-cache/generic/fonts/otl/lmmono10-regular.luc
