\relax 
\providecommand\hyper@newdestlabel[2]{}
\providecommand\HyperFirstAtBeginDocument{\AtBeginDocument}
\HyperFirstAtBeginDocument{\ifx\hyper@anchor\@undefined
\global\let\oldcontentsline\contentsline
\gdef\contentsline#1#2#3#4{\oldcontentsline{#1}{#2}{#3}}
\global\let\oldnewlabel\newlabel
\gdef\newlabel#1#2{\newlabelxx{#1}#2}
\gdef\newlabelxx#1#2#3#4#5#6{\oldnewlabel{#1}{{#2}{#3}}}
\AtEndDocument{\ifx\hyper@anchor\@undefined
\let\contentsline\oldcontentsline
\let\newlabel\oldnewlabel
\fi}
\fi}
\global\let\hyper@last\relax 
\gdef\HyperFirstAtBeginDocument#1{#1}
\providecommand\HyField@AuxAddToFields[1]{}
\providecommand\HyField@AuxAddToCoFields[2]{}
\citation{Kleinert2011a}
\newlabel{FirstPage}{{}{1}{}{section*.1}{}}
\@writefile{toc}{\contentsline {title}{Variational perturbation theory \\ for \emph  {ab initio} density functional theory}{1}{section*.2}\protected@file@percent }
\@writefile{toc}{\contentsline {abstract}{Abstract}{1}{section*.1}\protected@file@percent }
\@writefile{toc}{\tocdepth@munge}
\@writefile{toc}{\contentsline {section}{\numberline {}Contents}{1}{section*.3}\protected@file@percent }
\gdef \tocmax@section{23.8834pt}
\gdef \tocmax@subsection{14.35016pt}
\gdef \tocmax@subsubsection{12.5835pt}
\gdef \tocmax@paragraph{5.0pt}
\gdef \tocmax@appendix{5.0pt}
\gdef \tocmax@pagenum{8.5pt}
\citation{book:FetterWalecka}
\citation{book:NegeleOrland}
\citation{Kleinert2011a}
\@writefile{toc}{\tocdepth@restore}
\@writefile{toc}{\contentsline {section}{\numberline {I}General formalism}{2}{section*.4}\protected@file@percent }
\@writefile{toc}{\contentsline {subsection}{\numberline {A}Many-body Hamiltonian}{2}{section*.5}\protected@file@percent }
\@writefile{toc}{\contentsline {subsection}{\numberline {B}Action and generating functional}{2}{section*.6}\protected@file@percent }
\newlabel{eq:action}{{3}{2}{}{equation.1.3}{}}
\newlabel{eq:partition-function}{{5}{2}{}{equation.1.5}{}}
\@writefile{toc}{\contentsline {subsection}{\numberline {C}Auxiliary classical collective fields}{2}{section*.7}\protected@file@percent }
\citation{book:FetterWalecka}
\citation{Kleinert2011a}
\newlabel{eq:actionS0prime}{{7}{3}{}{equation.1.7}{}}
\newlabel{eq:Grassmann-com-G}{{8}{3}{}{equation.1.8}{}}
\newlabel{eq:free-propagator}{{9a}{3}{}{equation.1.9alph1}{}}
\@writefile{toc}{\contentsline {subsection}{\numberline {D}Construction of the effective classical action}{3}{section*.8}\protected@file@percent }
\@writefile{toc}{\contentsline {subsubsection}{\numberline {1}Definition of the reference state}{3}{section*.9}\protected@file@percent }
\newlabel{eq:propagator-to-GF}{{12}{3}{}{equation.1.12}{}}
\newlabel{eq:free-propagators}{{13}{3}{}{equation.1.13}{}}
\newlabel{sec:perturbation-theory}{{I.D.2}{3}{}{section*.10}{}}
\@writefile{toc}{\contentsline {subsubsection}{\numberline {2}Perturbation theory }{3}{section*.10}\protected@file@percent }
\newlabel{eq:expectation-value-densities}{{16}{3}{}{equation.1.16}{}}
\newlabel{eq:first-eff-action}{{17}{4}{}{equation.1.17}{}}
\newlabel{eq:eff-action-1st}{{18}{4}{}{equation.1.18}{}}
\newlabel{eq:fderiv-F1}{{19}{4}{}{equation.1.19}{}}
\newlabel{eq:density-propagators}{{19d}{4}{}{equation.1.19alph4}{}}
\@writefile{toc}{\contentsline {subsection}{\numberline {E}Functional derivatives of the classical action}{4}{section*.11}\protected@file@percent }
\@writefile{toc}{\contentsline {paragraph}{\numberline {}Linearity}{4}{section*.12}\protected@file@percent }
\@writefile{toc}{\contentsline {paragraph}{\numberline {}Product rule}{4}{section*.13}\protected@file@percent }
\@writefile{toc}{\contentsline {paragraph}{\numberline {}Chain rule}{4}{section*.14}\protected@file@percent }
\@writefile{toc}{\contentsline {subsubsection}{\numberline {1}Auxiliary contribution}{4}{section*.15}\protected@file@percent }
\@writefile{toc}{\contentsline {subsubsection}{\numberline {2}Two-body contribution}{4}{section*.16}\protected@file@percent }
\@writefile{toc}{\contentsline {subsubsection}{\numberline {3}Three-body contribution}{5}{section*.17}\protected@file@percent }
\@writefile{toc}{\contentsline {subsection}{\numberline {F}Extremization procedure with local interaction}{5}{section*.18}\protected@file@percent }
\newlabel{eq:localint-extremAction}{{26a}{5}{}{equation.1.26alph1}{}}
\@writefile{toc}{\contentsline {section}{\numberline {II}Beyond variational Hartree-Fock-Bogoliubov}{5}{section*.19}\protected@file@percent }
\@writefile{toc}{\contentsline {subsection}{\numberline {A}Partition function and effective action}{5}{section*.20}\protected@file@percent }
\newlabel{eq:eff-action-1st}{{28}{6}{}{equation.2.28}{}}
\@writefile{toc}{\contentsline {subsection}{\numberline {B}Schematic Wick's contraction}{6}{section*.21}\protected@file@percent }
\@writefile{toc}{\contentsline {subsection}{\numberline {C}Extremisation procedure}{6}{section*.22}\protected@file@percent }
\newlabel{eq:fderiv-F2}{{32}{6}{}{equation.2.32}{}}
\@writefile{toc}{\contentsline {section}{\numberline {III}Diagrammatic and Feynmann rules}{7}{section*.23}\protected@file@percent }
\@writefile{toc}{\contentsline {subsection}{\numberline {A}Second order diagrams}{7}{section*.24}\protected@file@percent }
\@writefile{toc}{\contentsline {subsection}{\numberline {B}First order of the perturbation}{9}{section*.25}\protected@file@percent }
\@writefile{toc}{\contentsline {subsubsection}{\numberline {1}First extremization procedure}{9}{section*.26}\protected@file@percent }
\newlabel{eq:first=extremization-F1}{{38}{9}{}{equation.3.38}{}}
\@writefile{toc}{\contentsline {subsubsection}{\numberline {2}Second extremization procedure}{9}{section*.27}\protected@file@percent }
\newlabel{eq:consistentEQorder1}{{39}{9}{}{equation.3.39}{}}
\@writefile{toc}{\contentsline {subsection}{\numberline {C}Second order in perturbation}{9}{section*.28}\protected@file@percent }
\@writefile{toc}{\contentsline {subsubsection}{\numberline {1}Reduction procedure}{10}{section*.29}\protected@file@percent }
\newlabel{eq:reduction-order2}{{42}{11}{}{equation.3.42}{}}
\@writefile{toc}{\contentsline {subsubsection}{\numberline {2}Determination of the density propagators}{11}{section*.30}\protected@file@percent }
\newlabel{eq:reduction-extrem-secondorder}{{43}{11}{}{equation.3.43}{}}
\citation{Ullrich1996a}
\citation{Ullrich1996a}
\newlabel{eq:deriv-propagators}{{44}{12}{}{equation.3.44}{}}
\newlabel{sec:gradient-exp}{{IV}{12}{}{section*.31}{}}
\@writefile{toc}{\contentsline {section}{\numberline {IV}Gradient expansion of the one-body Green's functions }{12}{section*.31}\protected@file@percent }
\citation{book:FetterWalecka}
\newlabel{eq:def-Lambda-op}{{48b}{13}{}{equation.4.48alph2}{}}
\@writefile{toc}{\contentsline {section}{\numberline {V}Application to a simplified model}{13}{section*.32}\protected@file@percent }
\@writefile{toc}{\contentsline {subsection}{\numberline {A}Effective action formalism and generating partition function}{13}{section*.33}\protected@file@percent }
\@writefile{toc}{\contentsline {subsubsection}{\numberline {1}Many-body Hamiltonian}{13}{section*.34}\protected@file@percent }
\@writefile{toc}{\contentsline {subsubsection}{\numberline {2}Action and generating functional}{13}{section*.35}\protected@file@percent }
\citation{book:NegeleOrland}
\citation{Kleinert2011a}
\@writefile{toc}{\contentsline {subsubsection}{\numberline {3}Auxiliary classical collective fields}{14}{section*.36}\protected@file@percent }
\@writefile{toc}{\contentsline {subsection}{\numberline {B}One-body Green's functions}{14}{section*.37}\protected@file@percent }
\newlabel{eq:def-Omega0}{{59}{14}{}{equation.5.59}{}}
\newlabel{eq:greenfunction-propagator}{{60}{14}{}{equation.5.60}{}}
\@writefile{toc}{\contentsline {subsubsection}{\numberline {1}Grandient expansion of the one-body Green's function}{14}{section*.38}\protected@file@percent }
\newlabel{eq:G0GE}{{64}{14}{}{equation.5.64}{}}
\@writefile{toc}{\contentsline {subsubsection}{\numberline {2}Functional derivative of the zero order effective action and generating one-body Green's function}{15}{section*.39}\protected@file@percent }
\newlabel{eq:GF-generated-by-Omega}{{65}{15}{}{equation.5.65}{}}
\@writefile{toc}{\contentsline {subsection}{\numberline {C}First order in perturbation: Hartree-Fock level}{15}{section*.40}\protected@file@percent }
\newlabel{eq:master-consisentent-HF}{{71a}{16}{}{equation.5.71alph1}{}}
\newlabel{eq:energy-HF}{{73}{16}{}{equation.5.73}{}}
\@writefile{toc}{\contentsline {section}{\numberline {VI}Effective action using the zero-order gradient expansion of the one-body Green's function: infinite mater study}{16}{section*.41}\protected@file@percent }
\@writefile{toc}{\contentsline {subsubsection}{\numberline {1}Solution of the auxiliary field at extremum using the zero-order gradient expansion of the one-body Green's function}{16}{section*.42}\protected@file@percent }
\newlabel{eq:iterative-rho0}{{75}{16}{}{equation.6.75}{}}
\@writefile{toc}{\contentsline {paragraph}{\numberline {a}First iteration --}{16}{section*.43}\protected@file@percent }
\@writefile{toc}{\contentsline {paragraph}{\numberline {b}Second iteration --}{17}{section*.44}\protected@file@percent }
\@writefile{toc}{\contentsline {paragraph}{\numberline {c}Recurence relation --}{17}{section*.45}\protected@file@percent }
\@writefile{toc}{\contentsline {subsubsection}{\numberline {2}Estimation of the zero-order effective action using the zero-order gradient expansion of the one-body Green's function: non-interacting system}{17}{section*.46}\protected@file@percent }
\newlabel{eq:adv-ret-GF-FG}{{88}{17}{}{equation.6.88}{}}
\@writefile{toc}{\contentsline {subsubsection}{\numberline {3}Estimation of the zero-order effective action using the zero-order gradient expansion of the one-body Green's function: infinite interacting system}{18}{section*.47}\protected@file@percent }
\@writefile{toc}{\contentsline {subsubsection}{\numberline {4}Application to the simplest contact interaction model}{18}{section*.48}\protected@file@percent }
\@writefile{lof}{\contentsline {figure}{\numberline {1}{\ignorespaces  Chemical potential as a function of the strength (or its inverse) of the contact interaction obtained at Hartree-Fock level (solid line), see text. The dotted line correspond to the low-density/weak-coupling regime. }}{18}{figure.1}\protected@file@percent }
\@writefile{toc}{\contentsline {section}{\numberline {VII}Effective action using the zero-order gradient expansion of the one-body Green's function for finite systems: local density approximation (Thomas-Fermi approximation)}{19}{section*.49}\protected@file@percent }
\@writefile{toc}{\contentsline {paragraph}{\numberline {a}First iteration --}{19}{section*.50}\protected@file@percent }
\@writefile{toc}{\contentsline {paragraph}{\numberline {b}Second iteration --}{19}{section*.51}\protected@file@percent }
\@writefile{toc}{\contentsline {paragraph}{\numberline {c}Recurence relation --}{19}{section*.52}\protected@file@percent }
\@writefile{toc}{\contentsline {section}{\numberline {VIII}Effective action using the second-order gradient expansion of the one-body Green's function for finite systems: beyond local density approximation}{19}{section*.53}\protected@file@percent }
\@writefile{toc}{\contentsline {subsection}{\numberline {A}Link with the density matrix expansion}{19}{section*.54}\protected@file@percent }
\@writefile{toc}{\contentsline {subsubsection}{\numberline {1}General discussion}{19}{section*.55}\protected@file@percent }
\newlabel{eq:gal-HF-auxField-infty}{{112}{21}{}{equation.8.112}{}}
\@writefile{toc}{\contentsline {subsubsection}{\numberline {2}Concept of the densiy matrix expanssion}{21}{section*.56}\protected@file@percent }
\newlabel{eq:obdm-local-kappa}{{120a}{21}{}{equation.8.120alph1}{}}
\newlabel{eq:dme-truncation}{{120c}{21}{}{equation.8.120alph3}{}}
\@writefile{toc}{\contentsline {section}{\numberline {IX}Beyond Hartree-Fock calculation: second order in perturbation}{22}{section*.57}\protected@file@percent }
\@writefile{toc}{\appendix }
\newlabel{app:convention-tranforms}{{A}{22}{}{section*.58}{}}
\@writefile{toc}{\contentsline {section}{\numberline {A}Fourier and Wigner transform conventions }{22}{section*.58}\protected@file@percent }
\@writefile{toc}{\contentsline {subsection}{\numberline {1}Change of variable convention}{22}{section*.59}\protected@file@percent }
\@writefile{toc}{\contentsline {paragraph}{\numberline {}Time}{22}{section*.60}\protected@file@percent }
\@writefile{toc}{\contentsline {paragraph}{\numberline {}Coordinate}{22}{section*.61}\protected@file@percent }
\@writefile{toc}{\contentsline {paragraph}{\numberline {}Frequency}{22}{section*.62}\protected@file@percent }
\@writefile{toc}{\contentsline {paragraph}{\numberline {}Momentum}{22}{section*.63}\protected@file@percent }
\@writefile{toc}{\contentsline {subsection}{\numberline {2}Fourier transform in the time-frequency domain}{22}{section*.64}\protected@file@percent }
\@writefile{toc}{\contentsline {subsection}{\numberline {3}Wigner transformation}{22}{section*.65}\protected@file@percent }
\@writefile{toc}{\contentsline {subsection}{\numberline {4}Specific integrals}{22}{section*.66}\protected@file@percent }
\@writefile{toc}{\contentsline {subsubsection}{\numberline {a}Constant function and Dirac distributions}{22}{section*.67}\protected@file@percent }
\@writefile{toc}{\contentsline {subsubsection}{\numberline {b}Heaviside distribution}{22}{section*.68}\protected@file@percent }
\newlabel{app:contour-int}{{B}{22}{}{section*.69}{}}
\@writefile{toc}{\contentsline {section}{\numberline {B}Contour integration }{22}{section*.69}\protected@file@percent }
\newlabel{app:contour-delta-prime}{{B.1}{23}{}{section*.70}{}}
\@writefile{toc}{\contentsline {subsection}{\numberline {1}Usful integral implicating Dirac and Heaviside distribution }{23}{section*.70}\protected@file@percent }
\newlabel{eq:contour-GF-gradient}{{B4}{23}{}{equation.B.4}{}}
\@writefile{toc}{\contentsline {section}{\numberline {C}Functional derivative}{23}{section*.71}\protected@file@percent }
\@writefile{toc}{\contentsline {paragraph}{\numberline {}Linearity}{23}{section*.72}\protected@file@percent }
\@writefile{toc}{\contentsline {paragraph}{\numberline {}Product rule}{23}{section*.73}\protected@file@percent }
\@writefile{toc}{\contentsline {paragraph}{\numberline {}Chain rule}{23}{section*.74}\protected@file@percent }
\newlabel{app:generated-GF}{{D}{23}{}{section*.75}{}}
\@writefile{toc}{\contentsline {section}{\numberline {D}Generated one-body Green's function }{23}{section*.75}\protected@file@percent }
\newlabel{eq:fderivOmega}{{D6}{24}{}{equation.D.6}{}}
\newlabel{eq:fderiv-FWmoG}{{D15}{24}{}{equation.D.15}{}}
\@writefile{toc}{\contentsline {subsection}{\numberline {1}Mathematical relation on matrix derivative}{24}{section*.76}\protected@file@percent }
\newlabel{app:SCHF-equation}{{E}{25}{}{section*.77}{}}
\@writefile{toc}{\contentsline {section}{\numberline {E}Self-consistent Hartree-Fock equation using the gradient expansion of the Green's functions }{25}{section*.77}\protected@file@percent }
\@writefile{toc}{\contentsline {paragraph}{\numberline {a}First iteration --}{25}{section*.78}\protected@file@percent }
\@writefile{toc}{\contentsline {paragraph}{\numberline {b}Recurrence relation --}{26}{section*.79}\protected@file@percent }
\newlabel{eq:gal-HF-auxField}{{E12}{26}{}{equation.E.12}{}}
\@writefile{toc}{\contentsline {subsection}{\numberline {1}Local density}{26}{section*.80}\protected@file@percent }
\@writefile{toc}{\contentsline {subsection}{\numberline {2}One-body density matrix expansion}{26}{section*.81}\protected@file@percent }
\@writefile{toc}{\contentsline {subsubsection}{\numberline {a}Link with the density matrix expansion}{26}{section*.82}\protected@file@percent }
\citation{Hergert2018a}
\@writefile{toc}{\contentsline {section}{\numberline {F}Include IM-SRG methods}{27}{section*.83}\protected@file@percent }
\@writefile{toc}{\contentsline {subsubsection}{\numberline {a}Similarity Renormalization Group}{27}{section*.84}\protected@file@percent }
\@writefile{toc}{\contentsline {subsubsection}{\numberline {b}In-Medium Similarity Renormalization Group}{27}{section*.85}\protected@file@percent }
\newlabel{eq:n-oredering2}{{F3a}{27}{}{equation.F.3alph1}{}}
\newlabel{eq:n-oredering4}{{F3b}{27}{}{equation.F.3alph2}{}}
\@writefile{toc}{\contentsline {subsubsection}{\numberline {c}Auxiliary classical collective fields with normal ordering}{28}{section*.86}\protected@file@percent }
\@writefile{toc}{\contentsline {section}{\numberline {G}Numerical aspects of gradient generalized non-linear multi-variable Fredholm integral equations}{}{section*.87}\protected@file@percent }
\bibcite{Kleinert2011a}{{1}{}{{}}{{}}}
\bibcite{book:FetterWalecka}{{2}{}{{}}{{}}}
\bibcite{book:NegeleOrland}{{3}{}{{}}{{}}}
\bibcite{Ullrich1996a}{{4}{}{{}}{{}}}
\bibcite{Hergert2018a}{{5}{}{{}}{{}}}
\bibdata{mainNotes}
\bibstyle{apsrmp4-1}
\citation{REVTEX41Control}
\citation{apsrmp41Control}
\providecommand\NAT@force@numbers{}\NAT@force@numbers
\@writefile{toc}{\contentsline {section}{\numberline {}References}{}{section*.88}\protected@file@percent }
\newlabel{LastBibItem}{{5}{}{}{section*.88}{}}
\newlabel{LastPage}{{}{}{}{}{}}
