\relax 
\providecommand\hyper@newdestlabel[2]{}
\providecommand\HyperFirstAtBeginDocument{\AtBeginDocument}
\HyperFirstAtBeginDocument{\ifx\hyper@anchor\@undefined
\global\let\oldcontentsline\contentsline
\gdef\contentsline#1#2#3#4{\oldcontentsline{#1}{#2}{#3}}
\global\let\oldnewlabel\newlabel
\gdef\newlabel#1#2{\newlabelxx{#1}#2}
\gdef\newlabelxx#1#2#3#4#5#6{\oldnewlabel{#1}{{#2}{#3}}}
\AtEndDocument{\ifx\hyper@anchor\@undefined
\let\contentsline\oldcontentsline
\let\newlabel\oldnewlabel
\fi}
\fi}
\global\let\hyper@last\relax 
\gdef\HyperFirstAtBeginDocument#1{#1}
\providecommand\HyField@AuxAddToFields[1]{}
\providecommand\HyField@AuxAddToCoFields[2]{}
\citation{Kleinert2011a}
\gdef \tocmax@section{17.5164pt}
\gdef \tocmax@subsection{14.35016pt}
\gdef \tocmax@subsubsection{12.5835pt}
\gdef \tocmax@paragraph{5.0pt}
\gdef \tocmax@appendix{5.0pt}
\gdef \tocmax@pagenum{8.5pt}
\newlabel{FirstPage}{{}{1}{}{section*.1}{}}
\@writefile{toc}{\contentsline {title}{Variational perturbation theory for \emph  {ab initio} density functional theory: \\ application to neutron drops with semi-realistic interaction}{1}{section*.2}\protected@file@percent }
\@writefile{toc}{\contentsline {abstract}{Abstract}{1}{section*.1}\protected@file@percent }
\@writefile{toc}{\tocdepth@munge}
\@writefile{toc}{\contentsline {section}{\numberline {}Contents}{1}{section*.3}\protected@file@percent }
\@writefile{toc}{\tocdepth@restore}
\@writefile{toc}{\contentsline {section}{\numberline {I}Article for neutron drops}{1}{section*.4}\protected@file@percent }
\citation{Bogner2011a}
\citation{Bhattacharyya2005a}
\citation{Kleinert2011a}
\citation{Bogner2011a}
\citation{book:FetterWalecka}
\@writefile{toc}{\contentsline {section}{\numberline {II}Preliminary results}{2}{section*.5}\protected@file@percent }
\@writefile{toc}{\contentsline {subsection}{\numberline {A}Effective action formalism and generating partition function}{2}{section*.6}\protected@file@percent }
\@writefile{toc}{\contentsline {subsubsection}{\numberline {1}Many-body Hamiltonian}{2}{section*.7}\protected@file@percent }
\citation{Bogner2011a}
\citation{Bhattacharyya2005a}
\citation{book:NegeleOrland}
\citation{Kleinert2011a}
\newlabel{eq:generic-2int}{{4}{3}{}{equation.2.4}{}}
\@writefile{toc}{\contentsline {subsubsection}{\numberline {2}Action and generating functional}{3}{section*.8}\protected@file@percent }
\@writefile{toc}{\contentsline {subsubsection}{\numberline {3}Auxiliary classical collective fields}{3}{section*.9}\protected@file@percent }
\@writefile{toc}{\contentsline {subsection}{\numberline {B}One-body Green's functions}{3}{section*.10}\protected@file@percent }
\newlabel{eq:def-Omega0}{{9}{3}{}{equation.2.9}{}}
\citation{Ullrich1996a}
\citation{Ullrich1996a}
\newlabel{eq:greenfunction-propagator}{{11}{4}{}{equation.2.11}{}}
\newlabel{sec:gradient-exp}{{II.C}{4}{}{section*.11}{}}
\@writefile{toc}{\contentsline {subsection}{\numberline {C}Wigner transform and gradient expansion of the one-body Green's functions }{4}{section*.11}\protected@file@percent }
\@writefile{toc}{\contentsline {subsubsection}{\numberline {1}Generalities on the Wgner transform}{4}{section*.12}\protected@file@percent }
\newlabel{eq:def-Lambda-op}{{14b}{4}{}{equation.2.14alph2}{}}
\@writefile{toc}{\contentsline {subsubsection}{\numberline {2}Grandient expansion of the one-body Green's function}{4}{section*.13}\protected@file@percent }
\newlabel{eq:G0GE}{{18}{4}{}{equation.2.18}{}}
\@writefile{toc}{\contentsline {subsubsection}{\numberline {3}Functional derivative of the zero order effective action and generating one-body Green's function}{5}{section*.14}\protected@file@percent }
\newlabel{eq:GF-generated-by-Omega}{{19}{5}{}{equation.2.19}{}}
\@writefile{toc}{\contentsline {section}{\numberline {III}First order in perturbation: Hartree-Fock level}{5}{section*.15}\protected@file@percent }
\newlabel{eq:expvalS2}{{22}{5}{}{equation.3.22}{}}
\newlabel{eq:master-consisentent-HF}{{25}{5}{}{equation.3.25}{}}
\newlabel{eq:HF-eff-action}{{26a}{5}{}{equation.3.26alph1}{}}
\newlabel{app:SCHF-equation}{{III.A}{5}{}{section*.16}{}}
\@writefile{toc}{\contentsline {subsection}{\numberline {A}Self-consistent Hartree-Fock equation using the gradient expansion of the Green's functions }{5}{section*.16}\protected@file@percent }
\newlabel{eq:schf-auxiliary}{{32}{6}{}{equation.3.32}{}}
\newlabel{eq:density-matrix-expansion-SCHF}{{33}{6}{}{equation.3.33}{}}
\newlabel{sec:expansion-obdm}{{III.B}{6}{}{section*.17}{}}
\@writefile{toc}{\contentsline {subsection}{\numberline {B}Gradient expansion of the density matrix and link with the density matrix expansion }{6}{section*.17}\protected@file@percent }
\@writefile{toc}{\contentsline {subsubsection}{\numberline {1}Local anisotropie of the Fermi surface}{6}{section*.18}\protected@file@percent }
\newlabel{eq:kappaF-def}{{35}{6}{}{equation.3.35}{}}
\newlabel{eq:anisotropy}{{40}{7}{}{equation.3.40}{}}
\newlabel{eq:Pn-functions}{{41}{7}{}{equation.3.41}{}}
\@writefile{toc}{\contentsline {subsubsection}{\numberline {2}Local effective mass and residual self-energy}{7}{section*.19}\protected@file@percent }
\newlabel{eq:effmass-def}{{44}{7}{}{equation.3.44}{}}
\newlabel{eq:fermi-momentum-def}{{46}{7}{}{equation.3.46}{}}
\@writefile{toc}{\contentsline {subsubsection}{\numberline {3}Inverse Wigner transform of the one-body density matrix}{7}{section*.20}\protected@file@percent }
\newlabel{eq:obdm-gal-exp}{{59}{7}{}{equation.3.59}{}}
\@writefile{toc}{\contentsline {subsubsection}{\numberline {4}Gradient angle dependance}{8}{section*.21}\protected@file@percent }
\@writefile{toc}{\contentsline {subsubsection}{\numberline {5}Local normal and kinetic densities}{8}{section*.22}\protected@file@percent }
\newlabel{eq:local-density}{{62}{8}{}{equation.3.62}{}}
\newlabel{eq:local-kin-density}{{63}{8}{}{equation.3.63}{}}
\newlabel{eq:local-ref-densities}{{68}{8}{}{equation.3.68}{}}
\@writefile{toc}{\contentsline {subsubsection}{\numberline {6}Exact expansion of the one-body density matrix in terms of the densities}{8}{section*.23}\protected@file@percent }
\newlabel{eq:obdm-expanded}{{71}{8}{}{equation.3.71}{}}
\@writefile{toc}{\contentsline {subsubsection}{\numberline {7}Density functional}{9}{section*.24}\protected@file@percent }
\newlabel{sec:KSDFT}{{IV}{9}{}{section*.25}{}}
\@writefile{toc}{\contentsline {section}{\numberline {IV}Density functional theory }{9}{section*.25}\protected@file@percent }
\newlabel{eq:adv-ret-GF-FG}{{77}{9}{}{equation.4.77}{}}
\newlabel{eq:ref-energy}{{81}{10}{}{equation.4.81}{}}
\newlabel{eq:KS-gsEnergy}{{83}{10}{}{equation.4.83}{}}
\@writefile{toc}{\contentsline {subsection}{\numberline {A}Non-interacting part, Hartree-Fock part, and total ground state energy}{10}{section*.26}\protected@file@percent }
\citation{book:Lipparini}
\@writefile{toc}{\contentsline {subsection}{\numberline {B}KS equations (without qp properties)}{11}{section*.27}\protected@file@percent }
\@writefile{toc}{\contentsline {subsubsection}{\numberline {1}Kinetic contribution}{11}{section*.28}\protected@file@percent }
\@writefile{toc}{\contentsline {subsubsection}{\numberline {2}External contribution}{11}{section*.29}\protected@file@percent }
\@writefile{toc}{\contentsline {subsubsection}{\numberline {3}Internal contribution}{11}{section*.30}\protected@file@percent }
\@writefile{toc}{\contentsline {subsubsection}{\numberline {4}Ground state energy as a density functional}{11}{section*.31}\protected@file@percent }
\@writefile{toc}{\contentsline {subsubsection}{\numberline {5}Kohn-Sham equations}{11}{section*.32}\protected@file@percent }
\newlabel{eq:sp-potential-KS}{{99b}{11}{}{equation.4.99alph2}{}}
\citation{book:Lipparini}
\@writefile{toc}{\contentsline {subsection}{\numberline {C}KS equations (with qp properties)}{12}{section*.33}\protected@file@percent }
\@writefile{toc}{\contentsline {subsubsection}{\numberline {1}Effective mass contribution}{12}{section*.34}\protected@file@percent }
\@writefile{toc}{\contentsline {subsubsection}{\numberline {2}Residual qp contribution}{12}{section*.35}\protected@file@percent }
\@writefile{toc}{\contentsline {subsubsection}{\numberline {3}Ground state energy as a density functional}{12}{section*.36}\protected@file@percent }
\@writefile{toc}{\contentsline {subsubsection}{\numberline {4}Kohn-Sham equations}{12}{section*.37}\protected@file@percent }
\newlabel{eq:sp-potential-KS}{{113b}{12}{}{equation.4.113alph2}{}}
\@writefile{toc}{\contentsline {subsection}{\numberline {D}Critical discusion}{12}{section*.38}\protected@file@percent }
\@writefile{toc}{\contentsline {section}{\numberline {V}VPT: resolution of HF}{13}{section*.39}\protected@file@percent }
\@writefile{toc}{\appendix }
\newlabel{app:2body-int}{{A}{14}{}{section*.40}{}}
\@writefile{toc}{\contentsline {section}{\numberline {A}Two-body interaction kernel }{14}{section*.40}\protected@file@percent }
\newlabel{eq:kernel-int-rspace-pq}{{A14}{14}{}{equation.A.14}{}}
\newlabel{eq:rho-r-space}{{A18}{14}{}{equation.A.18}{}}
\newlabel{eq:rho-phase-space}{{A19}{14}{}{equation.A.19}{}}
\@writefile{toc}{\contentsline {section}{\numberline {B}One-body density matrix}{15}{section*.41}\protected@file@percent }
\@writefile{toc}{\contentsline {subsection}{\numberline {1}Local functions}{15}{section*.42}\protected@file@percent }
\@writefile{toc}{\contentsline {subsubsection}{\numberline {a}The $f_i$ functions}{15}{section*.43}\protected@file@percent }
\@writefile{toc}{\contentsline {subsubsection}{\numberline {b}The $w_i$, auxiliary field, and effective mass functionals}{15}{section*.44}\protected@file@percent }
\@writefile{toc}{\contentsline {paragraph}{\numberline {a}Auxiliary field}{15}{section*.45}\protected@file@percent }
\@writefile{toc}{\contentsline {paragraph}{\numberline {b}Effective mass}{16}{section*.46}\protected@file@percent }
\@writefile{toc}{\contentsline {paragraph}{\numberline {c}$w_i$ function}{16}{section*.47}\protected@file@percent }
\@writefile{toc}{\contentsline {subsection}{\numberline {2}Non-local functions}{16}{section*.48}\protected@file@percent }
\@writefile{toc}{\contentsline {subsubsection}{\numberline {a}Angle average}{16}{section*.49}\protected@file@percent }
\@writefile{toc}{\contentsline {subsubsection}{\numberline {b}Angle average in coupling constants}{16}{section*.50}\protected@file@percent }
\newlabel{app:convention-tranforms}{{C}{17}{}{section*.51}{}}
\@writefile{toc}{\contentsline {section}{\numberline {C}Fourier and Wigner transform conventions }{17}{section*.51}\protected@file@percent }
\@writefile{toc}{\contentsline {subsection}{\numberline {1}Change of variable convention}{17}{section*.52}\protected@file@percent }
\@writefile{toc}{\contentsline {paragraph}{\numberline {}Time}{17}{section*.53}\protected@file@percent }
\@writefile{toc}{\contentsline {paragraph}{\numberline {}Coordinate}{17}{section*.54}\protected@file@percent }
\@writefile{toc}{\contentsline {paragraph}{\numberline {}Frequency}{17}{section*.55}\protected@file@percent }
\@writefile{toc}{\contentsline {paragraph}{\numberline {}Momentum}{17}{section*.56}\protected@file@percent }
\@writefile{toc}{\contentsline {subsection}{\numberline {2}Fourier transform in the time-frequency domain}{17}{section*.57}\protected@file@percent }
\@writefile{toc}{\contentsline {subsection}{\numberline {3}Wigner transformation}{17}{section*.58}\protected@file@percent }
\@writefile{toc}{\contentsline {subsection}{\numberline {4}Specific integrals}{17}{section*.59}\protected@file@percent }
\@writefile{toc}{\contentsline {subsubsection}{\numberline {a}Constant function and Dirac distributions}{17}{section*.60}\protected@file@percent }
\@writefile{toc}{\contentsline {subsubsection}{\numberline {b}Heaviside distribution}{17}{section*.61}\protected@file@percent }
\newlabel{app:contour-int}{{D}{17}{}{section*.62}{}}
\@writefile{toc}{\contentsline {section}{\numberline {D}Contour integration }{17}{section*.62}\protected@file@percent }
\newlabel{app:contour-delta-prime}{{D.1}{17}{}{section*.63}{}}
\@writefile{toc}{\contentsline {subsection}{\numberline {1}Usful integral implicating Dirac and Heaviside distribution }{17}{section*.63}\protected@file@percent }
\newlabel{eq:contour-GF-gradient}{{D4}{17}{}{equation.D.4}{}}
\bibcite{Kleinert2011a}{{1}{}{{}}{{}}}
\newlabel{app:functional-deriv}{{E}{18}{}{section*.64}{}}
\@writefile{toc}{\contentsline {section}{\numberline {E}Functional derivative }{18}{section*.64}\protected@file@percent }
\@writefile{toc}{\contentsline {paragraph}{\numberline {}Linearity}{18}{section*.65}\protected@file@percent }
\@writefile{toc}{\contentsline {paragraph}{\numberline {}Product rule}{18}{section*.66}\protected@file@percent }
\@writefile{toc}{\contentsline {paragraph}{\numberline {}Chain rule}{18}{section*.67}\protected@file@percent }
\newlabel{app:generated-GF}{{F}{18}{}{section*.68}{}}
\@writefile{toc}{\contentsline {section}{\numberline {F}Generated one-body Green's function }{18}{section*.68}\protected@file@percent }
\bibcite{Bogner2011a}{{2}{}{{}}{{}}}
\bibcite{Bhattacharyya2005a}{{3}{}{{}}{{}}}
\bibcite{book:FetterWalecka}{{4}{}{{}}{{}}}
\bibcite{book:NegeleOrland}{{5}{}{{}}{{}}}
\bibcite{Ullrich1996a}{{6}{}{{}}{{}}}
\bibcite{book:Lipparini}{{7}{}{{}}{{}}}
\bibdata{mainNotes}
\bibstyle{apsrmp4-1}
\citation{REVTEX41Control}
\citation{apsrmp41Control}
\providecommand\NAT@force@numbers{}\NAT@force@numbers
\@writefile{toc}{\contentsline {section}{\numberline {}References}{19}{section*.69}\protected@file@percent }
\newlabel{LastBibItem}{{7}{19}{}{section*.69}{}}
\newlabel{LastPage}{{}{19}{}{}{}}
