\relax 
\providecommand\hyper@newdestlabel[2]{}
\providecommand\HyperFirstAtBeginDocument{\AtBeginDocument}
\HyperFirstAtBeginDocument{\ifx\hyper@anchor\@undefined
\global\let\oldcontentsline\contentsline
\gdef\contentsline#1#2#3#4{\oldcontentsline{#1}{#2}{#3}}
\global\let\oldnewlabel\newlabel
\gdef\newlabel#1#2{\newlabelxx{#1}#2}
\gdef\newlabelxx#1#2#3#4#5#6{\oldnewlabel{#1}{{#2}{#3}}}
\AtEndDocument{\ifx\hyper@anchor\@undefined
\let\contentsline\oldcontentsline
\let\newlabel\oldnewlabel
\fi}
\fi}
\global\let\hyper@last\relax 
\gdef\HyperFirstAtBeginDocument#1{#1}
\providecommand\HyField@AuxAddToFields[1]{}
\providecommand\HyField@AuxAddToCoFields[2]{}
\newlabel{FirstPage}{{}{1}{}{section*.1}{}}
\@writefile{toc}{\contentsline {title}{MBPT constrained and BMF DFT: \nobreakspace  {}\nobreakspace  {}\nobreakspace  {}\nobreakspace  {}\nobreakspace  {}\nobreakspace  {}\nobreakspace  {}\nobreakspace  {}\nobreakspace  {}\nobreakspace  {}\nobreakspace  {}\nobreakspace  {}\nobreakspace  {}\nobreakspace  {}\nobreakspace  {}\nobreakspace  {}\nobreakspace  {}\nobreakspace  {}\nobreakspace  {}\nobreakspace  {}\nobreakspace  {}\nobreakspace  {}\nobreakspace  {}\nobreakspace  {}\nobreakspace  {}\nobreakspace  {}\nobreakspace  {}\nobreakspace  {}\nobreakspace  {}\nobreakspace  {}\nobreakspace  {}\nobreakspace  {}\nobreakspace  {}\nobreakspace  {}\nobreakspace  {}\nobreakspace  {}\nobreakspace  {}\nobreakspace  {}\nobreakspace  {}\nobreakspace  {}\nobreakspace  {}\nobreakspace  {}\nobreakspace  {}\nobreakspace  {}\nobreakspace  {}\nobreakspace  {}\nobreakspace  {}\nobreakspace  {}\nobreakspace  {}\nobreakspace  {}\nobreakspace  {}\nobreakspace  {}\nobreakspace  {} a step towards the EFT formalism of EDF}{1}{section*.2}}
\@writefile{toc}{\contentsline {abstract}{Abstract}{1}{section*.1}}
\@writefile{toc}{\tocdepth@munge}
\@writefile{toc}{\contentsline {section}{\numberline {}Contents}{1}{section*.3}}
\gdef \tocmax@section{23.8834pt}
\gdef \tocmax@subsection{14.22816pt}
\gdef \tocmax@subsubsection{12.5835pt}
\gdef \tocmax@paragraph{5.0pt}
\gdef \tocmax@appendix{5.0pt}
\gdef \tocmax@pagenum{8.5pt}
\@writefile{toc}{\tocdepth@restore}
\@writefile{toc}{\contentsline {section}{\numberline {I}Introduction}{2}{section*.4}}
\@writefile{toc}{\contentsline {section}{\numberline {II}Presentation of the problem}{2}{section*.5}}
\newlabel{eq:low-high-scale-conditions}{{1}{2}{}{equation.2.1}{}}
\newlabel{eq:expension-Eexact}{{2}{2}{}{equation.2.2}{}}
\citation{CHbook:EFTforDFT}
\citation{book:FetterWalecka,book:crossoverUG}
\citation{Adhikari2008a,Lacroix2016a}
\citation{Boulet2019a,BouletPhD}
\citation{Adhikari2008a,Lacroix2016a,Boulet2019a,BouletPhD}
\@writefile{toc}{\contentsline {subsection}{\numberline {A}Hartree-Fock or MBPT at first order}{3}{section*.6}}
\newlabel{eq:Elo-def}{{4}{3}{}{equation.2.4}{}}
\newlabel{eq:mel-H1_HF}{{5}{3}{}{equation.2.5}{}}
\newlabel{eq:mel-H1_lambda-small}{{5a}{3}{}{equation.2.5alph1}{}}
\newlabel{eq:mel-H1_infty}{{5b}{3}{}{equation.2.5alph2}{}}
\newlabel{eq:pade-H1}{{6}{3}{}{equation.2.6}{}}
\newlabel{H1LO-imca}{{7}{3}{}{equation.2.7}{}}
\@writefile{toc}{\contentsline {subsubsection}{\numberline {1}In-Medium Correlated approximation in low- and high-scale}{3}{section*.7}}
\newlabel{eq:imca-def}{{8}{3}{}{equation.2.8}{}}
\@writefile{toc}{\contentsline {subsubsection}{\numberline {2}In-Medium Correlated approximation with effective Hamiltonian}{3}{section*.8}}
\newlabel{eq:def-FLO}{{9a}{3}{}{equation.2.9alph1}{}}
\newlabel{eq:HF-E-constraints}{{9b}{3}{}{equation.2.9alph2}{}}
\newlabel{subsec:app-UG-I}{{II.B}{3}{}{section*.9}{}}
\@writefile{toc}{\contentsline {subsection}{\numberline {B}Direct application to ultracold atoms systems I }{3}{section*.9}}
\newlabel{eq:FermiGas-correspondence}{{11}{3}{}{equation.2.11}{}}
\newlabel{eq:ELO}{{12}{3}{}{equation.2.12}{}}
\citation{book:comput}
\@writefile{toc}{\contentsline {subsection}{\numberline {C}Treatment of the pole at HF level}{4}{section*.10}}
\newlabel{sec:MBPT2}{{III}{4}{}{section*.11}{}}
\@writefile{toc}{\contentsline {section}{\numberline {III}Extension of the MBPT with correlated effective interaction }{4}{section*.11}}
\@writefile{toc}{\contentsline {subsection}{\numberline {A}Second order in MBPT}{4}{section*.12}}
\newlabel{eq:NLO-E}{{13}{4}{}{equation.3.13}{}}
\newlabel{eq:MBPT2-low-scale}{{14a}{4}{}{equation.3.14alph1}{}}
\newlabel{eq:MBPT2-high-scale}{{14b}{4}{}{equation.3.14alph2}{}}
\@writefile{toc}{\contentsline {subsection}{\numberline {B}IMCA for the second order in MBPT}{4}{section*.13}}
\@writefile{toc}{\contentsline {subsubsection}{\numberline {1}Low-scale limit}{4}{section*.14}}
\newlabel{eq:loop-op-approx}{{16}{4}{}{equation.3.16}{}}
\@writefile{toc}{\contentsline {subsubsection}{\numberline {2}High scale limit}{4}{section*.15}}
\newlabel{eq:xi0-H0}{{17}{4}{}{equation.3.17}{}}
\citation{book:FetterWalecka}
\citation{book:crossoverUG}
\citation{Wellenhofer2018a}
\citation{Carlsson2012a}
\newlabel{eq:def-gpm}{{18b}{5}{}{equation.3.18alph2}{}}
\newlabel{eq:etaIMCA}{{19}{5}{}{equation.3.19}{}}
\@writefile{toc}{\contentsline {subsubsection}{\numberline {3}Effective Hamiltonian for second order in MBPT and associated ground state energy at NLO}{5}{section*.16}}
\newlabel{eq:effHNLO}{{21}{5}{}{equation.3.21}{}}
\newlabel{eq:ENLO-pm}{{24}{5}{}{equation.3.24}{}}
\newlabel{subsec:app-UG-II}{{III.C}{5}{}{section*.17}{}}
\@writefile{toc}{\contentsline {subsection}{\numberline {C}Direct application to ultracold atoms systems II }{5}{section*.17}}
\newlabel{eq:H1tile-NLO}{{25}{5}{}{equation.3.25}{}}
\newlabel{eq:ENLO}{{26}{5}{}{equation.3.26}{}}
\newlabel{EDF-in-EFT}{{IV}{5}{}{section*.18}{}}
\@writefile{toc}{\contentsline {section}{\numberline {IV}EDF as an EFT? }{5}{section*.18}}
\@writefile{lof}{\contentsline {figure}{\numberline {1}{\ignorespaces   Ground state energy of the spin-saturated Fermi gas $E^{\textsc  {n${\scriptstyle ^l}$lo}\xspace  }$ as a function of $-(a_sk_F)$ [top] and $-(a_sk_F)^{-1}$ [bottom]. The \textsc  {lo}\xspace  energy ($l=0$) is obtained from \textup  {\hbox {\mathsurround \z@ \normalfont  (\ignorespaces \ref  {eq:ELO}\unskip \@@italiccorr )}} and the \textsc  {nlo}\xspace  energy ($l=1$) is obtained with the real part of \textup  {\hbox {\mathsurround \z@ \normalfont  (\ignorespaces \ref  {eq:ENLO}\unskip \@@italiccorr )}} [red dashed line] using the correspondences of parameters for the dilute Fermi gas \textup  {\hbox {\mathsurround \z@ \normalfont  (\ignorespaces \ref  {eq:FermiGas-correspondence}\unskip \@@italiccorr )}}. $E_0$ correspond to the exact ground state energy of the non-interacting Fermi gas. For reference, the second [black solid line], third [black dasched line], and fourth [black dotted line] orders of the \textsc  {mbpt}\xspace  for dilute Fermi gas \citep  {Wellenhofer2018a} are shown as well as \emph  {ab initio}\xspace  calculation [black dots] of \citep  {Carlsson2012a}. }}{6}{figure.1}}
\newlabel{fig:hf-ENLO-UG}{{1}{6}{Ground state energy of the spin-saturated Fermi gas $E^{\nlon {l}}$ as a function of $-(a_sk_F)$ [top] and $-(a_sk_F)^{-1}$ [bottom]. The \lo energy ($l=0$) is obtained from \eqref {eq:ELO} and the \nlo energy ($l=1$) is obtained with the real part of \eqref {eq:ENLO} [red dashed line] using the correspondences of parameters for the dilute Fermi gas \eqref {eq:FermiGas-correspondence}. $E_0$ correspond to the exact ground state energy of the non-interacting Fermi gas. For reference, the second [black solid line], third [black dasched line], and fourth [black dotted line] orders of the \mbpt for dilute Fermi gas \cite {Wellenhofer2018a} are shown as well as \abi calculation [black dots] of \cite {Carlsson2012a}}{figure.1}{}}
\newlabel{eq:E-EFT}{{27}{6}{}{equation.4.27}{}}
\@writefile{lof}{\contentsline {figure}{\numberline {2}{\ignorespaces   Imaginary part of $E^{\textsc  {n${\scriptstyle ^l}$lo}\xspace  }$ given by \textup  {\hbox {\mathsurround \z@ \normalfont  (\ignorespaces \ref  {eq:ELO}\unskip \@@italiccorr )}} [blue solid line] and \textup  {\hbox {\mathsurround \z@ \normalfont  (\ignorespaces \ref  {eq:ENLO}\unskip \@@italiccorr )}} [red dashed line] as a function of $-(a_sk_F)$ [top] and $-(a_sk_F)^{-1}$ [bottom] using the correspondences of parameters for the dilute Fermi gas \textup  {\hbox {\mathsurround \z@ \normalfont  (\ignorespaces \ref  {eq:FermiGas-correspondence}\unskip \@@italiccorr )}}. }}{6}{figure.2}}
\newlabel{fig:hf-ImENLO-UG}{{2}{6}{Imaginary part of $E^{\nlon {l}}$ given by \eqref {eq:ELO} [blue solid line] and \eqref {eq:ENLO} [red dashed line] as a function of $-(a_sk_F)$ [top] and $-(a_sk_F)^{-1}$ [bottom] using the correspondences of parameters for the dilute Fermi gas \eqref {eq:FermiGas-correspondence}}{figure.2}{}}
\@writefile{lof}{\contentsline {figure}{\numberline {3}{\ignorespaces   Real part [solid line] and imaginary part [dashed line] of the error $\Delta ^{\textsc  {n${\scriptstyle ^l}$lo}\xspace  }$ given by \textup  {\hbox {\mathsurround \z@ \normalfont  (\ignorespaces \ref  {eq:errNlLO}\unskip \@@italiccorr )}} at \textsc  {lo}\xspace  ($l=0$) [blue lines] as a function of $-(a_sk_F)$ [top] and $-(a_sk_F)^{-1}$ [bottom] using the correspondences of parameters for the dilute Fermi gas \textup  {\hbox {\mathsurround \z@ \normalfont  (\ignorespaces \ref  {eq:FermiGas-correspondence}\unskip \@@italiccorr )}}. }}{6}{figure.3}}
\newlabel{fig:errLO-UG}{{3}{6}{Real part [solid line] and imaginary part [dashed line] of the error $\Delta ^{\nlon {l}}$ given by \eqref {eq:errNlLO} at \lo ($l=0$) [blue lines] as a function of $-(a_sk_F)$ [top] and $-(a_sk_F)^{-1}$ [bottom] using the correspondences of parameters for the dilute Fermi gas \eqref {eq:FermiGas-correspondence}}{figure.3}{}}
\citation{Wellenhofer2018a}
\citation{Carlsson2012a}
\@writefile{toc}{\contentsline {subsection}{\numberline {A}Estimation of the error}{7}{section*.19}}
\newlabel{eq:error-startingpoint}{{29}{7}{}{equation.4.29}{}}
\newlabel{eq:errNlLO}{{30}{7}{}{equation.4.30}{}}
\newlabel{eq:deltaLO}{{31}{7}{}{equation.4.31}{}}
\newlabel{eq:errorLO}{{32}{7}{}{equation.4.32}{}}
\newlabel{sec:removeIm}{{IV.B}{7}{}{section*.20}{}}
\@writefile{toc}{\contentsline {subsection}{\numberline {B}Remove the imaginary part }{7}{section*.20}}
\@writefile{lof}{\contentsline {figure}{\numberline {4}{\ignorespaces   Ground state energy of the spin-saturated Fermi gas at \textsc  {hf}\xspace  level $E^{\textsc  {lo}\xspace  }$ as a function of $-(a_sk_F)$ [top] and $-(a_sk_F)^{-1}$ [bottom] obtained with \textup  {\hbox {\mathsurround \z@ \normalfont  (\ignorespaces \ref  {eq:ELO}\unskip \@@italiccorr )}} [blue line] using the correspondences of parameters for the dilute Fermi gas \textup  {\hbox {\mathsurround \z@ \normalfont  (\ignorespaces \ref  {eq:FermiGas-correspondence}\unskip \@@italiccorr )}}. $E_0$ correspond to the exact ground state energy of the non-interacting Fermi gas and the filled blue area correspond to the error given by \textup  {\hbox {\mathsurround \z@ \normalfont  (\ignorespaces \ref  {eq:errorLO}\unskip \@@italiccorr )}}. For reference, the second [black solid line], third [black dasched line], and fourth [black dotted line] orders of the \textsc  {mbpt}\xspace  for dilute Fermi gas \citep  {Wellenhofer2018a} are shown as well as \emph  {ab initio}\xspace  calculation [black dots] of \citep  {Carlsson2012a}. }}{8}{figure.4}}
\newlabel{fig:hf-E-UG-err}{{4}{8}{Ground state energy of the spin-saturated Fermi gas at \hf level $E^{\lo }$ as a function of $-(a_sk_F)$ [top] and $-(a_sk_F)^{-1}$ [bottom] obtained with \eqref {eq:ELO} [blue line] using the correspondences of parameters for the dilute Fermi gas \eqref {eq:FermiGas-correspondence}. $E_0$ correspond to the exact ground state energy of the non-interacting Fermi gas and the filled blue area correspond to the error given by \eqref {eq:errorLO}. For reference, the second [black solid line], third [black dasched line], and fourth [black dotted line] orders of the \mbpt for dilute Fermi gas \cite {Wellenhofer2018a} are shown as well as \abi calculation [black dots] of \cite {Carlsson2012a}}{figure.4}{}}
\@writefile{toc}{\contentsline {section}{\numberline {V}Link with IMSRG}{8}{section*.21}}
\@writefile{toc}{\contentsline {subsection}{\numberline {A}Generate the effective Hamiltonian by unit transform?}{8}{section*.22}}
\newlabel{eq:def-unitary-transform-H1}{{35}{8}{}{equation.5.35}{}}
\newlabel{eq:deriv-Utransform}{{36}{8}{}{equation.5.36}{}}
\newlabel{eq:deriv-Utransform-2}{{37}{8}{}{equation.5.37}{}}
\newlabel{eq:deriv-Utransform-3}{{39}{8}{}{equation.5.39}{}}
\newlabel{eq:deriv-Utransform-4}{{40}{8}{}{equation.5.40}{}}
\@writefile{toc}{\contentsline {subsubsection}{\numberline {1}Using the full IMCA}{8}{section*.23}}
\newlabel{eq:deriv-fnllo}{{41}{8}{}{equation.5.41}{}}
\@writefile{toc}{\contentsline {subsubsection}{\numberline {2}Using the restricted IMCA}{9}{section*.24}}
\newlabel{eq:deriv-fnllo-rest}{{42}{9}{}{equation.5.42}{}}
\@writefile{toc}{\contentsline {subsection}{\numberline {B}Introducing the flow parameter formalism?}{9}{section*.25}}
\@writefile{toc}{\contentsline {subsection}{\numberline {C}Effective many-body state}{9}{section*.26}}
\newlabel{sec:thirdMBPT}{{VI}{9}{}{section*.27}{}}
\@writefile{toc}{\contentsline {section}{\numberline {VI}Convergence of the method: discussion on the third order extended MBPT with constraints }{9}{section*.27}}
\newlabel{eq:effHNlLO}{{46}{9}{}{equation.6.46}{}}
\citation{Wellenhofer2018a}
\citation{Bulgac2005a}
\citation{Wellenhofer2018a}
\citation{Carlsson2012a}
\@writefile{toc}{\contentsline {subsection}{\numberline {A}IMCA of the loop opperator}{10}{section*.28}}
\@writefile{toc}{\contentsline {subsection}{\numberline {B}Simplified method in the high-scale IMCA}{10}{section*.29}}
\newlabel{eq:H1tile-N2LO}{{51a}{10}{}{equation.6.51alph1}{}}
\newlabel{eq:EGSnnlo}{{52}{10}{}{equation.6.52}{}}
\@writefile{toc}{\contentsline {section}{\numberline {VII}Mani-body wave functions}{10}{section*.30}}
\@writefile{lof}{\contentsline {figure}{\numberline {5}{\ignorespaces   Ground state energy of the spin-saturated Fermi gas $E^{\textsc  {n${\scriptstyle ^l}$lo}\xspace  }$ as a function of $-(a_sk_F)$ [top] and $-(a_sk_F)^{-1}$ [bottom]. The \textsc  {lo}\xspace  energy ($l=0$) is obtained from \textup  {\hbox {\mathsurround \z@ \normalfont  (\ignorespaces \ref  {eq:ELO}\unskip \@@italiccorr )}} and the \textsc  {nlo}\xspace  energy ($l=1$) is obtained with the real part of \textup  {\hbox {\mathsurround \z@ \normalfont  (\ignorespaces \ref  {eq:ENLO}\unskip \@@italiccorr )}} [red dashed line], and the \textsc  {n${\scriptstyle ^2}$lo}\xspace  energy ($l=2$) is obtained by one solution of \textup  {\hbox {\mathsurround \z@ \normalfont  (\ignorespaces \ref  {eq:EGSnnlo}\unskip \@@italiccorr )}} (and removing the imaginary part) [green dot-dashed line] using the correspondences of parameters for the dilute Fermi gas. $E_0$ correspond to the exact ground state energy of the non-interacting Fermi gas. For reference, the second [black solid line], third [black dasched line], and fourth [black dotted line] orders of the \textsc  {mbpt}\xspace  for dilute Fermi gas \citep  {Wellenhofer2018a} are shown as well as \emph  {ab initio}\xspace  calculation [black dots] of \citep  {Carlsson2012a}. }}{10}{figure.5}}
\newlabel{fig:hf-E2NLO-UG}{{5}{10}{Ground state energy of the spin-saturated Fermi gas $E^{\nlon {l}}$ as a function of $-(a_sk_F)$ [top] and $-(a_sk_F)^{-1}$ [bottom]. The \lo energy ($l=0$) is obtained from \eqref {eq:ELO} and the \nlo energy ($l=1$) is obtained with the real part of \eqref {eq:ENLO} [red dashed line], and the \nnlo energy ($l=2$) is obtained by one solution of \eqref {eq:EGSnnlo} (and removing the imaginary part) [green dot-dashed line] using the correspondences of parameters for the dilute Fermi gas. $E_0$ correspond to the exact ground state energy of the non-interacting Fermi gas. For reference, the second [black solid line], third [black dasched line], and fourth [black dotted line] orders of the \mbpt for dilute Fermi gas \cite {Wellenhofer2018a} are shown as well as \abi calculation [black dots] of \cite {Carlsson2012a}}{figure.5}{}}
\@writefile{lof}{\contentsline {figure}{\numberline {6}{\ignorespaces   Same as figure \ref  {fig:hf-E2NLO-UGzoom} for different range of $(a_sk_F)$. }}{11}{figure.6}}
\newlabel{fig:hf-E2NLO-UGzoom}{{6}{11}{Same as figure \ref {fig:hf-E2NLO-UGzoom} for different range of $(a_sk_F)$}{figure.6}{}}
\citation{Richardson1964a}
\newlabel{sec:applicationRPH}{{VIII}{12}{}{section*.31}{}}
\@writefile{toc}{\contentsline {section}{\numberline {VIII}Application to the Richardson pairing Hamiltonian I }{12}{section*.31}}
\@writefile{lof}{\contentsline {figure}{\numberline {7}{\ignorespaces  Configuration (Slater determinant) of the \textsc  {rph}\xspace  discussed in the text with $A=4$ and $l=4$ ($N_l =2l$). On the left is represented the ground-state and zero-particle-zero-hole excitation ($0p-0h$), the four central diagrams correspond to the $2p-2h$ excitations, and the right diagrams correspond to the $4p-4h$ excitation. }}{12}{figure.7}}
\newlabel{fig:configurationRPH}{{7}{12}{Configuration (Slater determinant) of the \rph discussed in the text with $A=4$ and $l=4$ ($N_l =2l$). On the left is represented the ground-state and zero-particle-zero-hole excitation ($0p-0h$), the four central diagrams correspond to the $2p-2h$ excitations, and the right diagrams correspond to the $4p-4h$ excitation}{figure.7}{}}
\@writefile{lot}{\contentsline {table}{\numberline {I}{\ignorespaces Energy of the \ensuremath  { \mathrm  {sp} }\xspace  states for the \textsc  {rph}\xspace  discussed in the text labeled by the quantum number $p$ and the spin-projection on the quantification axis $\sigma $.}}{12}{table.1}}
\newlabel{tab:RPH-quantum-number}{{I}{12}{Energy of the \sp states for the \rph discussed in the text labeled by the quantum number $p$ and the spin-projection on the quantification axis $\sigma $}{table.1}{}}
\@writefile{toc}{\contentsline {subsection}{\numberline {A}Exact ground-state energy}{12}{section*.32}}
\newlabel{eq:RPH-correspondence-high}{{56}{12}{}{equation.8.56}{}}
\@writefile{toc}{\contentsline {subsection}{\numberline {B}Hartree-Fock and MBPT solutions}{12}{section*.33}}
\@writefile{toc}{\contentsline {subsubsection}{\numberline {1}Hartree-Fock}{12}{section*.34}}
\citation{book:comput}
\citation{book:comput}
\citation{book:comput}
\citation{book:comput}
\@writefile{toc}{\contentsline {subsubsection}{\numberline {2}MBPT results}{13}{section*.35}}
\newlabel{eq:RPH-correspondence-low}{{60}{13}{}{equation.8.60}{}}
\@writefile{toc}{\contentsline {subsection}{\numberline {C}MBPT using high-scale limit constraints}{13}{section*.36}}
\@writefile{lof}{\contentsline {figure}{\numberline {8}{\ignorespaces   Correlation energy of the \textsc  {rph}\xspace  as a function of the strength parameter $g$. The \textsc  {lo}\xspace  energy ($l=0$) is obtained from \textup  {\hbox {\mathsurround \z@ \normalfont  (\ignorespaces \ref  {eq:ELO}\unskip \@@italiccorr )}} and the \textsc  {nlo}\xspace  energy ($l=1$) is obtained with the real part of \textup  {\hbox {\mathsurround \z@ \normalfont  (\ignorespaces \ref  {eq:ENLO}\unskip \@@italiccorr )}} [red dashed line] using the correspondences of parameters for the Richardson pairing Hamiltonian \textup  {\hbox {\mathsurround \z@ \normalfont  (\ignorespaces \ref  {eq:RPH-correspondence-high}\unskip \@@italiccorr )}} and \textup  {\hbox {\mathsurround \z@ \normalfont  (\ignorespaces \ref  {eq:RPH-correspondence-low}\unskip \@@italiccorr )}}. The black dots correspond to the exact solution, the solid black line to the \textsc  {mbpt}\xspace  results at second order, the dashed black line to the \textsc  {mbpt}\xspace  results at third order, and the black dotted line corresponds to the \textsc  {mbpt}\xspace  results at fourth order of \citep  {book:comput}. }}{13}{figure.8}}
\newlabel{fig:MBPT-E-RPH-approx}{{8}{13}{Correlation energy of the \rph as a function of the strength parameter $g$. The \lo energy ($l=0$) is obtained from \eqref {eq:ELO} and the \nlo energy ($l=1$) is obtained with the real part of \eqref {eq:ENLO} [red dashed line] using the correspondences of parameters for the Richardson pairing Hamiltonian \eqref {eq:RPH-correspondence-high} and \eqref {eq:RPH-correspondence-low}. The black dots correspond to the exact solution, the solid black line to the \mbpt results at second order, the dashed black line to the \mbpt results at third order, and the black dotted line corresponds to the \mbpt results at fourth order of \cite {book:comput}}{figure.8}{}}
\@writefile{lof}{\contentsline {figure}{\numberline {9}{\ignorespaces   Ground state energy of the Richardson pairing Hamiltonian $E^{\textsc  {n${\scriptstyle ^l}$lo}\xspace  }$ as a function of $-g$ [top] and $-g^{-1}$ [bottom]. The \textsc  {lo}\xspace  energy ($l=0$) is obtained from \textup  {\hbox {\mathsurround \z@ \normalfont  (\ignorespaces \ref  {eq:ELO}\unskip \@@italiccorr )}} and the \textsc  {nlo}\xspace  energy ($l=1$) is obtained with the real part of \textup  {\hbox {\mathsurround \z@ \normalfont  (\ignorespaces \ref  {eq:ENLO}\unskip \@@italiccorr )}} [red dashed line] using the correspondences of parameters for the Richardson pairing Hamiltonian \textup  {\hbox {\mathsurround \z@ \normalfont  (\ignorespaces \ref  {eq:RPH-correspondence-high}\unskip \@@italiccorr )}} and \textup  {\hbox {\mathsurround \z@ \normalfont  (\ignorespaces \ref  {eq:RPH-correspondence-low}\unskip \@@italiccorr )}}. For reference, the second [black solid line], third [black dasched line], and fourth [black dotted line] orders of the \textsc  {mbpt}\xspace  (Rayleigh-Schroedinger perturbation) for the Richardson pairing Hamiltonian \citep  {book:comput} are shown as well as exact result calculation [black dots]. }}{14}{figure.9}}
\newlabel{fig:RPH-large-scale}{{9}{14}{Ground state energy of the Richardson pairing Hamiltonian $E^{\nlon {l}}$ as a function of $-g$ [top] and $-g^{-1}$ [bottom]. The \lo energy ($l=0$) is obtained from \eqref {eq:ELO} and the \nlo energy ($l=1$) is obtained with the real part of \eqref {eq:ENLO} [red dashed line] using the correspondences of parameters for the Richardson pairing Hamiltonian \eqref {eq:RPH-correspondence-high} and \eqref {eq:RPH-correspondence-low}. For reference, the second [black solid line], third [black dasched line], and fourth [black dotted line] orders of the \mbpt (Rayleigh-Schroedinger perturbation) for the Richardson pairing Hamiltonian \cite {book:comput} are shown as well as exact result calculation [black dots]}{figure.9}{}}
\@writefile{lof}{\contentsline {figure}{\numberline {10}{\ignorespaces   Ground state energy of the Richardson pairing Hamiltonian $E^{\textsc  {lo}\xspace  }$ as a function of $-g$ [top] and $-g^{-1}$ [bottom] obtained from \textup  {\hbox {\mathsurround \z@ \normalfont  (\ignorespaces \ref  {eq:ELO}\unskip \@@italiccorr )}} using the correspondences of parameters for the Richardson pairing Hamiltonian \textup  {\hbox {\mathsurround \z@ \normalfont  (\ignorespaces \ref  {eq:RPH-correspondence-high}\unskip \@@italiccorr )}} and \textup  {\hbox {\mathsurround \z@ \normalfont  (\ignorespaces \ref  {eq:RPH-correspondence-low}\unskip \@@italiccorr )}}. The filled blue area correspond to the error given by \textup  {\hbox {\mathsurround \z@ \normalfont  (\ignorespaces \ref  {eq:errorLO}\unskip \@@italiccorr )}}. For reference, the second [black solid line], third [black dasched line], and fourth [black dotted line] orders of the \textsc  {mbpt}\xspace  (Rayleigh-Schroedinger perturbation) for the Richardson pairing Hamiltonian \citep  {book:comput} are shown as well as exact result calculation [black dots]. }}{14}{figure.10}}
\newlabel{fig:RPH-large-scale-errorLO}{{10}{14}{Ground state energy of the Richardson pairing Hamiltonian $E^{\lo }$ as a function of $-g$ [top] and $-g^{-1}$ [bottom] obtained from \eqref {eq:ELO} using the correspondences of parameters for the Richardson pairing Hamiltonian \eqref {eq:RPH-correspondence-high} and \eqref {eq:RPH-correspondence-low}. The filled blue area correspond to the error given by \eqref {eq:errorLO}. For reference, the second [black solid line], third [black dasched line], and fourth [black dotted line] orders of the \mbpt (Rayleigh-Schroedinger perturbation) for the Richardson pairing Hamiltonian \cite {book:comput} are shown as well as exact result calculation [black dots]}{figure.10}{}}
\@writefile{toc}{\contentsline {section}{\numberline {IX}Generalization of the limiting high-scale constraint}{15}{section*.37}}
\@writefile{toc}{\contentsline {subsection}{\numberline {A}Results with finite constraints}{15}{section*.38}}
\newlabel{eq:energy-exp-gal}{{61}{15}{}{equation.9.61}{}}
\newlabel{eq:HLOmulti}{{62}{15}{}{equation.9.62}{}}
\newlabel{eq:energy-exp-gal2}{{63}{15}{}{equation.9.63}{}}
\@writefile{toc}{\contentsline {subsubsection}{\numberline {1}Multi-constrained IMCA at HF level}{15}{section*.39}}
\newlabel{eq:HLO-discrete}{{64}{15}{}{equation.9.64}{}}
\@writefile{toc}{\contentsline {subsubsection}{\numberline {2}Effective interaction at higher orders}{15}{section*.40}}
\newlabel{eq:galeffHnNlLO}{{65}{15}{}{equation.9.65}{}}
\newlabel{eq:energyRPH-const-finite}{{66}{15}{}{equation.9.66}{}}
\citation{book:comput}
\@writefile{lof}{\contentsline {figure}{\numberline {11}{\ignorespaces   Ground state energy of the Richardson pairing Hamiltonian $E^{\textsc  {n${\scriptstyle ^l}$lo}\xspace  }$ given by \textup  {\hbox {\mathsurround \z@ \normalfont  (\ignorespaces \ref  {eq:energyRPH-const-finite}\unskip \@@italiccorr )}} as a function of $-g$ using a constraint at $-g_c = 1, 0.5,0.25,0.1$. In each plot, the \textsc  {lo}\xspace  energy ($l=0$) [blue solid line] , the \textsc  {nlo}\xspace  energy ($l=1$) [red dashed line] and the \textsc  {n${\scriptstyle ^2}$lo}\xspace  energy ($l=2$) [green dotted line] are given and compared to the exact result [black dots]. }}{16}{figure.11}}
\newlabel{fig:RPH-large-scale-lc1p00}{{11}{16}{Ground state energy of the Richardson pairing Hamiltonian $E^{\nlon {l}}$ given by \eqref {eq:energyRPH-const-finite} as a function of $-g$ using a constraint at $-g_c = 1, 0.5,0.25,0.1$. In each plot, the \lo energy ($l=0$) [blue solid line] , the \nlo energy ($l=1$) [red dashed line] and the \nnlo energy ($l=2$) [green dotted line] are given and compared to the exact result [black dots]}{figure.11}{}}
\@writefile{lof}{\contentsline {figure}{\numberline {12}{\ignorespaces   Relative error at $\lambda = 1$ as a function of the constraint $\lambda _c$ associated to the \ensuremath  { \mathrm  {gs} }\xspace  energy $E^{\textsc  {n${\scriptstyle ^l}$lo}\xspace  }$ given by \textup  {\hbox {\mathsurround \z@ \normalfont  (\ignorespaces \ref  {eq:energyRPH-const-finite}\unskip \@@italiccorr )}} for $l=0,1,2$ in the case of the pairing Hamiltonian. }}{17}{figure.12}}
\newlabel{fig:RPH-large-scale-lcErr}{{12}{17}{Relative error at $\lambda = 1$ as a function of the constraint $\lambda _c$ associated to the \gs energy $E^{\nlon {l}}$ given by \eqref {eq:energyRPH-const-finite} for $l=0,1,2$ in the case of the pairing Hamiltonian}{figure.12}{}}
\@writefile{lof}{\contentsline {figure}{\numberline {13}{\ignorespaces   Ground state energy of the Richardson pairing Hamiltonian $E^{\textsc  {n${\scriptstyle ^l}$lo}\xspace  }$ given by \textup  {\hbox {\mathsurround \z@ \normalfont  (\ignorespaces \ref  {eq:energyRPH-const-finite}\unskip \@@italiccorr )}} as a function of $-g$ using a constraint at $-g_c = 1, 0.5,0.25,0.1$. In each plot, the \textsc  {lo}\xspace  energy ($l=0$) [blue solid line] , the \textsc  {nlo}\xspace  energy ($l=1$) [red dashed line] and the \textsc  {n${\scriptstyle ^2}$lo}\xspace  energy ($l=2$) [green dotted line] are given and compared to the exact result [black dots]. }}{18}{figure.13}}
\newlabel{fig:RPH-large-scale-lc1p00b}{{13}{18}{Ground state energy of the Richardson pairing Hamiltonian $E^{\nlon {l}}$ given by \eqref {eq:energyRPH-const-finite} as a function of $-g$ using a constraint at $-g_c = 1, 0.5,0.25,0.1$. In each plot, the \lo energy ($l=0$) [blue solid line] , the \nlo energy ($l=1$) [red dashed line] and the \nnlo energy ($l=2$) [green dotted line] are given and compared to the exact result [black dots]}{figure.13}{}}
\@writefile{lof}{\contentsline {figure}{\numberline {14}{\ignorespaces   Ground state energy of the Richardson pairing Hamiltonian $E^{\textsc  {n${\scriptstyle ^l}$lo}\xspace  }$ as a function of $-g$ [top] and $-g^{-1}$ [bottom]. The \textsc  {lo}\xspace  energy ($l=0$) is obtained from \textup  {\hbox {\mathsurround \z@ \normalfont  (\ignorespaces \ref  {eq:ELO}\unskip \@@italiccorr )}} and the \textsc  {nlo}\xspace  energy ($l=1$) is obtained with the real part of \textup  {\hbox {\mathsurround \z@ \normalfont  (\ignorespaces \ref  {eq:ENLO}\unskip \@@italiccorr )}} [red dashed line] using the correspondences of parameters for the Richardson pairing Hamiltonian \textup  {\hbox {\mathsurround \z@ \normalfont  (\ignorespaces \ref  {eq:RPH-correspondence-high}\unskip \@@italiccorr )}} and \textup  {\hbox {\mathsurround \z@ \normalfont  (\ignorespaces \ref  {eq:RPH-correspondence-low}\unskip \@@italiccorr )}}. For reference, the second [black solid line], third [black dasched line], and fourth [black dotted line] orders of the \textsc  {mbpt}\xspace  (Rayleigh-Schroedinger perturbation) for the Richardson pairing Hamiltonian \citep  {book:comput} are shown as well as exact result calculation [black dots]. }}{19}{figure.14}}
\newlabel{fig:RPH-large-scale-lcErrb}{{14}{19}{Ground state energy of the Richardson pairing Hamiltonian $E^{\nlon {l}}$ as a function of $-g$ [top] and $-g^{-1}$ [bottom]. The \lo energy ($l=0$) is obtained from \eqref {eq:ELO} and the \nlo energy ($l=1$) is obtained with the real part of \eqref {eq:ENLO} [red dashed line] using the correspondences of parameters for the Richardson pairing Hamiltonian \eqref {eq:RPH-correspondence-high} and \eqref {eq:RPH-correspondence-low}. For reference, the second [black solid line], third [black dasched line], and fourth [black dotted line] orders of the \mbpt (Rayleigh-Schroedinger perturbation) for the Richardson pairing Hamiltonian \cite {book:comput} are shown as well as exact result calculation [black dots]}{figure.14}{}}
\citation{book:comput}
\citation{book:comput}
\newlabel{sec:asymEOS}{{X}{20}{}{section*.41}{}}
\@writefile{toc}{\contentsline {section}{\numberline {X}Application to the asymmetric nuclear matter equation of state }{20}{section*.41}}
\newlabel{eq:mel-H1_lambda-finite}{{70}{20}{}{equation.10.70}{}}
\@writefile{toc}{\contentsline {subsection}{\numberline {A}Application to the asymmetric nuclear matter equation of state at Hartree-Fock level}{20}{section*.42}}
\@writefile{toc}{\contentsline {section}{\numberline {XI}Application to the Richardson pairing Hamiltonian II}{20}{section*.43}}
\newlabel{HLOrph-at1}{{76}{20}{}{equation.11.76}{}}
\@writefile{toc}{\contentsline {section}{\numberline {XII}Application to density dependent Skyrme parameters}{20}{section*.44}}
\citation{Boulet2019a,BouletPhD}
\citation{BouletPhD}
\@writefile{lof}{\contentsline {figure}{\numberline {15}{\ignorespaces   Correlation energy of the \textsc  {rph}\xspace  as a function of the strength parameter $g$. The \textsc  {lo}\xspace  energy ($l=0$) is obtained from \textup  {\hbox {\mathsurround \z@ \normalfont  (\ignorespaces \ref  {HLOrph-at1}\unskip \@@italiccorr )}} using the correspondences of parameters for the Richardson pairing Hamiltonian given in the text using the constraint at $g=1$. The green dashed line correspond to the same results but constraining now the effective Hamiltonian at $g=0.12$. The black dots correspond to the exact solution, the solid black line to the \textsc  {mbpt}\xspace  results at second order, the dashed black line to the \textsc  {mbpt}\xspace  results at third order, and the black dotted line corresponds to the \textsc  {mbpt}\xspace  results at fourth order of \citep  {book:comput}. }}{21}{figure.15}}
\newlabel{fig:MBPT-E-RPH-approx-at1}{{15}{21}{Correlation energy of the \rph as a function of the strength parameter $g$. The \lo energy ($l=0$) is obtained from \eqref {HLOrph-at1} using the correspondences of parameters for the Richardson pairing Hamiltonian given in the text using the constraint at $g=1$. The green dashed line correspond to the same results but constraining now the effective Hamiltonian at $g=0.12$. The black dots correspond to the exact solution, the solid black line to the \mbpt results at second order, the dashed black line to the \mbpt results at third order, and the black dotted line corresponds to the \mbpt results at fourth order of \cite {book:comput}}{figure.15}{}}
\@writefile{toc}{\contentsline {section}{\numberline {XIII}Application to single-particle potential of ultracold atoms}{21}{section*.45}}
\@writefile{lof}{\contentsline {figure}{\numberline {16}{\ignorespaces   Ground state energy of the Richardson pairing Hamiltonian $E^{\textsc  {lo}\xspace  }$ as a function of $-g$ [top] and $-g^{-1}$ [bottom] obtained from \textup  {\hbox {\mathsurround \z@ \normalfont  (\ignorespaces \ref  {HLOrph-at1}\unskip \@@italiccorr )}} using the correspondences of parameters for the Richardson pairing Hamiltonian given in the text using the constraint at $g=1$. The green dashed line correspond to the same results but constraining now the effective Hamiltonian at $g=0.12$. For reference, the second [black solid line], third [black dasched line], and fourth [black dotted line] orders of the \textsc  {mbpt}\xspace  (Rayleigh-Schroedinger perturbation) for the Richardson pairing Hamiltonian \citep  {book:comput} are shown as well as exact result calculation [black dots]. }}{21}{figure.16}}
\newlabel{fig:RPH-large-scale-at1}{{16}{21}{Ground state energy of the Richardson pairing Hamiltonian $E^{\lo }$ as a function of $-g$ [top] and $-g^{-1}$ [bottom] obtained from \eqref {HLOrph-at1} using the correspondences of parameters for the Richardson pairing Hamiltonian given in the text using the constraint at $g=1$. The green dashed line correspond to the same results but constraining now the effective Hamiltonian at $g=0.12$. For reference, the second [black solid line], third [black dasched line], and fourth [black dotted line] orders of the \mbpt (Rayleigh-Schroedinger perturbation) for the Richardson pairing Hamiltonian \cite {book:comput} are shown as well as exact result calculation [black dots]}{figure.16}{}}
\newlabel{sec:gal-2param}{{XIV}{22}{}{section*.46}{}}
\@writefile{toc}{\contentsline {section}{\numberline {XIV}Extension of the method to general systems }{22}{section*.46}}
\@writefile{toc}{\contentsline {subsection}{\numberline {A}General formalism}{22}{section*.47}}
\newlabel{eq:expension-Eexact2}{{79a}{22}{}{equation.14.79alph1}{}}
\@writefile{toc}{\contentsline {subsubsection}{\numberline {1}Low-scale limits}{22}{section*.48}}
\newlabel{eq:Elo2-def}{{82}{22}{}{equation.14.82}{}}
\newlabel{eq:lscale-lambdamu}{{83}{22}{}{equation.14.83}{}}
\newlabel{eq:mel-H1_lambdamu-small}{{83a}{22}{}{equation.14.83alph1}{}}
\newlabel{eq:mel-H1_mulambda-small}{{83b}{22}{}{equation.14.83alph2}{}}
\@writefile{toc}{\contentsline {subsubsection}{\numberline {2}High-scale limits}{22}{section*.49}}
\newlabel{eq:mel-H1_lambdamu-high}{{85}{22}{}{equation.14.85}{}}
\@writefile{toc}{\contentsline {subsubsection}{\numberline {3}Mixed low- and high-scale limits}{22}{section*.50}}
\newlabel{eq:mel-H1_lambda-small-mu}{{86a}{22}{}{equation.14.86alph1}{}}
\newlabel{eq:mel-H1_mu-small-lambda}{{86b}{22}{}{equation.14.86alph2}{}}
\@writefile{toc}{\contentsline {subsubsection}{\numberline {4}Hatree-Fock constraints}{22}{section*.51}}
\newlabel{eq:pade2-H1}{{87}{22}{}{equation.14.87}{}}
\citation{BouletPhD}
\citation{Schwenk2005a}
\citation{Forbes2011a,Forbes2012a}
\citation{Schwenk2005a}
\citation{Schonenberg2017a}
\@writefile{lof}{\contentsline {figure}{\numberline {17}{\ignorespaces   Ground state energy of the spin-saturated unitary Fermi gas ($|a_sk_F| = \infty $) at \textsc  {hf}\xspace  level $E^{\textsc  {lo}\xspace  }$ as a function of $(r_sk_F)$ obtained with \textup  {\hbox {\mathsurround \z@ \normalfont  (\ignorespaces \ref  {eq:ELOeffrange}\unskip \@@italiccorr )}} [blue line] using the correspondences of parameters for the dilute Fermi gas \textup  {\hbox {\mathsurround \z@ \normalfont  (\ignorespaces \ref  {eq:FermiGas-correspondence-effrange}\unskip \@@italiccorr )}}. $E_0$ correspond to the exact ground state energy of the non-interacting Fermi gas. The results are compared with the ones of \citep  {Schwenk2005a} (black dotted line) and with the low-density results of \citep  {Forbes2011a,Forbes2012a} (green open squares). Note that in \citep  {Schwenk2005a}, results are given for the Hartree-Fock energy only. The orange open triangles correspond to QMC results (equivalent to use a Poschl-Teller potential) \citep  {Schonenberg2017a}. }}{23}{figure.17}}
\newlabel{fig:hf-E-UG-effrange}{{17}{23}{Ground state energy of the spin-saturated unitary Fermi gas ($|a_sk_F| = \infty $) at \hf level $E^{\lo }$ as a function of $(r_sk_F)$ obtained with \eqref {eq:ELOeffrange} [blue line] using the correspondences of parameters for the dilute Fermi gas \eqref {eq:FermiGas-correspondence-effrange}. $E_0$ correspond to the exact ground state energy of the non-interacting Fermi gas. The results are compared with the ones of \cite {Schwenk2005a} (black dotted line) and with the low-density results of \cite {Forbes2011a,Forbes2012a} (green open squares). Note that in \cite {Schwenk2005a}, results are given for the Hartree-Fock energy only. The orange open triangles correspond to QMC results (equivalent to use a Poschl-Teller potential) \cite {Schonenberg2017a}}{figure.17}{}}
\newlabel{eq:ELOeffrange}{{91c}{23}{}{equation.14.91alph3}{}}
\newlabel{subsec:app-UG-III}{{XIV.B}{23}{}{section*.52}{}}
\@writefile{toc}{\contentsline {subsection}{\numberline {B}Direct application to ultracold atoms systems III: effective range effect }{23}{section*.52}}
\newlabel{eq:FermiGas-correspondence-effrange}{{92}{23}{}{equation.14.92}{}}
\@writefile{toc}{\appendix }
\newlabel{sec:symmetryUGatHF}{{A}{23}{}{section*.53}{}}
\@writefile{toc}{\contentsline {section}{\numberline {A}Another method for ultracold atoms systems based on symmetry at Hartree-Fock level }{23}{section*.53}}
\@writefile{toc}{\contentsline {subsection}{\numberline {1}Some consideration about the Bertsch parameter}{23}{section*.54}}
\newlabel{eq:Eld}{{A1}{23}{}{equation.A.1}{}}
\newlabel{eq:Eul}{{A2}{23}{}{equation.A.2}{}}
\newlabel{eq:xi0askf}{{A3}{23}{}{equation.A.3}{}}
\@writefile{toc}{\contentsline {subsection}{\numberline {2}Construction of the two-body interaction at HF level}{23}{section*.55}}
\citation{Lacroix2016a,Boulet2019a,BouletPhD}
\@writefile{toc}{\contentsline {subsubsection}{\numberline {a}Low density}{24}{section*.56}}
\@writefile{toc}{\contentsline {subsubsection}{\numberline {b}Strict unitarity}{24}{section*.57}}
\@writefile{toc}{\contentsline {subsubsection}{\numberline {c}Expansion close to unitarity}{24}{section*.58}}
\newlabel{eq:Veff}{{A10}{24}{}{equation.A.10}{}}
\@writefile{toc}{\contentsline {subsubsection}{\numberline {d}HF energy}{24}{section*.59}}
\newlabel{eq:HFDFT}{{A11a}{24}{}{equation.A.11alph1}{}}
\@writefile{toc}{\contentsline {subsection}{\numberline {3}Interaction in coordinate-space}{24}{section*.60}}
\citation{BouletPhD}
\@writefile{lof}{\contentsline {figure}{\numberline {18}{\ignorespaces  Energy as function of $(a_sk_F)$ [top] and $(a_sk_F)^{-1}$ [bottom] calculated with \textsc  {hf}\xspace  energy \textup  {\hbox {\mathsurround \z@ \normalfont  (\ignorespaces \ref  {eq:HFDFT}\unskip \@@italiccorr )}} [red dashed line]. }}{25}{figure.18}}
\newlabel{fig:HFDFT}{{18}{25}{Energy as function of $(a_sk_F)$ [top] and $(a_sk_F)^{-1}$ [bottom] calculated with \hf energy \eqref {eq:HFDFT} [red dashed line]}{figure.18}{}}
\@writefile{lof}{\contentsline {figure}{\numberline {19}{\ignorespaces  Effective interaction in unit of $C_0$ as function of the dimensionless parameter $\mathaccentV {bar}016{r} = \beta r/a_s$.}}{25}{figure.19}}
\newlabel{fig:VHFrspace}{{19}{25}{Effective interaction in unit of $C_0$ as function of the dimensionless parameter $\bar {r} = \beta r/a_s$}{figure.19}{}}
\@writefile{toc}{\contentsline {subsection}{\numberline {4}Quasi-particle properties}{25}{section*.61}}
\newlabel{eq:SEHF}{{A15a}{25}{}{equation.A.15alph1}{}}
\@writefile{lof}{\contentsline {figure}{\numberline {20}{\ignorespaces  Self-energy at unitarity calculated at HF level with the effective interaction, Eq. \textup  {\hbox {\mathsurround \z@ \normalfont  (\ignorespaces \ref  {eq:SEHF}\unskip \@@italiccorr )}} as function of $k$.}}{26}{figure.20}}
\newlabel{fig:SEHFUL}{{20}{26}{Self-energy at unitarity calculated at HF level with the effective interaction, Eq. \eqref {eq:SEHF} as function of $k$}{figure.20}{}}
\@writefile{toc}{\contentsline {subsubsection}{\numberline {a}Chemical potential}{26}{section*.62}}
\@writefile{toc}{\contentsline {subsubsection}{\numberline {b}Effective mass}{26}{section*.63}}
\newlabel{subsecApp:MBPTcorrAtHF}{{A.5}{26}{}{section*.64}{}}
\@writefile{toc}{\contentsline {subsection}{\numberline {5}Second and third order effective MBPT at HF level }{26}{section*.64}}
\@writefile{toc}{\contentsline {subsection}{\numberline {6}Discussion on perturbation theory with a correlated HF effective interaction}{27}{section*.65}}
\newlabel{eq:MBPT2}{{A21}{27}{}{equation.A.21}{}}
\newlabel{eq:subtractE2HF}{{A23}{27}{}{equation.A.23}{}}
\@writefile{toc}{\contentsline {subsubsection}{\numberline {a}Subtraction scheme at low density}{27}{section*.66}}
\@writefile{toc}{\contentsline {subsubsection}{\numberline {b}Subtraction scheme at unitarity}{27}{section*.67}}
\@writefile{toc}{\contentsline {subsubsection}{\numberline {c}Can we make perturbative expansion in both direction at same order?}{28}{section*.68}}
\@writefile{toc}{\contentsline {subsection}{\numberline {7}MBPT at second order}{28}{section*.69}}
\newlabel{eq:EMBPT2}{{A39}{28}{}{equation.A.39}{}}
\@writefile{toc}{\contentsline {subsubsection}{\numberline {a}Determination of $\mathaccentV {bar}016{\xi _0}$}{28}{section*.70}}
\@writefile{toc}{\contentsline {subsubsection}{\numberline {b}Calculation of the second order MBPT correction}{28}{section*.71}}
\citation{Wellenhofer2018a}
\citation{Carlsson2012a}
\@writefile{lof}{\contentsline {figure}{\numberline {21}{\ignorespaces  Ground state energy of the spin-saturated Fermi gas as a function of $-(a_sk_F)$ [top] and $-(a_sk_F)^{-1}$ [bottom]. The \textsc  {hf}\xspace  energy is obtained from \textup  {\hbox {\mathsurround \z@ \normalfont  (\ignorespaces \ref  {eq:HFDFT}\unskip \@@italiccorr )}} [red solid line] and the second order MBPT results with subtraction scheme is obtained with \textup  {\hbox {\mathsurround \z@ \normalfont  (\ignorespaces \ref  {eq:EMBPT2}\unskip \@@italiccorr )}} [green dashed line]. $E_0$ correspond to the exact ground state energy of the non-interacting Fermi gas. For reference, the second [black solid line], third [black dasched line], and fourth [black dotted line] orders of the \textsc  {mbpt}\xspace  for dilute Fermi gas \citep  {Wellenhofer2018a} are shown as well as \emph  {ab initio}\xspace  calculation [black dots] of \citep  {Carlsson2012a}. }}{29}{figure.21}}
\newlabel{fig:EMBPT2NM}{{21}{29}{Ground state energy of the spin-saturated Fermi gas as a function of $-(a_sk_F)$ [top] and $-(a_sk_F)^{-1}$ [bottom]. The \hf energy is obtained from \eqref {eq:HFDFT} [red solid line] and the second order MBPT results with subtraction scheme is obtained with \eqref {eq:EMBPT2} [green dashed line]. $E_0$ correspond to the exact ground state energy of the non-interacting Fermi gas. For reference, the second [black solid line], third [black dasched line], and fourth [black dotted line] orders of the \mbpt for dilute Fermi gas \cite {Wellenhofer2018a} are shown as well as \abi calculation [black dots] of \cite {Carlsson2012a}}{figure.21}{}}
\citation{Carlsson2012a}
\citation{Carlsson2012a}
\@writefile{toc}{\contentsline {section}{\numberline {B}Generalization of the limiting high-scale constraint}{30}{section*.72}}
\@writefile{toc}{\contentsline {subsection}{\numberline {1}Multi-constrained IMCA at HF level}{30}{section*.73}}
\@writefile{lof}{\contentsline {figure}{\numberline {22}{\ignorespaces  Ground state energy of the spin-saturated Fermi gas as a function of $-(a_sk_F)$. The \textsc  {hf}\xspace  energy is obtained from \textup  {\hbox {\mathsurround \z@ \normalfont  (\ignorespaces \ref  {eq:HLO-discrete}\unskip \@@italiccorr )}} for $N = 1$ [red solid line], $N = 2$ [blue solid line], $N = 3$ [green solid line], and $N = 4$ [gray dashed line] (see table {tab:multi-contraint-uca} for the value of constraints from \citep  {Carlsson2012a}). $E_0$ correspond to the exact ground state energy of the non-interacting Fermi gas. For reference, \emph  {ab initio}\xspace  calculation [black dots] of \citep  {Carlsson2012a} are shown. }}{30}{figure.22}}
\newlabel{fig:multi-constraint}{{22}{30}{Ground state energy of the spin-saturated Fermi gas as a function of $-(a_sk_F)$. The \hf energy is obtained from \eqref {eq:HLO-discrete} for $N = 1$ [red solid line], $N = 2$ [blue solid line], $N = 3$ [green solid line], and $N = 4$ [gray dashed line] (see table {tab:multi-contraint-uca} for the value of constraints from \cite {Carlsson2012a}). $E_0$ correspond to the exact ground state energy of the non-interacting Fermi gas. For reference, \abi calculation [black dots] of \cite {Carlsson2012a} are shown}{figure.22}{}}
\@writefile{toc}{\contentsline {subsubsection}{\numberline {a}Application to ultracold atoms systems}{30}{section*.74}}
\@writefile{lot}{\contentsline {table}{\numberline {II}{\ignorespaces The \ensuremath  { \mathrm  {gs} }\xspace  energy of the ultracold atoms systems at several values of $a_sk_F$.}}{30}{table.2}}
\newlabel{tab:multi-contraint-uca}{{II}{30}{The \gs energy of the ultracold atoms systems at several values of $a_sk_F$}{table.2}{}}
\@writefile{toc}{\contentsline {subsection}{\numberline {2}From discrete to continuous multi-constraints}{30}{section*.75}}
\newlabel{eq:HLO-continuous}{{B8}{31}{}{equation.B.8}{}}
\@writefile{toc}{\contentsline {subsubsection}{\numberline {a}Determination of the continuum functions $P$ and $T$}{31}{section*.76}}
\@writefile{toc}{\contentsline {subsubsection}{\numberline {b}Determination of the continuum functions $S$}{31}{section*.77}}
\newlabel{eq:autoconst-ab}{{B13}{31}{}{equation.B.13}{}}
\@writefile{toc}{\contentsline {subsection}{\numberline {3}Study of the auto-consistent equation}{31}{section*.78}}
\@writefile{toc}{\contentsline {subsubsection}{\numberline {a}Minimal constraint}{31}{section*.79}}
\@writefile{toc}{\contentsline {subsubsection}{\numberline {b}Maximal constraint}{31}{section*.80}}
\newlabel{eq:autoconst-infty}{{B17}{31}{}{equation.B.17}{}}
\@writefile{toc}{\contentsline {subsubsection}{\numberline {c}Solution Fredholm equation using the resolvent formalism}{31}{section*.81}}
\@writefile{toc}{\contentsline {subsubsection}{\numberline {d}Change of variable and integration by part}{32}{section*.82}}
\@writefile{toc}{\contentsline {section}{\numberline {C}Scaling invariance}{33}{section*.83}}
\bibcite{CHbook:EFTforDFT}{{1}{}{{}}{{}}}
\bibcite{book:FetterWalecka}{{2}{}{{}}{{}}}
\bibcite{book:crossoverUG}{{3}{}{{}}{{}}}
\bibcite{Adhikari2008a}{{4}{}{{}}{{}}}
\bibcite{Lacroix2016a}{{5}{}{{}}{{}}}
\bibcite{Boulet2019a}{{6}{}{{}}{{}}}
\bibcite{BouletPhD}{{7}{}{{}}{{}}}
\bibcite{book:comput}{{8}{}{{}}{{}}}
\bibcite{Wellenhofer2018a}{{9}{}{{}}{{}}}
\bibcite{Carlsson2012a}{{10}{}{{}}{{}}}
\bibcite{Bulgac2005a}{{11}{}{{}}{{}}}
\bibcite{Richardson1964a}{{12}{}{{}}{{}}}
\bibcite{Schwenk2005a}{{13}{}{{}}{{}}}
\bibcite{Forbes2011a}{{14}{}{{}}{{}}}
\bibcite{Forbes2012a}{{15}{}{{}}{{}}}
\bibcite{Schonenberg2017a}{{16}{}{{}}{{}}}
\bibdata{mainNotes}
\bibstyle{apsrmp4-1}
\citation{REVTEX41Control}
\citation{apsrmp41Control}
\providecommand\NAT@force@numbers{}\NAT@force@numbers
\@writefile{toc}{\contentsline {section}{\numberline {}References}{34}{section*.84}}
\newlabel{LastBibItem}{{16}{34}{}{section*.84}{}}
\newlabel{LastPage}{{}{34}{}{}{}}
