-0.5                 	83.79417239055675  	-1.0502424727216924
-0.49                	83.95655023454344  	-1.055481755850876
-0.48                	84.11678727749148  	-1.060645325057112
-0.47                	84.27482319726055  	-1.0657315168490067
-0.46                	84.43059690427947  	-1.0707386481441938
-0.45                	84.58404654873941  	-1.0756650163002235
-0.44                	84.73510952905028  	-1.0805088991700778
-0.43                	84.88372250059774  	-1.0852685551519548
-0.42                	85.02982138606062  	-1.0899422232717344
-0.41000000000000003 	85.17334138609533  	-1.0945281232615964
-0.4                 	85.31421699141008  	-1.099024455664432
-0.39                	85.45238199569123  	-1.1034294019494182
-0.38                	85.58776950937926  	-1.1077411246352313
-0.37                	85.72031197471593  	-1.1119577674367664
-0.36                	85.84994118194894  	-1.116077455428789
-0.35                	85.97658828614169  	-1.1200982952107292
-0.33999999999999997 	86.10018382582531  	-1.1240183751103034
-0.32999999999999996 	86.22065774230907  	-1.1278357653883289
-0.32                	86.33793940013557  	-1.1315485184597995
-0.31                	86.45195760920795  	-1.1351546691483552
-0.3                 	86.56264064759635  	-1.1386522349409756
-0.29000000000000004 	86.66991628618848  	-1.1420392162812742
-0.28                	86.77371181371389  	-1.1453135968530135
-0.27                	86.8739540643353   	-1.1484733439244337
-0.26                	86.97056944512362  	-1.1515164086673664
-0.25                	87.06348396644572  	-1.1544407265476762
-0.24                	87.15262327193196  	-1.1572442176804028
-0.22999999999999998 	87.23791267118044  	-1.1599247872510936
-0.21999999999999997 	87.31927717378896  	-1.1624803259570806
-0.21000000000000002 	87.39664152359812  	-1.1649087104343818
-0.2                 	87.46993023542912  	-1.1672078037429399
-0.19                	87.53906763325713  	-1.1693754558750469
-0.18                	87.60397788885945  	-1.1714095042598804
-0.16999999999999998 	87.6645850629652   	-1.1733077743247404
-0.15999999999999998 	87.72081314738257  	-1.1750680800689115
-0.14999999999999997 	87.77258610741904  	-1.1766882246255839
-0.14                	87.81982792904853  	-1.1781660009555677
-0.13                	87.86246266229293  	-1.1794991924022746
-0.12                	87.90041447168979  	-1.180685573452726
-0.10999999999999999 	87.93360768377838  	-1.1817229103863511
-0.09999999999999998 	87.9619668371818   	-1.182608961990647
-0.08999999999999997 	87.98541673638064  	-1.1833414803744744
-0.08000000000000002 	88.00388250387557  	-1.1839182117195595
-0.07                	88.01728963313545  	-1.184336897039457
-0.06                	88.02556404513211  	-1.1845952730413145
-0.04999999999999999 	88.02863215041471  	-1.1846910731462434
-0.03999999999999998 	88.02642089360215  	-1.1846220279524897
-0.02999999999999997 	88.01885783316632  	-1.1843858667910314
-0.020000000000000018	88.00587118751562  	-1.183980318222532
-0.010000000000000009	87.98738987019398  	-1.1834031101801732
0.010000000000000009 	87.93366306856561  	-1.181724641015683
0.020000000000000018 	87.89827964018843  	-1.1806188475709232
0.030000000000000027 	87.85712581722211  	-1.1793323332497399
0.040000000000000036 	87.81013512053035  	-1.177862843862795
0.050000000000000044 	87.75724218536439  	-1.1762081319512698
0.06000000000000005  	87.69838281222364  	-1.1743659574294087
0.07000000000000006  	87.63349405629545  	-1.1723340894381427
0.07999999999999996  	87.56251428887344  	-1.1701103073357404
0.08999999999999997  	87.4853832611225   	-1.1676924017719599
0.09999999999999998  	87.40204217865582  	-1.165078176117823
0.10999999999999999  	87.31243376765008  	-1.1622654476422438
0.12                 	87.21650234364117  	-1.1592520487978941
0.13                 	87.11419388131814  	-1.1560358285551071
0.14                 	87.00545608330434  	-1.1526146537316528
0.15000000000000002  	86.89023844666545  	-1.1489864102742877
0.16000000000000003  	86.76849233331669  	-1.145149004695819
0.17000000000000004  	86.64017103583797  	-1.1411003653950904
0.18000000000000005  	86.50522984488555  	-1.136838444065846
0.19000000000000006  	86.3636261148536   	-1.1323612170833508
0.20000000000000007  	86.21531932950077  	-1.1276666869324314
0.20999999999999996  	86.0602711654032   	-1.1227528836067258
0.21999999999999997  	85.89844555564655  	-1.1176178660621012
0.22999999999999998  	85.72980875094144  	-1.1122597236341778
0.24                 	85.5543293800213   	-1.1066765774843252
0.25                 	85.37197850854356  	-1.1008665820492192
0.26                 	85.18272969587132  	-1.094827926479737
0.27                 	84.98655905047785  	-1.0885588360921152
0.28                 	84.78344528310751  	-1.0820575738075437
0.29000000000000004  	84.57336975807154  	-1.0753224415953906
0.30000000000000004  	84.3563165422883   	-1.068351781907804
0.31000000000000005  	84.13227245183147  	-1.0611439791015838
0.32000000000000006  	83.90122709620135  	-1.0536974608555418
0.33000000000000007  	83.66317292015239  	-1.0460106995805385
0.33999999999999997  	83.4181052424022   	-1.0380822138010595
0.35                 	83.1660222919642   	-1.0299105695350983
0.36                 	82.90692524129484  	-1.0214943816464448
0.37                 	82.64081823668961  	-1.012832315186119
0.38                 	82.36770842502833  	-1.003923086693058
0.39                 	82.08760597796308  	-0.9947654654927177
0.4                  	81.80052411231267  	-0.985358274951619
0.41000000000000003  	81.50647910727817  	-0.9757003937112497
0.42000000000000004  	81.20549031811443  	-0.9657907568866793
0.43000000000000005  	80.89758018628893  	-0.9556283572341613
0.44000000000000006  	80.5827742459978   	-0.9452122462807052
0.45000000000000007  	80.26110112706186  	-0.9345415354180627
0.45999999999999996  	79.93259255409096  	-0.9236153969555772
0.47                 	79.59728334191439  	-0.9124330651323246
0.48                 	79.2552113871889   	-0.9009938370835983
0.49                 	78.90641765628445  	-0.8892970737643449
0.5                  	78.55094616930472  	-0.877342200823354
