\relax 
\providecommand\hyper@newdestlabel[2]{}
\providecommand\HyperFirstAtBeginDocument{\AtBeginDocument}
\HyperFirstAtBeginDocument{\ifx\hyper@anchor\@undefined
\global\let\oldcontentsline\contentsline
\gdef\contentsline#1#2#3#4{\oldcontentsline{#1}{#2}{#3}}
\global\let\oldnewlabel\newlabel
\gdef\newlabel#1#2{\newlabelxx{#1}#2}
\gdef\newlabelxx#1#2#3#4#5#6{\oldnewlabel{#1}{{#2}{#3}}}
\AtEndDocument{\ifx\hyper@anchor\@undefined
\let\contentsline\oldcontentsline
\let\newlabel\oldnewlabel
\fi}
\fi}
\global\let\hyper@last\relax 
\gdef\HyperFirstAtBeginDocument#1{#1}
\providecommand\HyField@AuxAddToFields[1]{}
\providecommand\HyField@AuxAddToCoFields[2]{}
\gdef \tocmax@section{14.21928pt}
\gdef \tocmax@subsection{14.22816pt}
\gdef \tocmax@subsubsection{5.0pt}
\gdef \tocmax@paragraph{5.0pt}
\gdef \tocmax@appendix{5.0pt}
\gdef \tocmax@pagenum{5.0pt}
\citation{Richardson1964a}
\newlabel{FirstPage}{{}{1}{}{section*.1}{}}
\@writefile{toc}{\contentsline {title}{Note on the Richardson pairing Hamiltonian}{1}{section*.2}}
\@writefile{toc}{\contentsline {abstract}{Abstract}{1}{section*.1}}
\@writefile{toc}{\tocdepth@munge}
\@writefile{toc}{\contentsline {section}{\numberline {}Contents}{1}{section*.3}}
\@writefile{toc}{\tocdepth@restore}
\@writefile{lof}{\contentsline {figure}{\numberline {1}{\ignorespaces  Configuration (Slater determinant) of the \textsc  {rph}\xspace  discussed in the text with $A=4$ and $l=4$ ($N_l =2L$). On the left is represented the ground-state and zero-particle-zero-hole excitation ($0p-0h$), the four central diagrams correspond to the $2p-2h$ excitations, and the right diagrams correspond to the $4p-4h$ excitation. The sub-Hilber space below (above) the dashed line correspond to $\mathcal  {P}$ ($\mathcal  {Q}$).}}{1}{figure.1}}
\newlabel{fig:configurationRPH}{{1}{1}{Configuration (Slater determinant) of the \rph discussed in the text with $A=4$ and $l=4$ ($N_l =2L$). On the left is represented the ground-state and zero-particle-zero-hole excitation ($0p-0h$), the four central diagrams correspond to the $2p-2h$ excitations, and the right diagrams correspond to the $4p-4h$ excitation. The sub-Hilber space below (above) the dashed line correspond to $\mathcal {P}$ ($\mathcal {Q}$)}{figure.1}{}}
\citation{book:comput}
\citation{book:comput}
\@writefile{lot}{\contentsline {table}{\numberline {I}{\ignorespaces Energy of the \ensuremath  { \mathrm  {sp} }\xspace  states for the \textsc  {rph}\xspace  discussed in the text labeled by the quantum number $p$ and the spin-projection on the quantification axis $\sigma $.}}{2}{table.1}}
\newlabel{tab:RPH-quantum-number}{{I}{2}{Energy of the \sp states for the \rph discussed in the text labeled by the quantum number $p$ and the spin-projection on the quantification axis $\sigma $}{table.1}{}}
\@writefile{toc}{\contentsline {section}{\numberline {I}Exact ground-state energy}{2}{section*.4}}
\@writefile{toc}{\contentsline {section}{\numberline {II}Hartree-Fock and MBPT solutions}{2}{section*.5}}
\@writefile{toc}{\contentsline {subsection}{\numberline {A}Hartree-Fock}{2}{section*.6}}
\@writefile{lof}{\contentsline {figure}{\numberline {2}{\ignorespaces   Ground state energy (top), correlation energy (center), and dimensionless ground states energy (bottom) of the \textsc  {rph}\xspace  as a function of the strength parameter $g$. On top, the red line correspond to the exact solution, the blue line to the reference energy, and the black dashed line to the truncation of the $4p-4h$ configuration. The green dotted line correspond to the results obtained with \textsc  {hf}\xspace  calculation identical to the reference energy considering only $0p-0h$ excitations. }}{2}{figure.2}}
\newlabel{fig:exact-E-RPH}{{2}{2}{Ground state energy (top), correlation energy (center), and dimensionless ground states energy (bottom) of the \rph as a function of the strength parameter $g$. On top, the red line correspond to the exact solution, the blue line to the reference energy, and the black dashed line to the truncation of the $4p-4h$ configuration. The green dotted line correspond to the results obtained with \hf calculation identical to the reference energy considering only $0p-0h$ excitations}{figure.2}{}}
\@writefile{toc}{\contentsline {subsection}{\numberline {B}Second and third order in MBPT}{2}{section*.7}}
\bibcite{Richardson1964a}{{1}{}{{}}{{}}}
\bibcite{book:comput}{{2}{}{{}}{{}}}
\bibdata{mainNotes}
\bibstyle{apsrmp4-1}
\citation{REVTEX41Control}
\citation{apsrmp41Control}
\providecommand\NAT@force@numbers{}\NAT@force@numbers
\@writefile{lof}{\contentsline {figure}{\numberline {3}{\ignorespaces   Correlation energy of the \textsc  {rph}\xspace  as a function of the strength parameter $g$. The red line correspond to the exact solution, the blue dotted line to the \textsc  {mbpt}\xspace  results at second order, the blue dashed line to the \textsc  {mbpt}\xspace  results at third order, and the black dash-dotted line corresponds to the \textsc  {mbpt}\xspace  results at fourth order of \citep  {book:comput}. }}{3}{figure.3}}
\newlabel{fig:MBPT-E-RPH}{{3}{3}{Correlation energy of the \rph as a function of the strength parameter $g$. The red line correspond to the exact solution, the blue dotted line to the \mbpt results at second order, the blue dashed line to the \mbpt results at third order, and the black dash-dotted line corresponds to the \mbpt results at fourth order of \cite {book:comput}}{figure.3}{}}
\@writefile{toc}{\contentsline {section}{\numberline {}References}{3}{section*.8}}
\newlabel{LastBibItem}{{2}{3}{}{section*.8}{}}
\newlabel{LastPage}{{}{3}{}{}{}}
